[
    {
        "scope": "https://www.kauzig.ch:443",
        "method": "GET",
        "path": "/",
        "body": "",
        "status": 200,
        "response": "<!DOCTYPE html>\n<html lang=\"en\">\n<!DOCTYPE html>\n<html lang=\"en\">\n<head>\n  \n\t<title>KAUZ - home</title>\n\t<meta charset=\"utf-8\" />\n\t<meta name=\"description\" content=\"Kauz, Ausstellungsstrasse 21, 8005 Z&uuml;rich\" />\n\t<meta name=\"keywords\" content=\"Club, Music, Launch, Bar\" />\n\t<meta name=\"robots\" content=\"index, follow\" />\n\t<meta name=\"viewport\" content=\"width=device-width\">\n\t\n\t<link rel=\"icon\" type=\"image/png\" href=\"kauz-icon.png\">\n\t\n\t<link rel=\"stylesheet\" href=\"assets/styles/normalize.css\">\n\t<link rel=\"stylesheet\" href=\"assets/styles/main.css\">  \n\t\n</head>\n<body>\n\n\n\t<div id=\"container\" >\n\t  <div id=\"logo\" class=\"item\">\n\t  \t<img src=\"assets/images/kauz.gif\" alt=\"Kauz Logo\" />\n\t  </div>\n\n\t\t<div id=\"home\" class=\"item\"><div><hr />\n\n<hr />\n\n<h1>Januar</h1>\n\n<h1>2020</h1>\n\n<hr />\n\n<hr />\n\n<hr />\n\n<hr />\n\n<hr />\n\n<p><small>Freitag 03</small><br />\nGESCHLOSSEN</p>\n\n<blockquote>\n  <hr />\n</blockquote>\n\n<hr />\n\n<p><small>Samstag 04</small></p>\n\n<h2>Extended</h2>\n\n<hr />\n\n<p>Cyan 85<br />\nR.A.T.<br />\n<small><small>House of Mixed Emotions</small></small><br />\nModulaw</p>\n\n<blockquote>\n  <hr />\n</blockquote>\n\n<hr />\n\n<p><small>Donnerstag 09</small></p>\n\n<h2>F96 - Ciderday Night Fever</h2>\n\n<hr />\n\n<p>Surf Dancer<br />\n<small><small>live</small></small><br />\nDolce Amöre &amp; Ms Hyde<br />\nF96 Chaos Group</p>\n\n<hr />\n\n<p>Ab 19:00 Raclette- und Ciderplausch </p>\n\n<hr />\n\n<p>Ab 20:30 Garage TALK \"Diversität im Nachtleben\"</p>\n\n<blockquote>\n  <hr />\n</blockquote>\n\n<hr />\n\n<p><small>Freitag 10</small></p>\n\n<h2>Constatijn Lange</h2>\n\n<hr />\n\n<p>Constantijn Lange<br />\n<small><small>Laut &amp; Luise – Berlin</small></small><br />\nSampayo<br />\nJorin</p>\n\n<blockquote>\n  <hr />\n</blockquote>\n\n<hr />\n\n<p><small>Samstag 11</small></p>\n\n<h2>Crew Love</h2>\n\n<hr />\n\n<p>Johnny Bobo<br />\nLakura<br />\nOkuma<br />\nDigéstif &amp; Livu</p>\n\n<blockquote>\n  <hr />\n</blockquote>\n\n<hr />\n\n<p><small>Donnerstag 16</small></p>\n\n<h2>Dä chli Fritig</h2>\n\n<hr />\n\n<p>Yndusik<br />\n<small><small>live</small></small><br />\nBorotalco Bay<br />\nConnection (bbc)</p>\n\n<blockquote>\n  <hr />\n</blockquote>\n\n<hr />\n\n<p><small>Freitag 17</small></p>\n\n<h2>Pitch 'n Play Vol. II</h2>\n\n<hr />\n\n<p>skinnerbox<br />\n<small><small>live</small></small><br />\nfabulous b2b ferrić<br />\nAndreas Ramos</p>\n\n<blockquote>\n  <hr />\n</blockquote>\n\n<hr />\n\n<p><small>Samstag 18</small></p>\n\n<h2>Ninze &amp; Okaxy</h2>\n\n<hr />\n\n<p>Ninze &amp; Okaxy<br />\n<small><small>live</small></small><br />\nMia Kaltes &amp; Zwillingsmann<br />\nDualism </p>\n\n<blockquote>\n  <hr />\n</blockquote>\n\n<hr />\n\n<p><small>Sonntag 19</small></p>\n\n<h2>Interlace</h2>\n\n<hr />\n\n<p>Aramiss<br />\nEstebahn<br />\nDJ W.E.B<br />\nSebastian Eduardo<br />\n<small><small>live</small></small></p>\n\n<blockquote>\n  <hr />\n</blockquote>\n\n<hr />\n\n<p><small>Donnerstag 23</small></p>\n\n<h2>Dä chli Fritig</h2>\n\n<hr />\n\n<p>None of Them<br />\n<small><small>live</small></small></p>\n\n<blockquote>\n  <hr />\n</blockquote>\n\n<hr />\n\n<p><small>Freitag 24</small></p>\n\n<h2>Explicit</h2>\n\n<hr />\n\n<p>qiu<br />\nHagen Richter<br />\nKadia</p>\n\n<blockquote>\n  <hr />\n</blockquote>\n\n<hr />\n\n<p><small>Samstag 24</small></p>\n\n<h2>Artifact</h2>\n\n<hr />\n\n<p>Polo &amp; Steffen Benemann<br />\nSentiment</p>\n\n<blockquote>\n  <hr />\n</blockquote>\n\n<hr />\n\n<p><small>Donnerstag 30</small></p>\n\n<h2>Dä chli Fritig</h2>\n\n<hr />\n\n<p>Regula Rec Crew<br />\n<small><small>live</small></small><br />\nNimbus<br />\nJasper &amp; Rotel</p>\n\n<blockquote>\n  <hr />\n</blockquote>\n\n<hr />\n\n<p><small>Freitag 31</small></p>\n\n<h2>Franca</h2>\n\n<hr />\n\n<p>Franca<br />\n<small><small>Feines Tier, Kater Blau - Amsterdam</small></small><br />\nAngelica Favri<br />\nSintič<br />\nSpecial: Sexual Healing Area by Talaya  &amp; Angie (Porny Days)</p>\n\n<blockquote>\n  <hr />\n</blockquote>\n\n<hr />\n\n<p><small>SAMSTAG 01</small></p>\n\n<h2>Genderbender</h2>\n\n<hr />\n\n<p>Matija<br />\nSusie Star<br />\nNebukat Nezar<br />\nJacques Obsone<br />\nHorst Wildling</p>\n\n<blockquote>\n  <hr />\n</blockquote>\n\n<hr />\n\n<h1>Kauz</h1>\n\n<p><small>Ausstellungsstr. 21</small><br />\n<small>8005 Zürich</small><br />\n<small>Ab 22:00 - Eintritt frei bis 23:00</small></p>\n</div><div class=\"footer\">\n</div></div><div class=\"item\"><img src=\"content/home/2019_Kauz_Dezember_02.gif\" alt=\"\" /></div><div id=\"contact\" class=\"item lalalala\"><a href=\"mailto:uhu@kauzig.ch\"><img src=\"content/home/contact/contact.png\" alt=\"contact\"/></a></div><div class=\"item\"><img src=\"content/home/2019_Kauz_November_02.gif\" alt=\"\" /></div><div id=\"newsletter\" class=\"item\"><img src=\"content/home/newsletter/kauz-newsletter.gif\" alt=\"\" /><div id=\"newsletterHidden\"><!-- Begin MailChimp Signup Form -->\n<div id=\"mc_embed_signup\">\n<form action=\"http://kauzig.us8.list-manage.com/subscribe/post-json?u=e2e7d3c1f949d07a72ca403db&amp;id=9c7c3f0472&c=?\" method=\"get\" id=\"mc-embedded-subscribe-form\" name=\"mc-embedded-subscribe-form\" class=\"validate\" target=\"_blank\" novalidate>\n\t<!--<h2>Den Kauz Newsletter abonnieren</h2>-->\n<div class=\"mc-field-group\">\n\t<label for=\"mce-EMAIL\">Email<span class=\"asterisk\">*</span>\n</label>\n\t<input type=\"email\" value=\"\" name=\"EMAIL\" class=\"required email\" id=\"mce-EMAIL\" placeholder=\"Email\">\n</div>\n<div class=\"mc-field-group\">\n\t<label for=\"mce-FNAME\">Vorname <span class=\"asterisk\">*</span>\n</label>\n\t<input type=\"text\" value=\"\" name=\"FNAME\" class=\"required\" id=\"mce-FNAME\" placeholder=\"Vorname\">\n</div>\n<div class=\"mc-field-group\">\n\t<label for=\"mce-LNAME\">Nachname <span class=\"asterisk\">*</span>\n</label>\n\t<input type=\"text\" value=\"\" name=\"LNAME\" class=\"required\" id=\"mce-LNAME\" placeholder=\"Nachname\">\n</div>\n<div class=\"mc-field-group\">\n\t<label for=\"mce-MMERGE3\">Addresse </label>\n\t<input type=\"text\" value=\"\" name=\"MMERGE3\" class=\"\" id=\"mce-MMERGE3\" placeholder=\"Addresse (optional)\">\n</div>\n<div class=\"mc-field-group\">\n\t<label for=\"mce-MMERGE4\">PLZ </label>\n\t<input type=\"text\" value=\"\" name=\"MMERGE4\" class=\"\" id=\"mce-MMERGE4\" placeholder=\"PLZ (optional)\">\n</div>\n<div class=\"mc-field-group\">\n\t<label for=\"mce-MMERGE5\">Stadt </label>\n\t<input type=\"text\" value=\"\" name=\"MMERGE5\" class=\"\" id=\"mce-MMERGE5\" placeholder=\"Stadt (optional)\">\n</div>\n\t<div id=\"mce-responses\" class=\"clear\">\n\t\t<div class=\"response\" id=\"mce-error-response\" style=\"display:none\"></div>\n\t\t<div class=\"response\" id=\"mce-success-response\" style=\"display:none\"></div>\n\t</div>    <!-- real people should not fill this in and expect good things - do not remove this or risk form bot signups-->\n    <div style=\"position: absolute; left: -5000px;\"><input type=\"text\" name=\"b_e2e7d3c1f949d07a72ca403db_9c7c3f0472\" value=\"\"></div>\n\t<div class=\"clear\"><input type=\"submit\" value=\"abschicken\" name=\"subscribe\" id=\"mc-embedded-subscribe\" class=\"button\"></div>\n</form>\n</div>\n\n<!--End mc_embed_signup--></div></div><div id=\"bar\" class=\"item\"><div class=\"flipper\"><div class=\"front\"><img src=\"content/home/bar/drink_of_the_month_classy.jpg\" alt=\"\" /></div><div class=\"back\"><h2>SCHREBERGARTEN</h2>\n\n<p>PAW PAW, VODKA, LIMETTE, AGAVE</p>\n\n<h2>SADIE THE GOAT</h2>\n\n<p>SAFRAN, HOLUNDERBLÜTE, GIN, CHAMPAGNER</p>\n\n<h2>666</h2>\n\n<p>TEQUILA REPOSADO, CASSIS SHRUB, LIMETTE, GINGER ALE</p>\n\n<h2>SEIZE HEURES</h2>\n\n<p>BOURBON, ABSINTH, ZITRONE, ANGOSTURA BITTERS</p>\n\n<h2>BETWEEN THE SHEETS</h2>\n\n<p>COGNAC, WEISSER RUM, COINTREAU, ZITRONE</p>\n\n<h2>FRANZ</h2>\n\n<p>MONDINO, PROSECCO</p>\n\n<p>☻</p>\n\n<p><p></p>\n</div></div></div><div class=\"item\"><img src=\"content/home/2019_Kauz_Oktober.gif\" alt=\"\" /></div><div id=\"lostAndFound\" class=\"item\"><img src=\"content/home/lostAndFound/lost_and_found.jpg\" alt=\"lost and found\"/><div id=\"lostandfoundHidden\"><form action=\"sendmail.php\" method=\"post\" id=\"lostandfoundform\" class=\"form-inline\">\n    <div class=\"input-area\">\n    \t<input type=\"email\" value=\"\" name=\"Email\" class=\"required email\" id=\"EMAIL\" placeholder=\"Email\">\n    \t<input type=\"text\" value=\"\" name=\"Vorname\" class=\"required\" id=\"FNAME\" placeholder=\"Vorname\">\n    \t<input type=\"text\" value=\"\" name=\"Nachname\" class=\"required\" id=\"LNAME\" placeholder=\"Nachname\">\n    \t<input type=\"text\" value=\"\" name=\"Adresse\" class=\"\" id=\"MMERGE3\" placeholder=\"Adresse\">\n    \t<input type=\"text\" value=\"\" name=\"PLZ\" class=\"\" id=\"MMERGE4\" placeholder=\"PLZ\">\n    \t<input type=\"text\" value=\"\" name=\"Stadt\" class=\"\" id=\"MMERGE5\" placeholder=\"Stadt\">\n    \t<input type=\"text\" value=\"\" name=\"Telefon\" class=\"\" id=\"MMERGE6\" placeholder=\"Telefon\">\n    \t<input type=\"text\" value=\"\" name=\"Datum_des_Verlustes\" class=\"\" id=\"MMERGE7\" placeholder=\"Datum des Verlustes\">\n    \t<input type=\"text\" value=\"\" name=\"Uhrzeit_des_Verlustes\" class=\"\" id=\"MMERGE8\" placeholder=\"Uhrzeit des Verlustes\">\n    \t<input type=\"text\" value=\"\" name=\"Ticketnummer\" class=\"\" id=\"MMERGE9\" placeholder=\"Ticket (falls vorhanden)\">\n        <input type=\"text\" value=\"\" name=\"Name_des_Events\" class=\"\" id=\"MMERGE10\" placeholder=\"Name des Events\">\n        <input type=\"text\" value=\"\" name=\"Genauer_Ort_des_Verlustes\" class=\"\" id=\"MMERGE11\" placeholder=\"Genauer Ort des Verlustes\">\n        <textarea rows=\"6\" name=\"Beschreibung_des_Gegenstandes\" form=\"lostandfoundform\" class=\"required\" placeholder=\"Beschreibung des Gegenstandes\"></textarea>\n        <textarea rows=\"6\" name=\"Bemerkungen\" form=\"lostandfoundform\" placeholder=\"Bemerkungen\"></textarea>\n    </div>\n\t<div id=\"responses\" class=\"clear\">\n\t\t<div class=\"response\" id=\"error-response\" style=\"display:none\"></div>\n\t\t<div class=\"response\" id=\"success-response\" style=\"display:none\"></div>\n\t</div>\n\n    <input type=\"submit\" value=\"abschicken\" name=\"subscribe\" id=\"embedded-subscribe\" class=\"button lostandfound-submit\">\n</form>\n</div></div><div class=\"item\"><img src=\"content/home/274D48DB-0D5D-4EB8-84F2-A3218FFCAD19.gif\" alt=\"\" /></div><div id=\"radio\" class=\"item\"><a href=\"https://soundcloud.com/kauzmusik\" target=\"_blank\"><img src=\"content/home/radio/soundcloud.png\" alt=\"soundcloud\" /></a></div><div class=\"item\"><img src=\"content/home/C649307A-1C7B-49C8-8E5F-865CC8870D99-3368-0000018CF527F211.GIF\" alt=\"\" /></div><div class=\"item\"><img src=\"content/home/IMG_2752web.jpg\" alt=\"\" /></div><div class=\"item\"><img src=\"content/home/NSGIF-15737529066.GIF\" alt=\"\" /></div><div class=\"item\"><img src=\"content/home/NSGIF-15767742133.GIF\" alt=\"\" /></div><div class=\"item\"><img src=\"content/home/Unalike_Flyer_Instagram.png\" alt=\"\" /></div><div class=\"item\"><img src=\"content/home/n_hamburg.jpg\" alt=\"\" /></div><div class=\"item\"><img src=\"content/home/ra_cocktail_neu.jpg\" animation=\"content/home/animations/ra_cocktail_neu.gif\" still=\"content/home/ra_cocktail_neu.jpg\" alt=\"\" /></div><div class=\"item\"><img src=\"content/home/t_retro_shuttle.jpg\" animation=\"content/home/animations/t_retro_shuttle.gif\" still=\"content/home/t_retro_shuttle.jpg\" alt=\"\" /></div><div class=\"item\"><img src=\"content/home/tv_snow.jpg\" animation=\"content/home/animations/tv_snow.gif\" still=\"content/home/tv_snow.jpg\" alt=\"\" /></div><div class=\"item\"><img src=\"content/home/u_civetta_web_2.jpg\" alt=\"\" /></div><div class=\"item\"><img src=\"content/home/u_spiralwave.jpg\" animation=\"content/home/animations/u_spiralwave.gif\" still=\"content/home/u_spiralwave.jpg\" alt=\"\" /></div><div class=\"item\"><img src=\"content/home/y_doro_streetparade_square.jpg\" animation=\"content/home/animations/y_doro_streetparade_square.gif\" still=\"content/home/y_doro_streetparade_square.jpg\" alt=\"\" /></div><div class=\"item\"><img src=\"content/home/ywassermelonenschrebi.jpg\" alt=\"\" /></div><div class=\"item\"><img src=\"content/home/z_02.gif\" alt=\"\" /></div><div class=\"item\"><img src=\"content/home/z_cloud_bw.jpg\" animation=\"content/home/animations/z_cloud_bw.gif\" still=\"content/home/z_cloud_bw.jpg\" alt=\"\" /></div><div class=\"item\"><img src=\"content/home/zz_aftermess_invert.jpg\" animation=\"content/home/animations/zz_aftermess_invert.gif\" still=\"content/home/zz_aftermess_invert.jpg\" alt=\"\" /></div><div class=\"item\"><img src=\"content/home/zz_smokeweb.gif\" alt=\"\" /></div>\n\n\t</div>\n\t<script src=\"assets/js/jquery-1.11.0.min.js\"></script>\n\t<script src=\"assets/js/masonry.pkgd.min.js\"></script>\n\t<script src=\"assets/js/imagesloaded.pkgd.min.js\"></script>\n\t<script src=\"assets/audiojs/audio.min.js\"></script>\n\t<script src=\"assets/js/main.js\"></script>\n</body>\n</html>\n",
        "rawHeaders": [
            "server",
            "nginx",
            "date",
            "sun, 05 jan 2020 13:06:42 gmt",
            "content-type",
            "text/html; charset=utf-8",
            "transfer-encoding",
            "chunked",
            "connection",
            "close",
            "vary",
            "accept-encoding",
            "x-powered-by",
            "plesklin"
        ]
    }
]
