[
    {
        "scope": "https://kontikibar.ch:443",
        "method": "GET",
        "path": "/",
        "body": "",
        "status": 200,
        "response": "<!DOCTYPE html>\n\n<!--// OPEN HTML //-->\n<html lang=\"en-US\">\n\n\t<!--// OPEN HEAD //-->\n\t<head>\n\t\n\t\t                        \n            \n            <!--// SITE META //-->\n            <meta charset=\"UTF-8\"/>\n                        \t                <meta name=\"viewport\" content=\"width=device-width, initial-scale=1.0, maximum-scale=1\"/>\n                                    \n            <!--// PINGBACK & FAVICON //-->\n            <link rel=\"pingback\" href=\"https://kontikibar.ch/kontiki/xmlrpc.php\"/>\n                            <link rel=\"shortcut icon\" href=\"https://kontikibar.ch/kontiki/wp-content/uploads/2018/04/32.png\" />\n                            <link rel=\"apple-touch-icon-precomposed\" sizes=\"144x144\"\n                      href=\"https://kontikibar.ch/kontiki/wp-content/uploads/2018/04/144.png\"/>\n                                        <link rel=\"apple-touch-icon-precomposed\" sizes=\"114x114\"\n                      href=\"https://kontikibar.ch/kontiki/wp-content/uploads/2018/04/114.png\"/>\n                                        <link rel=\"apple-touch-icon-precomposed\" sizes=\"72x72\"\n                      href=\"https://kontikibar.ch/kontiki/wp-content/uploads/2018/04/72.png\"/>\n                                        <link rel=\"apple-touch-icon-precomposed\" sizes=\"57x57\"\n                      href=\"https://kontikibar.ch/kontiki/wp-content/uploads/2018/04/57.png\"/>\n            \n        <title>Kon-Tiki Coffeeshop &amp; Bar &#8211; Das Kon-Tiki in Zürich ist die älteste Tikibar in Europa, eröffnet 1955. Sie biederte sich nie an Trends an, sondern blieb immer eine Bar für Rauhbeine, Abenteurerinnen, und solche, die es werden wollen.</title>\n    <script>function spbImageResizer_writeCookie(){the_cookie=document.cookie,the_cookie&&window.devicePixelRatio>=2&&(the_cookie=\"spb_image_resizer_pixel_ratio=\"+window.devicePixelRatio+\";\"+the_cookie,document.cookie=the_cookie)}spbImageResizer_writeCookie();</script>\n    <script>function sf_writeCookie(){the_cookie=document.cookie,the_cookie&&window.devicePixelRatio>=2&&(the_cookie=\"sf_pixel_ratio=\"+window.devicePixelRatio+\";\"+the_cookie,document.cookie=the_cookie)}sf_writeCookie();</script>\n<link rel='dns-prefetch' href='//maxcdn.bootstrapcdn.com' />\n<link rel='dns-prefetch' href='//fonts.googleapis.com' />\n<link rel='dns-prefetch' href='//s.w.org' />\n<link rel=\"alternate\" type=\"application/rss+xml\" title=\"Kon-Tiki Coffeeshop &amp; Bar &raquo; Feed\" href=\"https://kontikibar.ch/feed/\" />\n\n<!-- Facebook Meta -->\n<meta property=\"og:title\" content=\"Home - Kon-Tiki Coffeeshop &amp; Bar\"/>\n<meta property=\"og:type\" content=\"article\"/>\n<meta property=\"og:url\" content=\"https://kontikibar.ch/\"/>\n<meta property=\"og:site_name\" content=\"Kon-Tiki Coffeeshop &amp; Bar\"/>\n<meta property=\"og:description\" content=\"\">\n<meta property=\"og:image\" content=\"https://kontikibar.ch/kontiki/wp-content/uploads/2018/03/7fa230_9a3fefc432ff48df9df370f5eff3e0dcmv2.png\"/>\n\n<!-- Twitter Card data -->\n<meta name=\"twitter:card\" content=\"summary_large_image\">\n<meta name=\"twitter:title\" content=\"Home\">\n<meta name=\"twitter:description\" content=\"\">\n<meta property=\"twitter:image:src\" content=\"https://kontikibar.ch/kontiki/wp-content/uploads/2018/03/7fa230_9a3fefc432ff48df9df370f5eff3e0dcmv2.png\"/>\n\n\n\t\t<script type=\"text/javascript\">\n\t\t\twindow._wpemojiSettings = {\"baseUrl\":\"https:\\/\\/s.w.org\\/images\\/core\\/emoji\\/11\\/72x72\\/\",\"ext\":\".png\",\"svgUrl\":\"https:\\/\\/s.w.org\\/images\\/core\\/emoji\\/11\\/svg\\/\",\"svgExt\":\".svg\",\"source\":{\"concatemoji\":\"https:\\/\\/kontikibar.ch\\/kontiki\\/wp-includes\\/js\\/wp-emoji-release.min.js?ver=4.9.10\"}};\n\t\t\t!function(a,b,c){function d(a,b){var c=String.fromCharCode;l.clearRect(0,0,k.width,k.height),l.fillText(c.apply(this,a),0,0);var d=k.toDataURL();l.clearRect(0,0,k.width,k.height),l.fillText(c.apply(this,b),0,0);var e=k.toDataURL();return d===e}function e(a){var b;if(!l||!l.fillText)return!1;switch(l.textBaseline=\"top\",l.font=\"600 32px Arial\",a){case\"flag\":return!(b=d([55356,56826,55356,56819],[55356,56826,8203,55356,56819]))&&(b=d([55356,57332,56128,56423,56128,56418,56128,56421,56128,56430,56128,56423,56128,56447],[55356,57332,8203,56128,56423,8203,56128,56418,8203,56128,56421,8203,56128,56430,8203,56128,56423,8203,56128,56447]),!b);case\"emoji\":return b=d([55358,56760,9792,65039],[55358,56760,8203,9792,65039]),!b}return!1}function f(a){var c=b.createElement(\"script\");c.src=a,c.defer=c.type=\"text/javascript\",b.getElementsByTagName(\"head\")[0].appendChild(c)}var g,h,i,j,k=b.createElement(\"canvas\"),l=k.getContext&&k.getContext(\"2d\");for(j=Array(\"flag\",\"emoji\"),c.supports={everything:!0,everythingExceptFlag:!0},i=0;i<j.length;i++)c.supports[j[i]]=e(j[i]),c.supports.everything=c.supports.everything&&c.supports[j[i]],\"flag\"!==j[i]&&(c.supports.everythingExceptFlag=c.supports.everythingExceptFlag&&c.supports[j[i]]);c.supports.everythingExceptFlag=c.supports.everythingExceptFlag&&!c.supports.flag,c.DOMReady=!1,c.readyCallback=function(){c.DOMReady=!0},c.supports.everything||(h=function(){c.readyCallback()},b.addEventListener?(b.addEventListener(\"DOMContentLoaded\",h,!1),a.addEventListener(\"load\",h,!1)):(a.attachEvent(\"onload\",h),b.attachEvent(\"onreadystatechange\",function(){\"complete\"===b.readyState&&c.readyCallback()})),g=c.source||{},g.concatemoji?f(g.concatemoji):g.wpemoji&&g.twemoji&&(f(g.twemoji),f(g.wpemoji)))}(window,document,window._wpemojiSettings);\n\t\t</script>\n\t\t<style type=\"text/css\">\nimg.wp-smiley,\nimg.emoji {\n\tdisplay: inline !important;\n\tborder: none !important;\n\tbox-shadow: none !important;\n\theight: 1em !important;\n\twidth: 1em !important;\n\tmargin: 0 .07em !important;\n\tvertical-align: -0.1em !important;\n\tbackground: none !important;\n\tpadding: 0 !important;\n}\n</style>\n<link rel='stylesheet' id='cff_masonry_css-css'  href='https://kontikibar.ch/kontiki/wp-content/plugins/cff-masonry/css/masonry.css?ver=1.1.3' type='text/css' media='all' />\n<link rel='stylesheet' id='contact-form-7-css'  href='https://kontikibar.ch/kontiki/wp-content/plugins/contact-form-7/includes/css/styles.css?ver=5.1.1' type='text/css' media='all' />\n<link rel='stylesheet' id='cff-css'  href='https://kontikibar.ch/kontiki/wp-content/plugins/custom-facebook-feed-pro/css/cff-style.css?ver=3.6.1' type='text/css' media='all' />\n<link rel='stylesheet' id='sb-font-awesome-css-css'  href='https://maxcdn.bootstrapcdn.com/font-awesome/4.7.0/css/font-awesome.min.css?ver=4.9.10' type='text/css' media='all' />\n<link rel='stylesheet' id='spb-frontend-css'  href='https://kontikibar.ch/kontiki/wp-content/plugins/swift-framework/includes/page-builder/frontend-assets/css/spb-styles.css' type='text/css' media='all' />\n<link rel='stylesheet' id='uplift-parent-style-css'  href='https://kontikibar.ch/kontiki/wp-content/themes/uplift/style.css?ver=4.9.10' type='text/css' media='all' />\n<link rel='stylesheet' id='bootstrap-css'  href='https://kontikibar.ch/kontiki/wp-content/themes/uplift/css/bootstrap.min.css' type='text/css' media='all' />\n<link rel='stylesheet' id='font-awesome-v5-css'  href='https://kontikibar.ch/kontiki/wp-content/themes/uplift/css/font-awesome.min.css?ver=5.2.0' type='text/css' media='all' />\n<link rel='stylesheet' id='font-awesome-v4shims-css'  href='https://kontikibar.ch/kontiki/wp-content/themes/uplift/css/v4-shims.min.css' type='text/css' media='all' />\n<link rel='stylesheet' id='sf-iconfont-css'  href='https://kontikibar.ch/kontiki/wp-content/themes/uplift/css/iconfont.css' type='text/css' media='all' />\n<link rel='stylesheet' id='sf-main-css'  href='https://kontikibar.ch/kontiki/wp-content/themes/uplift/css/main.css' type='text/css' media='all' />\n<link rel='stylesheet' id='sf-responsive-css'  href='https://kontikibar.ch/kontiki/wp-content/themes/uplift/css/sf-responsive.css' type='text/css' media='all' />\n<link rel='stylesheet' id='sf-style-css'  href='https://kontikibar.ch/kontiki/wp-content/themes/uplift-child/style.css' type='text/css' media='all' />\n<link rel='stylesheet' id='redux-google-fonts-sf_uplift_options-css'  href='https://fonts.googleapis.com/css?family=Serif%3A400%7CSource+Sans+Pro%3A200%2C300%2C400%2C600%2C700%2C900%2C200italic%2C300italic%2C400italic%2C600italic%2C700italic%2C900italic%7COpen+Sans%3A300%2C400%2C600%2C700%2C800%2C300italic%2C400italic%2C600italic%2C700italic%2C800italic&#038;ver=1545559552' type='text/css' media='all' />\n<script>if (document.location.protocol != \"https:\") {document.location = document.URL.replace(/^http:/i, \"https:\");}</script><script type='text/javascript' src='https://kontikibar.ch/kontiki/wp-includes/js/jquery/jquery.js?ver=1.12.4'></script>\n<script type='text/javascript' src='https://kontikibar.ch/kontiki/wp-includes/js/jquery/jquery-migrate.min.js?ver=1.4.1'></script>\n<script type='text/javascript' src='https://kontikibar.ch/kontiki/wp-content/plugins/swift-framework/public/js/lib/jquery.viewports.min.js'></script>\n<script type='text/javascript' src='https://kontikibar.ch/kontiki/wp-content/plugins/swift-framework/public/js/lib/jquery.smartresize.min.js'></script>\n<script type='text/javascript' src='https://kontikibar.ch/kontiki/wp-content/themes/uplift/js/lib/plyr.js'></script>\n<link rel='https://api.w.org/' href='https://kontikibar.ch/wp-json/' />\n<link rel=\"EditURI\" type=\"application/rsd+xml\" title=\"RSD\" href=\"https://kontikibar.ch/kontiki/xmlrpc.php?rsd\" />\n<link rel=\"wlwmanifest\" type=\"application/wlwmanifest+xml\" href=\"https://kontikibar.ch/kontiki/wp-includes/wlwmanifest.xml\" /> \n<meta name=\"generator\" content=\"WordPress 4.9.10\" />\n<link rel=\"canonical\" href=\"https://kontikibar.ch/\" />\n<link rel='shortlink' href='https://kontikibar.ch/' />\n<link rel=\"alternate\" type=\"application/json+oembed\" href=\"https://kontikibar.ch/wp-json/oembed/1.0/embed?url=https%3A%2F%2Fkontikibar.ch%2F\" />\n<link rel=\"alternate\" type=\"text/xml+oembed\" href=\"https://kontikibar.ch/wp-json/oembed/1.0/embed?url=https%3A%2F%2Fkontikibar.ch%2F&#038;format=xml\" />\n<!-- Custom Facebook Feed JS vars -->\r\n<script type=\"text/javascript\">\r\nvar cffsiteurl = \"https://kontikibar.ch/kontiki/wp-content/plugins\";\r\nvar cffajaxurl = \"https://kontikibar.ch/kontiki/wp-admin/admin-ajax.php\";\r\nvar cffmetatrans = \"false\";\r\n\r\nvar cfflinkhashtags = \"false\";\r\n</script>\r\n\t\t\t<script type=\"text/javascript\">\n\t\t\tvar ajaxurl = 'https://kontikibar.ch/kontiki/wp-admin/admin-ajax.php';\n\t\t\t</script>\n\t\t\t<style type=\"text/css\">/* MailChimp for WP - Checkbox Styles */\n.mc4wp-checkbox-contact-form-7 {\n  clear: both;\n  display: block;\n  position: static;\n  width: auto; }\n  .mc4wp-checkbox-contact-form-7 input {\n    float: none;\n    width: auto;\n    position: static;\n    margin: 0 6px 0 0;\n    padding: 0;\n    vertical-align: middle;\n    display: inline-block !important;\n    max-width: 21px;\n    -webkit-appearance: checkbox; }\n  .mc4wp-checkbox-contact-form-7 label {\n    float: none;\n    display: block;\n    cursor: pointer;\n    width: auto;\n    position: static;\n    margin: 0 0 16px 0; }\n</style><!--[if lt IE 9]><script data-cfasync=\"false\" src=\"https://kontikibar.ch/kontiki/wp-content/themes/uplift/js/respond.js\"></script><script data-cfasync=\"false\" src=\"https://kontikibar.ch/kontiki/wp-content/themes/uplift/js/html5shiv.js\"></script><![endif]--><style type=\"text/css\" title=\"dynamic-css\" class=\"options-output\">#logo h1, #logo h2, #mobile-logo h1{font-family:Serif;font-weight:400;font-style:normal;color:#222;font-size:24px;}body,p,nav.std-menu ul.sub-menu,ul.mega-sub-menu,blockquote.blockquote1, blockquote.blockquote1 p{font-family:\"Source Sans Pro\";line-height:24px;font-weight:400;font-style:normal;font-size:18px;}h1,.impact-text,.impact-text > p,.impact-text-large,.impact-text-large > p,h3.countdown-subject, .swiper-slide .caption-content > h2, #jckqv h1, .spb_tweets_slider_widget .tweet-text, .modal-header h3{font-family:\"Open Sans\";line-height:40px;font-weight:300;font-style:normal;font-size:34px;}h2,.blog-item .quote-excerpt, .spb-row-expand-text{font-family:\"Open Sans\";line-height:40px;font-weight:400;font-style:normal;font-size:34px;}h3, .single_variation_wrap .single_variation span.price, .sf-promo-bar p.standard,  .sf-promo-bar.text-size-standard p, .sf-icon-box-animated-alt .front .back-title{font-family:\"Open Sans\";line-height:40px;font-weight:700;font-style:normal;font-size:34px;}h4{font-family:\"Open Sans\";line-height:24px;font-weight:700;font-style:normal;font-size:18px;}h5,blockquote.blockquote2,blockquote.blockquote2 p,blockquote.pullquote,blockquote.pullquote p,.faq-item .faq-text:before{font-family:\"Open Sans\";line-height:22px;font-weight:400;font-style:normal;font-size:16px;}h6{font-family:\"Open Sans\";text-transform:uppercase;line-height:16px;font-weight:700;font-style:normal;font-size:12px;}#main-nav, #header nav, .vertical-menu nav, .header-9#header-section #main-nav, #overlay-menu nav, .sf-pushnav-menu nav, #mobile-menu, #one-page-nav li .hover-caption, .mobile-search-form input[type=\"text\"]{font-family:\"Source Sans Pro\";font-weight:400;font-style:normal;font-size:18px;}</style><style type=\"text/css\">@media only screen and (min-width:1110px){.layout-boxed #container,.boxed-inner-page #main-container,.single-product.page-heading-fancy .product-main,.layout-boxed #sf-newsletter-bar > .container{width:1110px;}.container{width:1080px;}li.menu-item.sf-mega-menu > ul.sub-menu{width:1050px;}}.sf-elem-bf,.sf-elem-bt,.sf-elem-br,.sf-elem-bb,.sf-elem-bl {border-color:#000000;}.sf-accent-bg,.funded-bar .bar {background-color:#000000;}.sf-accent {color:#000000;}.sf-accent-border {border-color:#000000;}.sf-accent-hover:hover {color:#000000;}.loved-item:hover .loved-count,.flickr-widget li,.portfolio-grid li,figcaption .product-added,.woocommerce .widget_layered_nav ul li.chosen > *,.woocommerce .widget_layered_nav ul li.chosen small.count,.woocommerce .widget_layered_nav_filters ul li a {background-color:#000000;color:#ffffff;}a:hover,a:focus,#sidebar a:hover,.pagination-wrap a:hover,.carousel-nav a:hover,.portfolio-pagination div:hover > i,#footer a:hover,.beam-me-up a:hover span,.portfolio-item .portfolio-item-permalink,.read-more-link,.blog-item .read-more,.blog-item-details a:hover,.author-link,span.dropcap2,.spb_divider.go_to_top a,.item-link:hover,#header-translation p a,#breadcrumbs a:hover,.ui-widget-content a:hover,#product-img-slider li a.zoom:hover,.article-body-wrap .share-links a:hover,ul.member-contact li a:hover,.bag-product a.remove:hover,.bag-product-title a:hover,#back-to-top:hover,ul.member-contact li a:hover,.fw-video-link-image:hover i,.ajax-search-results .all-results:hover,.search-result h5 a:hover .ui-state-default a:hover,.fw-video-link-icon:hover,.fw-video-close:hover {color:#000000;}.carousel-wrap > a:hover {color:#000000!important;}.read-more i:before,.read-more em:before {color:#000000;}span.dropcap4 {color:#000000;border-color:#000000;}span.highlighted {background-color:rgba(0,0,0,0.5);}textarea:focus,input:focus,input[type=\"text\"]:focus,input[type=\"email\"]:focus,textarea:focus,.bypostauthor .comment-wrap .comment-avatar,.search-form input:focus,.wpcf7 input:focus,.wpcf7 textarea:focus,.ginput_container input:focus,.ginput_container textarea:focus,.mymail-form input:focus,.mymail-form textarea:focus,input[type=\"tel\"]:focus,input[type=\"number\"]:focus {border-color:#000000!important;}nav .menu ul li:first-child:after,.navigation a:hover > .nav-text,.returning-customer a:hover {border-bottom-color:#000000;}nav .menu ul ul li:first-child:after {border-right-color:#000000;}.spb_impact_text .spb_call_text,pre[class*=\"language-\"] {border-left-color:#000000;}.spb_impact_text .spb_button span {color:#fff;}a[rel=\"tooltip\"],ul.member-contact li a,a.text-link,.tags-wrap .tags a,.logged-in-as a,.comment-meta-actions .edit-link,.comment-meta-actions .comment-reply {border-color:#ffffff;}.super-search-go {border-color:#000000!important;}.super-search-go:hover {background:#000000!important;border-color:#000000!important;}#one-page-nav li a:hover > i {background:#000000;}#one-page-nav li.selected a:hover > i {border-color:#000000;}#one-page-nav li .hover-caption {background:#000000;color:#ffffff;}#one-page-nav li .hover-caption:after {border-left-color:#000000;}#sidebar-progress-menu ul li {border-color:#000000;}#sidebar-progress-menu ul li a {color:#ffffff;}#sidebar-progress-menu ul li.read a {color:#ffffff;}#sidebar-progress-menu ul li.reading a {color:#000000;}#sidebar-progress-menu ul li.read .progress {background-color:#000000;}#sidebar-progress-menu ul li.reading .progress {background-color:#000000;}body {color:#ffffff;}h1,h1 a,h3.countdown-subject {color:#ffffff;}h2,h2 a {color:#ffffff;}h3,h3 a {color:#ffffff;}h4,h4 a,.carousel-wrap > a {color:#ffffff;}h5,h5 a {color:#ffffff;}h6,h6 a {color:#ffffff;}table {border-bottom-color:#000000;}table td {border-top-color:#000000;}.read-more-button {color:#000000;}.sf-hover-svg path {stroke:#000000;}.player-video .player-controls {border-color:#000000;}.player-controls button {color:#ffffff;}.player-controls button.tab-focus,.player-controls button:hover,.player-progress-played[value] {color:#000000;}.sf-headline.loading-bar .sf-words-wrapper::after,.sf-headline.clip .sf-words-wrapper::after,.sf-headline.type .sf-words-wrapper::after,.sf-headline.type .sf-words-wrapper.selected {background:#000000;}.sf-headline.type .sf-words-wrapper.selected b {color:#ffffff;}#sf-home-preloader,#site-loading {background-color:#000000;}.loading-bar-transition .pace .pace-progress {background-color:#000000;}body,.layout-fullwidth #container {background-color:#000000;}.inner-container-wrap,#main-container .inner-container-wrap,.tm-toggle-button-wrap a {background-color:#000000;}.single-product.page-heading-fancy .product-main {background-color:#000000;}.spb-row-container[data-top-style=\"slant-ltr\"]:before,.spb-row-container[data-top-style=\"slant-rtl\"]:before,.spb-row-container[data-bottom-style=\"slant-ltr\"]:after,.spb-row-container[data-bottom-style=\"slant-rtr\"]:after {background-color:#000000;}a,.ui-widget-content a {color:#ffffff;}a:hover,a:focus {color:#a8a8a8;}ul.bar-styling li:not(.selected) > a:hover,ul.bar-styling li > .comments-likes:hover {color:#ffffff;background:#000000;border-color:#000000;}ul.bar-styling li > .comments-likes:hover * {color:#ffffff!important;}ul.bar-styling li > a,ul.bar-styling li > div,ul.page-numbers li > a,ul.page-numbers li > span,.curved-bar-styling,ul.bar-styling li > form input,.spb_directory_filter_below {border-color:#000000;}ul.bar-styling li > a,ul.bar-styling li > span,ul.bar-styling li > div,ul.bar-styling li > form input {background-color:#000000;}.pagination-wrap ul li a {border-color:#000000!important;background-color:#f7f7f7!important;color:#222!important;}ul.page-numbers li > a:hover,ul.page-numbers li > span.current,.pagination-wrap ul li > a:hover,.pagination-wrap ul li span {border-color:#000000!important;background-color:#000000!important;color:#222!important;}input[type=\"text\"],input[type=\"email\"],input[type=\"password\"],textarea,select,.wpcf7 input[type=\"text\"],.wpcf7 input[type=\"email\"],.wpcf7 textarea,.wpcf7 select,.ginput_container input[type=\"text\"],.ginput_container input[type=\"email\"],.ginput_container textarea,.ginput_container select,.mymail-form input[type=\"text\"],.mymail-form input[type=\"email\"],.mymail-form textarea,.mymail-form select,input[type=\"date\"],input[type=\"tel\"],input.input-text,input[type=\"number\"],.select2-container .select2-choice {border-color:#000000;background-color:#fff;color:#999;}.select2-container .select2-choice>.select2-chosen {color:#999!important;}#commentform p[class^=\"comment-form-\"]:before,span.wpcf7-form-control-wrap.name:before,span.wpcf7-form-control-wrap.email:before,span.wpcf7-form-control-wrap.subject:before,span.wpcf7-form-control-wrap.message:before {color:#999;}::-webkit-input-placeholder {color:#999!important;}:-moz-placeholder {color:#999!important;}::-moz-placeholder {color:#999!important;}:-ms-input-placeholder {color:#999!important;}input[type=submit],button[type=submit],input[type=\"file\"],.wpcf7 input.wpcf7-submit[type=submit],.gform_wrapper input[type=\"submit\"],.gform_wrapper input[type=\"submit\"]:hover {background:#000000;color:#ffffff;}input[type=submit]:hover,button[type=submit]:hover,.wpcf7 input.wpcf7-submit[type=submit]:hover,.gform_wrapper input[type=submit]:hover,.mymail-form input[type=submit]:hover {background:rgba( -30,-30,-30,1 );color:#ffffff;}.modal-header {background:#f7f7f7;}.modal-content {background:#000000;}.modal-header h3,.modal-header .close {color:#ffffff;}.modal-header .close:hover {color:#000000;}#account-modal .nav-tabs li.active span {border-bottom-color:#000000;}.recent-post .post-details,.portfolio-item h5.portfolio-subtitle,.search-item-content time,.search-item-content span,.portfolio-details-wrap .date {color:#222;}.select2-drop,.select2-drop-active {border-color:#000000;}.owl-pagination .owl-page span {background-color:#ffffff;}.owl-pagination .read-more i::before {color:#ffffff;}.owl-pagination .read-more:hover i::before {color:#000000;}.owl-pagination .owl-page:hover span,.owl-pagination .owl-page.active a {background-color:rgba( -30,-30,-30,1 );}#top-bar {background:#000000;border-bottom-color:#000000;}#top-bar .tb-text {color:#ffffff;}#top-bar .tb-text > a,#top-bar nav .menu > li > a {color:#ffffff;}#top-bar .menu li {border-left-color:#000000;border-right-color:#000000;}#top-bar .menu > li > a,#top-bar .menu > li.parent:after {color:#ffffff;}#top-bar .menu > li > a:hover,#top-bar a:hover {color:#a8a8a8;}.header-wrap #header,.header-standard-overlay #header,.vertical-header .header-wrap #header-section,#header-section .is-sticky #header.sticky-header {background-color:#000000;}.fs-search-open .header-wrap #header,.fs-search-open .header-standard-overlay #header,.fs-search-open .vertical-header .header-wrap #header-section,.fs-search-open #header-section .is-sticky #header.sticky-header {background-color:#7eced5;}.fs-supersearch-open .header-wrap #header,.fs-supersearch-open .header-standard-overlay #header,.fs-supersearch-open .vertical-header .header-wrap #header-section,.fs-supersearch-open #header-section .is-sticky #header.sticky-header {background-color:#7eced5;border-bottom-color:transparent;}.overlay-menu-open .header-wrap #header,.overlay-menu-open .header-standard-overlay #header,.overlay-menu-open .vertical-header .header-wrap #header-section,.overlay-menu-open #header-section .is-sticky #header.sticky-header {background-color:#7eced5;border-bottom-color:transparent;}#sf-header-banner {background-color:#fff;border-bottom:2px solid#e3e3e3;}#sf-header-banner {color:#222;}#sf-header-banner a {color:#333;}#sf-header-banner a:hover {color:#7eced5;}.header-left,.header-right,.vertical-menu-bottom .copyright {color:#ffffff;}.header-left a,.header-right a,.vertical-menu-bottom .copyright a,.header-left ul.menu > li > a.header-search-link-alt,.header-left ul.menu > li > a.header-search-link,.header-right ul.menu > li > a.header-search-link,.header-right ul.menu > li > a.header-search-link-alt {color:#ffffff;}.aux-item nav .menu > li.menu-item > a,.aux-item nav.std-menu .menu > li > a,.aux-item nav.std-menu .menu > li > span {color:#ffffff;}.header-left a:hover,.header-right a:hover,.vertical-menu-bottom .copyright a:hover {color:#a8a8a8;}.header-left ul.menu > li:hover > a.header-search-link-alt,.header-right ul.menu > li:hover > a.header-search-link-alt {color:#a8a8a8!important;}#header-search a:hover,.super-search-close:hover {color:#000000;}.sf-super-search {background-color:rgba( -30,-30,-30,1 );}.sf-super-search .search-options .ss-dropdown ul {background-color:#000000;}.sf-super-search .search-options .ss-dropdown ul li a {color:#ffffff;}.sf-super-search .search-options .ss-dropdown ul li a:hover {color:rgba( -30,-30,-30,1 );}.sf-super-search .search-options .ss-dropdown > span,.sf-super-search .search-options input {color:#000000;border-bottom-color:#000000;}.sf-super-search .search-options .ss-dropdown ul li .fa-check {color:rgba( -30,-30,-30,1 );}.sf-super-search-go:hover,.sf-super-search-close:hover{background-color:#000000;border-color:#000000;color:#ffffff;}.header-languages .current-language {color:#a8a8a8;}.search-item-content time {color:#ffffff;}.header-left .aux-item,.header-right .aux-item {padding-left:5px;padding-right:5px;}.aux-item .std-menu.cart-wishlist {margin-left:0;margin-right:0;}#header-section header,.header-wrap #header-section .is-sticky #header.sticky-header,#main-nav {border-bottom-color:#000000;}#contact-slideout {background:#000000;}#mobile-top-text,#mobile-header {background-color:#000000;border-bottom-color:#000000;}#mobile-top-text,#mobile-logo h1 {color:#ffffff;}#mobile-top-text a,#mobile-header a {color:#ffffff;}#mobile-header a {color:#ffffff;}#mobile-header .hamburger-inner,#mobile-header .hamburger-inner::before,#mobile-header .hamburger-inner::after {background-color:#ffffff;}#mobile-header .mobile-menu-link:hover .hamburger-inner,#mobile-header .mobile-menu-link:hover .hamburger-inner::before,#mobile-header .mobile-menu-link:hover .hamburger-inner::after {background-color:#a8a8a8;}#mobile-header a.mobile-menu-link span.menu-bars,#mobile-header a.mobile-menu-link span.menu-bars:before,#mobile-header a.mobile-menu-link span.menu-bars:after {background-color:#ffffff;}#mobile-header a.mobile-menu-link:hover span.menu-bars,#mobile-header a.mobile-menu-link:hover span.menu-bars:before,#mobile-header a.mobile-menu-link:hover span.menu-bars:after {background-color:#a8a8a8;}#mobile-menu-wrap,#mobile-cart-wrap {background-color:#000000;color:#ffffff;}.mh-overlay #mobile-menu-wrap,.mh-overlay #mobile-cart-wrap {background-color:transparent;}.mh-menu-show #mobile-menu-wrap,.mh-cart-show #mobile-cart-wrap,.mobile-menu-aux {background-color:#000000;}.mobile-search-form input[type=\"text\"] {color:#ffffff;background-color:#000000;}.mobile-search-form ::-webkit-input-placeholder {color:#ffffff!important;}.mobile-search-form :-moz-placeholder {color:#ffffff!important;}.mobile-search-form ::-moz-placeholder {color:#ffffff!important;}.mobile-search-form :-ms-input-placeholder {color:#ffffff!important;}#mobile-menu-wrap a,#mobile-cart-wrap a:not(.sf-button) {color:#ffffff;}#mobile-menu-wrap .shopping-bag-item a > span.num-items {background-color:#ffffff;color:#000000;}#mobile-menu-wrap a:not(.sf-button):hover,#mobile-cart-wrap a:not(.sf-button):hover,#mobile-menu ul li.menu-item > a:hover,#mobile-menu ul.alt-mobile-menu > li > a:hover {color:#a8a8a8!important;}#mobile-menu-wrap .bag-buttons a.wishlist-button {color:#ffffff;}#mobile-menu ul li.parent > a:after {color:#ffffff;}#mobile-cart-wrap .shopping-bag-item > a.cart-contents,#mobile-cart-wrap .bag-product,#mobile-cart-wrap .bag-empty {border-bottom-color:#000000;}#mobile-menu ul li,.mobile-cart-menu li,.mobile-cart-menu .bag-header,.mobile-cart-menu .bag-product,.mobile-cart-menu .bag-empty {border-color:#000000;}a.mobile-menu-link span,a.mobile-menu-link span:before,a.mobile-menu-link span:after {background:#ffffff;}a.mobile-menu-link:hover span,a.mobile-menu-link:hover span:before,a.mobile-menu-link:hover span:after {background:#a8a8a8;}#mobile-cart-wrap .bag-buttons > a.bag-button {color:#ffffff!important;border-color:#ffffff;}#mobile-cart-wrap .bag-product a.remove {color:#ffffff!important;}#mobile-cart-wrap .bag-product a.remove:hover {color:#a8a8a8!important;}#logo.has-img,.header-left,.header-right {height:278px;}#mobile-logo {max-height:258px;}#mobile-logo.has-img img {max-height:258px;width:auto!important;}.full-center #logo.has-img a > img {max-height:278px;}.browser-ie #logo {width:193px;}#logo img.retina,#mobile-logo img.retina {width:96.5px;}#logo.has-img a {padding:10px 0;}.header-2 #logo.has-img img {max-height:258px;}#logo.has-img a {height:278px;}.full-center #main-navigation ul.menu > li > a,.full-center nav.float-alt-menu ul.menu > li > a,.full-center nav > .mega-menu-wrap ul.mega-menu > li.mega-menu-item,.split-menu nav > .mega-menu-wrap ul.mega-menu > li.mega-menu-item,.split-menu ul.menu > li,.header-1 .split-menu .no-menu,#sf-full-header-search,.float-menu nav > .mega-menu-wrap ul.mega-menu > li.mega-menu-item,#mega-menu-wrap-main_navigation #mega-menu-main_navigation > li.mega-menu-item,#mega-menu-wrap-main_navigation #mega-menu-main_navigation > li.mega-menu-item > a.mega-menu-link,#mega-menu-wrap-split_nav_left #mega-menu-split_nav_left > li.mega-menu-item,#mega-menu-wrap-split_nav_right #mega-menu-split_nav_right > li.mega-menu-item {height:278px;line-height:278px;}#main-nav #mega-menu-wrap-main_navigation #mega-menu-main_navigation > li.mega-menu-item,#main-nav #mega-menu-wrap-main_navigation #mega-menu-main_navigation > li.mega-menu-item > a.mega-menu-link{height:auto;line-height:inherit;}.full-center #header,.full-center .float-menu,.full-center #logo.no-img,.header-split .float-menu,.header-1 .split-menu,.header-4 .header-right {height:278px;}.full-center nav li.menu-item.sf-mega-menu > ul.sub-menu,.full-center .ajax-search-wrap {top:278px!important;}.browser-ff #logo a {height:278px;}.full-center #logo {max-height:278px;}#header-sticky-wrapper {height:278px!important;}.header-6 #header .header-left,.header-6 #header .header-right,.header-6 #logo {height:278px;line-height:278px;}.header-6 #logo.has-img a > img {padding:0;}#mega-menu-wrap-main_navigation #mega-menu-main_navigation>li.mega-menu-item.sf-menu-item-btn>a.mega-menu-link{line-height:52px;}#main-nav,.header-wrap[class*=\"page-header-naked\"] #header-section .is-sticky #main-nav {background-color:#000000;border-bottom-color:#000000;}.header-divide {background-color:#ffffff;}.show-menu {background-color:rgba( -30,-30,-30,1 );color:#ffffff;}nav .menu .sub-menu .parent > a:after {border-left-color:#07c1b6;}nav .menu ul.sub-menu,nav .menu ul.mega-sub-menu,li.menu-item.sf-mega-menu > ul.sub-menu > div {background-color:#ffffff;}nav.std-menu ul.sub-menu:before {border-bottom-color:#ffffff;}nav .menu ul.sub-menu li.menu-item,nav .menu ul.mega-sub-menu li.mega-menu-item {border-top-color:#ffffff;border-top-style:solid;}nav .menu > li.menu-item > a,nav.std-menu .menu > li > a,nav .mega-menu li.mega-menu-item > a:not(.sf-button),nav.std-menu .menu > li > span {color:#ffffff;}#main-nav ul.menu > li,#main-nav ul.menu > li:first-child,#main-nav ul.menu > li:first-child,.full-center nav#main-navigation ul.menu > li,.full-center nav#main-navigation ul.menu > li:first-child,.full-center #header nav.float-alt-menu ul.menu > li {border-color:#ffffff;}#main-nav ul.menu > li,.full-center nav#main-navigation ul.menu > li,.full-center nav.float-alt-menu ul.menu > li,.full-center #header nav.float-alt-menu ul.menu > li {border-width:0!important;}.full-center nav#main-navigation ul.menu > li:first-child {border-width:0;margin-left:-15px;}nav .menu > li.menu-item:hover > a,nav.std-menu .menu > li:hover > a {color:#a8a8a8;}nav .menu > li.current-menu-ancestor > a,nav .menu > li.current-menu-item > a,nav .menu > li.current-scroll-item > a,#mega-menu-wrap-main_navigation #mega-menu-main_navigation > li.mega-menu-item.current-scroll-item > a.mega-menu-link,#mobile-menu .menu ul li.current-menu-item > a,nav .mega-menu > li.mega-current-menu-item > a:not(.sf-button),nav .mega-menu > li.mega-current_page_item > a:not(.sf-button) {color:#a8a8a8;}.aux-currency .wcml_currency_switcher.sub-menu li.wcml-active-currency {color:#a8a8a8!important;}.shopping-bag-item a > span.num-items {background-color:#000000;color:#ffffff;}.header-left ul.sub-menu > li > a:hover,.header-right ul.sub-menu > li > a:hover,.aux-currency .wcml_currency_switcher.sub-menu li:hover{color:#a8a8a8;}.shopping-bag-item a > span.num-items:after {border-color:#a8a8a8;}.page-header-naked-light .sticky-wrapper:not(.is-sticky) .shopping-bag-item:hover a > span.num-items,.page-header-naked-dark .sticky-wrapper:not(.is-sticky) .shopping-bag-item:hover a > span.num-items {color:#000000}.page-header-naked-light .sticky-wrapper:not(.is-sticky) .shopping-bag-item:hover a > span.num-items:after,.page-header-naked-dark .sticky-wrapper:not(.is-sticky) .shopping-bag-item:hover a > span.num-items:after {border-color:#a8a8a8;}nav .menu ul.sub-menu li.menu-item > a,nav .menu ul.sub-menu li > span,nav.std-menu ul.sub-menu {color:#ffffff;}.bag-buttons a.bag-button,.bag-buttons a.wishlist-button {color:#ffffff!important;}.bag-product a.remove,.woocommerce .bag-product a.remove {color:#ffffff!important;}.bag-product a.remove:hover,.woocommerce .bag-product a.remove:hover {color:#000000!important;}nav .menu ul.sub-menu li.menu-item:hover > a,nav .menu ul.mega-sub-menu li.mega-menu-item:hover > a,.bag-product a.remove:hover {color:#a8a8a8!important;}nav .menu li.parent > a:after,nav .menu li.parent > a:after:hover,.ajax-search-wrap:after {color:#ffffff;}nav .menu ul.sub-menu li.current-menu-ancestor > a,nav .menu ul.sub-menu li.current-menu-item > a {color:#a8a8a8!important;}#main-nav .header-right ul.menu > li,.wishlist-item {border-left-color:#ffffff;}.bag-header,.bag-product,.bag-empty,.wishlist-empty {border-color:#ffffff;}.bag-buttons a.checkout-button,.bag-buttons a.create-account-button,.woocommerce input.button.alt,.woocommerce .alt-button,.woocommerce button.button.alt,#jckqv .cart .add_to_cart_button,#jckqv .button,#jckqv .cart .button,.woocommerce .single_add_to_cart_button.button.alt,.woocommerce button.single_add_to_cart_button.button.alt {background:#000000;color:rgba(255,255,255,0.7);}.woocommerce .button.update-cart-button:hover {background:#000000;color:#ffffff;}.woocommerce input.button.alt:hover,.woocommerce .alt-button:hover,.woocommerce button.button.alt:hover,#jckqv .cart .add_to_cart_button:hover,#jckqv .cart .button:hover {background:#000000;color:#ffffff;}.shopping-bag:before,nav .menu ul.sub-menu li:first-child:before {border-bottom-color:#07c1b6;}.page-header-naked-light .sticky-wrapper:not(.is-sticky) a.menu-bars-link:hover span,.page-header-naked-light .sticky-wrapper:not(.is-sticky) a.menu-bars-link:hover span:before,.page-header-naked-light .sticky-wrapper:not(.is-sticky) a.menu-bars-link:hover span:after,.page-header-naked-dark .sticky-wrapper:not(.is-sticky) a.menu-bars-link:hover span,.page-header-naked-dark .sticky-wrapper:not(.is-sticky) a.menu-bars-link:hover span:before,.page-header-naked-dark .sticky-wrapper:not(.is-sticky) a.menu-bars-link:hover span:after {background:#000000;}nav.std-menu ul.sub-menu,ul.mega-sub-menu {font-size:18px!important;}a.menu-bars-link span,a.menu-bars-link span:before,a.menu-bars-link span:after {background:#ffffff;}a.menu-bars-link:hover span,a.menu-bars-link:hover span:before,a.menu-bars-link:hover span:after {background:#a8a8a8!important;}.overlay-menu-open .header-wrap {background-color:#000000;}.overlay-menu-open .header-wrap #header {background-color:transparent!important;}.overlay-menu-open #logo h1,.overlay-menu-open .header-left,.overlay-menu-open .header-right,.overlay-menu-open .header-left a,.overlay-menu-open .header-right a {color:#d9f0f2!important;}#overlay-menu nav li.menu-item > a,.overlay-menu-open a.menu-bars-link,#overlay-menu .fs-overlay-close,.sf-pushnav-menu nav li.menu-item > a,.sf-pushnav-menu nav ul.sub-menu li.menu-item > a,.sf-pushnav a {color:#d9f0f2;}.overlay-menu-open a.menu-bars-link span:before,.overlay-menu-open a.menu-bars-link span:after {background:#d9f0f2!important;}.fs-supersearch-open .fs-supersearch-link,.fs-search-open .fs-header-search-link {color:#d9f0f2!important;}#overlay-menu,.sf-pushnav {background-color:#7eced5;}#overlay-menu,.sf-pushnav #fullscreen-search,#fullscreen-supersearch {background-color:rgba(126,206,213,0.95);}#overlay-menu nav li.menu-item:hover > a,.sf-pushnav-menu nav li.menu-item:hover > a,.sf-pushnav-menu nav ul.sub-menu li.menu-item:hover > a,.sf-pushnav a:hover {color:#fff!important;}#fullscreen-supersearch .sf-super-search {color:#c5e7eb!important;}#fullscreen-supersearch .sf-super-search .search-options .ss-dropdown > span,#fullscreen-supersearch .sf-super-search .search-options input {color:#d9f0f2!important;}#fullscreen-supersearch .sf-super-search .search-options .ss-dropdown > span:hover,#fullscreen-supersearch .sf-super-search .search-options input:hover {color:#fff!important;}#fullscreen-supersearch .sf-super-search .search-go a.sf-button {background-color:#000000!important;}#fullscreen-supersearch .sf-super-search .search-go a.sf-button:hover {background-color:rgba( -30,-30,-30,1 )!important;border-color:rgba( -30,-30,-30,1 )!important;color:#ffffff!important;}#fullscreen-search .fs-overlay-close,#fullscreen-search .search-wrap .title,.fs-search-bar,.fs-search-bar input#fs-search-input,#fullscreen-search .search-result-pt h3 {color:#c5e7eb;}#fullscreen-search ::-webkit-input-placeholder {color:#c5e7eb!important;}#fullscreen-search :-moz-placeholder {color:#c5e7eb!important;}#fullscreen-search ::-moz-placeholder {color:#c5e7eb!important;}#fullscreen-search :-ms-input-placeholder {color:#c5e7eb!important;}#fullscreen-search .container1 > div,#fullscreen-search .container2 > div,#fullscreen-search .container3 > div {background-color:#c5e7eb;}li.sf-menu-item-new-badge:before {background-color:#7eced5;}li.sf-menu-item-new-badge:after,li.mega-menu-item > a.mega-menu-link sup.new-badge,#main-navigation li.mega-menu-item > a.mega-menu-link sup.new-badge {background-color:#7eced5;color:#000000 ;}li.mega-menu-item > a.mega-menu-link sup.new-badge:before {border-top-color:#7eced5;}#sf-pushnav-close path {stroke:#d9f0f2}.sf-side-slideout {background-color:#f7f7f7;}.sf-side-slideout .vertical-menu nav .menu li > a,.sf-side-slideout .vertical-menu nav .menu li.parent > a:after,.sf-side-slideout .vertical-menu nav .menu > li ul.sub-menu > li > a {color:#fff;}.sf-side-slideout .vertical-menu nav .menu li.menu-item {border-color:#ccc;}.sf-side-slideout .vertical-menu nav .menu li:hover > a,.sf-side-slideout .vertical-menu nav .menu li.parent:hover > a:after,.sf-side-slideout .vertical-menu nav .menu > li ul.sub-menu > li:hover > a {color:#7eced5!important;}.contact-menu-link.slide-open {color:#a8a8a8;}.woocommerce .woocommerce-breadcrumb,#breadcrumbs {color:#ffffff;}#breadcrumbs a,#breadcrumbs i {color:#ffffff;}.woocommerce .woocommerce-breadcrumb a,.woocommerce-breadcrumb span {color:#ffffff;}.page-heading {background-color:#000000;border-bottom-color:#000000;}.page-heading h1,.page-heading h3 {color:#ffffff;}.page-heading .heading-text,.fancy-heading .heading-text {text-align:center;}figure.animated-overlay.thumb-media-audio {border-color:#000000;background-color:#000000;}figure.animated-overlay figcaption {background-color:#7eced5;}figure.animated-overlay figcaption{background:-webkit-gradient(linear,left top,left bottom,color-stop(25%,rgba(126,206,213,0.40)),to(rgba(126,206,213,0.90)));background:-webkit-linear-gradient(top,rgba(126,206,213,0.40) 25%,rgba(126,206,213,0.90) 100%);background:linear-gradient(to bottom,rgba(126,206,213,0.40) 25%,rgba(126,206,213,0.90) 100%);}figure.animated-overlay figcaption * {color:#fff;}figcaption .thumb-info-alt > i,.gallery-item figcaption .thumb-info > i,.gallery-hover figcaption .thumb-info > i {background-color:#fff;color:#7eced5;}figcaption .thumb-info .name-divide {background-color:#fff;}.article-divider {background:#000000;}.post-pagination-wrap {background-color:#444;}.post-pagination-wrap .next-article > *,.post-pagination-wrap .next-article a,.post-pagination-wrap .prev-article > *,.post-pagination-wrap .prev-article a {color:#fff;}.post-pagination-wrap .next-article a:hover,.post-pagination-wrap .prev-article a:hover,.author-bio a.author-more-link {color:#000000;}.article-extras {background-color:#f7f7f7;}.review-bar {background-color:#f7f7f7;}.review-bar .bar,.review-overview-wrap .overview-circle {background-color:#2e2e36;color:#fff;}.article-extras,.post-info .post-details-wrap {border-color:#000000;}.comment-meta .comment-date {color:#ffffff;}.comment-meta-actions a {color:#000000;}.widget ul li,.widget.widget_lip_most_loved_widget li {border-color:#000000;}.widget.widget_lip_most_loved_widget li {background:#000000;border-color:#000000;}.widget_lip_most_loved_widget .loved-item > span {color:#222;}ul.wp-tag-cloud li > a {border-color:#000000;color:#ffffff;}.widget .tagcloud a:hover,#footer .widget .tagcloud a:hover,ul.wp-tag-cloud li:hover > a,ul.wp-tag-cloud li:hover:before {background-color:#000000;border-color:#000000;color:#ffffff;}ul.wp-tag-cloud li:hover:after {border-color:#000000;background-color:#ffffff;}.loved-item .loved-count > i {color:#ffffff;background:#000000;}.subscribers-list li > a.social-circle {color:#ffffff;background:rgba( -30,-30,-30,1 );}.subscribers-list li:hover > a.social-circle {color:#fbfbfb;background:#000000;}.sidebar .widget_categories ul > li a,.sidebar .widget_archive ul > li a,.sidebar .widget_nav_menu ul > li a,.sidebar .widget_meta ul > li a,.sidebar .widget_recent_entries ul > li,.widget_product_categories ul > li a,.widget_layered_nav ul > li a,.widget_display_replies ul > li a,.widget_display_forums ul > li a,.widget_display_topics ul > li a {color:#ffffff;}.sidebar .widget_categories ul > li a:hover,.sidebar .widget_archive ul > li a:hover,.sidebar .widget_nav_menu ul > li a:hover,.widget_nav_menu ul > li.current-menu-item a,.sidebar .widget_meta ul > li a:hover,.sidebar .widget_recent_entries ul > li a:hover,.widget_product_categories ul > li a:hover,.widget_layered_nav ul > li a:hover,.widget_edd_categories_tags_widget ul li a:hover,.widget_display_replies ul li,.widget_display_forums ul > li a:hover,.widget_display_topics ul > li a:hover {color:#a8a8a8;}#calendar_wrap caption {border-bottom-color:rgba( -30,-30,-30,1 );}.sidebar .widget_calendar tbody tr > td a {color:#ffffff;background-color:rgba( -30,-30,-30,1 );}.sidebar .widget_calendar tbody tr > td a:hover {background-color:#000000;}.sidebar .widget_calendar tfoot a {color:rgba( -30,-30,-30,1 );}.sidebar .widget_calendar tfoot a:hover {color:#000000;}.widget_calendar #calendar_wrap,.widget_calendar th,.widget_calendar tbody tr > td,.widget_calendar tbody tr > td.pad {border-color:#000000;}.sidebar .widget hr {border-color:#000000;}.widget ul.flickr_images li a:after,.portfolio-grid li a:after {color:#ffffff;}.loved-item:hover .loved-count > svg .stroke {stroke:#ffffff;}.loved-item:hover .loved-count > svg .fill {fill:#ffffff;}.recent-posts-list li {border-color:#000000;}.recent-posts-list li .recent-post-title {color:#ffffff;}.recent-posts-list li .recent-post-title:hover {color:#000000;}.fw-row .spb_portfolio_widget .title-wrap {border-bottom-color:#000000;}.masonry-items .portfolio-item-details {background:#f7f7f7;}.masonry-items .blog-item .blog-details-wrap:before {background-color:#f7f7f7;}.share-links > a:hover {color:#000000;}.portfolio-item.masonry-item .portfolio-item-details {background:#000000;border-color:#000000;}.portfolio-categories,.portfolio-categories li a {border-color:#000000;color:#ffffff;}.portfolio-categories li:hover a {border-color:#000000;color:#000000;}.item-details time,.item-details .client,.client,.item-details .project {border-color:#000000;}#infscr-loading .spinner > div {background:#000000;}.blog-aux-options,.blog-aux-options li a {border-color:#000000;}.blog-aux-options li a {color:#ffffff;}.blog-filter-wrap ul.wp-tag-cloud li > a {color:#ffffff;}.blog-aux-options li.selected a {color:#000000;}.blog-aux-options li.selected a::after {background:#000000;border-left-color:#000000;border-bottom-color:#000000;}.blog-filter-wrap .aux-list li a {border-color:#000000;}.blog-filter-wrap .aux-list li:hover a {border-color:#000000;}.mini-items .blog-details-wrap,.blog-item .blog-item-aux,.mini-items .mini-alt-wrap,.mini-items .mini-alt-wrap .quote-excerpt,.mini-items .mini-alt-wrap .link-excerpt,.masonry-items .blog-item .quote-excerpt,.masonry-items .blog-item .link-excerpt,.timeline-items .standard-post-content .quote-excerpt,.timeline-items .standard-post-content .link-excerpt,.post-info,.author-info-wrap,.body-text .link-pages,.page-content .link-pages,.posts-type-list .recent-post,.standard-items .blog-item .standard-post-content {border-color:#000000;}.standard-post-date,.timeline {background:#000000;}.timeline-item-content-wrap .blog-details-wrap {background:#000000;border-color:#000000;}.timeline-item-format-icon-bg {background:#000000;}.timeline-items .format-quote .standard-post-content:before,.timeline-items .standard-post-content.no-thumb:before {border-left-color:#f7f7f7;}.search-item-img .img-holder {background:#f7f7f7;border-color:#000000;}.masonry-items .blog-item .masonry-item-wrap {background:#f7f7f7;}.single .pagination-wrap,ul.post-filter-tabs li a {border-color:#000000;}.mini-item-details,.blog-item-details,.blog-item-details a {color:#ffffff;}.related-item figure {background-color:rgba( -30,-30,-30,1 );color:#ffffff}.required {color:#ee3c59;}.post-item-details .comments-likes a i,.post-item-details .comments-likes a span {color:#ffffff;}.posts-type-list .recent-post:hover h4 {color:#a8a8a8}.masonry-items .blog-item .details-wrap {border-color:#000000;background-color:#000000;}.instagram-item .inst-overlay .date:before {color:#000000;}.blog-grid-items .blog-item.tweet-item .grid-no-image {border-color:#000000;background-color:#000000;}.blog-item .side-details .comments-wrapper {border-color:#000000;}.standard-items.alt-styling .blog-item .standard-post-content {background:#000000;}.standard-items.alt-styling .blog-item.quote .standard-post-content,.mini-items .blog-item.quote .mini-alt-wrap {background:#ffffff;color:#000000;}#respond .form-submit input[type=submit] {background-color:#000000;color:#ffffff;}#respond .form-submit input[type=submit]:hover {background-color:rgba( -30,-30,-30,1 );color:#ffffff;}.post-details-wrap .tags-wrap,.post-details-wrap .comments-likes {border-color:#000000;}.sticky-post-icon {color:#000000;}.timeline-items::before {background:#000000;}.timeline-item-format-icon,.timeline-item-format-icon::before {border-color:#000000;}.load-more-btn,.blog-load-more-pagination #infscr-loading,.products-load-more-pagination #infscr-loading,.portfolio-load-more-pagination #infscr-loading {background:#f7f7f7;}.blog-item .author a.tweet-link,.blog-item-aux .date:before {color:#000000;}#comments-list li .comment-wrap {border-color:#000000;}.side-post-info .post-share .share-link {color:#000000;}.sf-button.accent {color:#ffffff;background-color:#000000;border-color:#000000;}.sf-button.sf-icon-reveal.accent {color:#ffffff!important;background-color:#000000!important;}a.sf-button.stroke-to-fill {color:#ffffff;}.sf-button.accent.bordered .sf-button-border {border-color:#000000;}a.sf-button.bordered.accent {color:#000000;border-color:#000000;}a.sf-button.bordered.accent:hover {color:#ffffff;}a.sf-button.rotate-3d span.text:before {color:#ffffff;background-color:#000000;}.sf-button.accent:hover,.sf-button.bordered.accent:hover {background-color:rgba( -30,-30,-30,1 );border-color:rgba( -30,-30,-30,1 );color:#ffffff;}a.sf-button,a.sf-button:hover,#footer a.sf-button:hover {background-image:none;color:#fff;}a.sf-button.white:hover {color:#222!important;}a.sf-button.transparent-dark {color:#ffffff!important;}a.sf-button.transparent-light:hover,a.sf-button.transparent-dark:hover {color:#000000!important;}.title-wrap a.sf-button:hover {color:#000000!important;}.carousel-wrap a.carousel-prev,.carousel-wrap a.carousel-next {border-color:#000000;}.sf-icon-cont {border-color:#eaeaea;}.sf-icon-cont:hover {border-color:#7eced5;}.sf-icon-box-animated-alt.animated-stroke-style {border-color:#000000;}.sf-icon-box-animated .front {background:#f7f7f7;}.sf-icon-box-animated .front h3 {color:#ffffff;}.sf-icon-box-animated .back {background:#000000;}.sf-icon-box-animated .back,.sf-icon-box-animated .back h3 {color:#ffffff;}.spb_icon_box_grid .spb_icon_box .divider-line {background-color:#000000;}.spb_icon_box_grid .spb_icon_box:hover h3,.spb_icon_box_grid .spb_icon_box:hover .grid-icon-wrap i.sf-icon {color:#000000;}.spb_icon_box_grid .spb_icon_box:hover .outline-svg svg path {stroke:#000000;}.borderframe img {border-color:#000000;}span.dropcap3 {background:#000;color:#fff;}.spb_divider,.spb_divider.go_to_top_icon1,.spb_divider.go_to_top_icon2,.testimonials > li,.tm-toggle-button-wrap,.tm-toggle-button-wrap a,.portfolio-details-wrap,.spb_divider.go_to_top a,.widget_search form input {border-color:#000000;}.spb_divider.go_to_top_icon1 a,.spb_divider.go_to_top_icon2 a {background:#000000;}.divider-wrap h3.divider-heading:before,.divider-wrap h3.divider-heading:after {background:#000000;}.spb_tabs .ui-tabs .ui-tabs-panel,.spb_content_element .ui-tabs .ui-tabs-nav,.ui-tabs .ui-tabs-nav li {border-color:#000000;}.spb_tabs .ui-tabs .ui-tabs-panel,.ui-tabs .ui-tabs-nav li.ui-tabs-active a {background:#000000!important;}.spb_tabs .tab-content {border-color:#000000;}.tabs-type-dynamic .nav-tabs li.active a,.tabs-type-dynamic .nav-tabs li a:hover {background:#000000;border-color:#000000!important;color:#000000;}.spb_tabs .nav-tabs li a,.spb_tour .nav-tabs li a {background-color:#f7f7f7;border-color:#000000!important;}.spb_tabs .nav-tabs li:hover a,.spb_tour .nav-tabs li:hover a,.spb_tabs .nav-tabs li.active a,.spb_tour .nav-tabs li.active a {background:#000000;border-color:#000000!important;color:#ffffff!important;}.spb_tabs .nav-tabs li.active a span:after {background-color:#000000;}.spb_tabs .nav-tabs li.active a {border-bottom-color:#000000!important;}.spb_tour .nav-tabs li.active a {border-right-color:#000000!important;}@media only screen and (max-width:479px) {.spb_tour .nav-tabs li.active a {border-right-color:#000000!important;}}.spb_tour .tab-content {border-color:#000000;}.spb_accordion .spb_accordion_section,.spb_accordion .ui-accordion .ui-accordion-content {border-color:#000000;}.spb_accordion .spb_accordion_section > h4.ui-state-active a,.toggle-wrap .spb_toggle.spb_toggle_title_active {color:#ffffff!important;}.spb_accordion .spb_accordion_section > h4.ui-state-default {background-color:#f7f7f7;}.spb_accordion .spb_accordion_section > h4.ui-state-active,.spb_accordion .spb_accordion_section > h4.ui-state-hover {background-color:#000000;}.spb_accordion_section > h4:hover .ui-icon:before {border-color:#000000;}.spb_accordion .spb_accordion_section > h4.ui-state-active a:after {color:#000000;}.toggle-wrap .spb_toggle,.spb_toggle_content {border-color:#000000;}.toggle-wrap .spb_toggle {background-color:#f7f7f7;}.toggle-wrap .spb_toggle_title_active {border-color:#000000!important;background-color:#000000;}.toggle-wrap .spb_toggle:hover {color:#000000;}.ui-accordion h4.ui-accordion-header .ui-icon {color:#ffffff;}.standard-browser .ui-accordion h4.ui-accordion-header.ui-state-active:hover a,.standard-browser .ui-accordion h4.ui-accordion-header:hover .ui-icon {color:#000000;}blockquote.pullquote {border-color:#000000;}.borderframe img {border-color:#eeeeee;}.spb_box_content .spb-bg-color-wrap.whitestroke {border-color:#000000;}ul.member-contact li a:hover {color:#a8a8a8;}.testimonials.carousel-items li .testimonial-text {border-color:#000000;}.testimonials.carousel-items li .testimonial-text:after {border-top-color:#f7f7f7;}.horizontal-break {background-color:#000000;}.horizontal-break.bold {background-color:#ffffff;}.progress .bar {background-color:#000000;}.progress.standard .bar {background:#000000;}.progress-bar-wrap .progress-value {color:#000000;}.sf-share-counts {border-color:#000000;}.sf-share-counts > a {border-color:#000000;}.sf-share-counts .share-text h2,.sf-share-counts .share-text span {color:#000000;}.mejs-controls .mejs-time-rail .mejs-time-current {background:#000000!important;}.mejs-controls .mejs-time-rail .mejs-time-loaded {background:#ffffff!important;}.pt-banner h6 {color:#ffffff;}.pinmarker-container a.pin-button:hover {background:#000000;color:#ffffff;}.directory-item-details .item-meta {color:#222;}.team-member-item-wrap {background:#000000;}.team-member-details-wrap {border-color:#000000;}.team-member-divider {background:#000000;}.team-member-details-wrap .team-member-position {color:#ffffff;}.testimonials.carousel-items li .testimonial-text,.recent-post figure {background-color:#f7f7f7;}.masonry-items li.testimonial .testimonial-text {background-color:#000000;}.masonry-items li.testimonial.has-cite .testimonial-text::after {border-top-color:#000000;}.product-reviews.masonry-items li.testimonial .testimonial-text {background-color:#000000;}.product-reviews.masonry-items li.testimonial.has-cite .testimonial-text::after {border-top-color:#000000;}.spb_pricing_table .sf-pricing-column {border-color:#000000;}.spb_pricing_table .sf-pricing-column.highlight {border-color:#000000;}.sf-pricing-column .sf-pricing-name .divide {background-color:#000000;}.sf-pricing-column.highlight .sf-pricing-name h6,.sf-pricing-column.highlight .sf-pricing-name .sf-pricing-price {color:#000000;}.sf-pricing-column .sf-pricing-tag::before {background-color:#000000;color:#ffffff;}.faq-item,.faq-item h5 {border-color:#000000;}.spb_row_container .spb_tweets_slider_widget .spb-bg-color-wrap,.spb_tweets_slider_widget .spb-bg-color-wrap {background:#7eced5;}.spb_tweets_slider_widget .tweet-text,.spb_tweets_slider_widget .twitter_intents a {color:#fff;}.spb_tweets_slider_widget .twitter_intents a:hover {color:#a8a8a8;}.spb_tweets_slider_widget .tweet-text a {color:#222;}.spb_tweets_slider_widget .tweet-text a:hover,.spb_tweets_slider_widget .twitter_intents a:hover {color:#fb3c2d;}.spb_tweets_slider_widget .lSSlideOuter .lSPager.lSpg > li a {background-color:#fff;}.spb_testimonial_slider_widget .spb-bg-color-wrap {background:#7eced5;}.spb_testimonial_slider_widget .heading-wrap h3.spb-center-heading,.spb_testimonial_slider_widget .testimonial-text,.spb_testimonial_slider_widget cite,.spb_testimonial_slider_widget .testimonial-icon {color:#fff;}.spb_testimonial_slider_widget .heading-wrap h3.spb-center-heading {border-bottom-color:#fff;}.content-slider .flex-direction-nav .flex-next:before,.content-slider .flex-direction-nav .flex-prev:before {background-color:#000000;color:#ffffff;}.spb_tweets_slider_widget .heading-wrap h3.spb-center-heading {color:#fff;border-bottom-color:#fff;}.spb_tweets_slider_widget .tweet-icon i {background:#000000;}.spb_testimonial_carousel_widget .carousel-wrap > a {border-color:#000000 ;}#footer {background:#000000;}#footer.footer-divider {border-top-color:#000000;}#footer,#footer p,#footer h3.spb-heading {color:#ffffff;}#footer h3.spb-heading span {border-bottom-color:#ffffff;}#footer a {color:#ffffff;}#footer a:hover {color:#a8a8a8;}#footer ul.wp-tag-cloud li > a {border-color:#000000;}#footer .widget ul li,#footer .widget_categories ul,#footer .widget_archive ul,#footer .widget_nav_menu ul,#footer .widget_recent_comments ul,#footer .widget_meta ul,#footer .widget_recent_entries ul,#footer .widget_product_categories ul {border-color:#000000;}#copyright {background-color:#000000;border-top-color:#000000;}#copyright p,#copyright .text-left,#copyright .text-right {color:#ffffff;}#copyright a {color:#ffffff;}#copyright a:hover,#copyright nav .menu li a:hover {color:#a8a8a8;}#copyright nav .menu li {border-left-color:#000000;}#footer .widget_calendar #calendar_wrap,#footer .widget_calendar th,#footer .widget_calendar tbody tr > td,#footer .widget_calendar tbody tr > td.pad {border-color:#000000;}.widget input[type=\"email\"] {background:#f7f7f7;color:#999}#footer .widget hr {border-color:#000000;}#sf-newsletter-bar,.layout-boxed #sf-newsletter-bar > .container {background-color:#222;}#sf-newsletter-bar h3.sub-text {color:#ccc;}#sf-newsletter-bar .sub-code > form input[type=submit],#sf-newsletter-bar .sub-code > form input[type=\"text\"],#sf-newsletter-bar .sub-code > form input[type=\"email\"] {border-color:#ccc;color:#ccc;}#sf-newsletter-bar .sub-code > form input[type=submit]:hover {border-color:#fff;color:#fff;}#sf-newsletter-bar .sub-close {color:#ccc;}#sf-newsletter-bar .sub-close:hover {color:#fff;}#sf-newsletter-bar ::-webkit-input-placeholder {color:#ccc!important;}#sf-newsletter-bar :-moz-placeholder {color:#ccc!important;}#sf-newsletter-bar ::-moz-placeholder {color:#ccc!important;}#sf-newsletter-bar :-ms-input-placeholder {color:#ccc!important;}.woocommerce .jckqvBtn{display:inline-block;float:none;}.woocommerce .price + .jckqvBtn{width:80%;display:block;margin:0 10% 10px;}#jckqv{overflow:hidden;font-family:inherit;padding:0;border-radius:4px;}#jckqv .added_to_cart.wc-forward{display:none!important;}#jckqv #addingToCart{display:none!important;}#jckqv h1,#jckqv p{font-family:inherit;line-height:inherit;}#jckqv_images_wrap{width:50%;margin:0;}#jckqv #jckqv_thumbs{display:none!important;}#jckqv .slick-list{border-radius:4px 0 0 4px;}#jckqv_summary{width:50%;padding:15px 30px 30px;background:transparent;position:relative;}#jckqv_summary > h1{font-size:24px!important;border-bottom:1px solid #e3e3e3;padding-bottom:20px;margin-bottom:20px;padding-right:50px;}.woocommerce #jckqv .woocommerce-product-rating{display:block;float:right;margin:0;}#jckqv .woocommerce-product-rating .star-rating{margin:3px 5px 3px 0;font-size:16px;}#jckqv .woocommerce-product-rating .star-rating span:before{color:#f5c55e;}#jckqv .woocommerce-product-rating .text-rating{margin-left:4px;}#jckqv .price del,#jckqv .price ins,#jckqv span.price del,#jckqv span.price ins{font-size:inherit;font-weight:normal;}#jckqv .single_variation_wrap{margin:10px 0 0;}#jckqv .single_variation_wrap .single_variation{margin-bottom:10px;}#jckqv .onsale{right:auto!important;left:-10px;top:10px!important;-webkit-transform:translateX(-100%);-moz-transform:translateX(-100%);transform:translateX(-100%);}#jckqv .quantity{margin-right:10px!important;background:transparent!important;}#jckqv .jckqv-qty-spinners{display:none;}#jckqv .quantity .qty{border-radius:0;height:50px;width:46px;float:left;margin-right:0;text-align:center;border:1px solid #e3e3e3;}#jckqv .price{font-weight:normal;line-height:22px;}#jckqv table.variations{margin:0;}#jckqv table.variations td.label{display:none;}#jckqv .variations_form tr:last-child td.value select{margin-bottom:0;}#jckqv .product_meta{background:transparent;clear:both;margin-bottom:0;display:none;}#jckqv .product_meta > span{margin-bottom:0;padding:0;border:0;font-size:14px;}#jckqv .product_meta > .meta-row{display:block;padding:8px 10px;border-bottom:2px solid #eeeeee;margin-bottom:0;}#jckqv table.variations{background:none!important;}#jckqv table.variations td{border:0;}#jckqv .mfp-close{font-size:0;padding:22px 25px 0 0;width:45px;height:45px;line-height:26px;}#jckqv .mfp-close:before{content:\"\\e932\";font-family:\"nucleo-interface\";font-size:16px;}.mfp-ajax-cur{cursor:default!important;}#jckqv .jckqv-images__arr--next,#jckqv .jckqv-images__arr--prev{width:32px;}#jckqv .jckqv-images__arr--next{right:30px;}#jckqv .jckqv-images__arr--prev{left:30px;}#jckqv .jckqv-images__arr--next i,#jckqv .jckqv-images__arr--prev i{color:#222;background:#fff;text-align:center;letter-spacing:-3px;line-height:34px;font-size:16px;width:32px;height:32px;border-radius:30px;}#jckqv .jckqv-images__arr--prev i{letter-spacing:0;}#jckqv .jckqv-images__arr--next i:before{font-family:\"nucleo-interface\";content:\"\\e907\";}#jckqv .jckqv-images__arr--prev i:before{font-family:\"nucleo-interface\";content:\"\\e906\";}.mfp-arrow:before{font-family:\"nucleo-interface\";content:\"\\e906\";font-size:32px;border:0;width:40px;height:40px;color:#fff;}.mfp-arrow.mfp-arrow-right:before{content:\"\\e907\";margin-left:0;margin-right:30px;}.mfp-arrow:after{display:none!important;}#jckqv .cart .button{border-radius:0;box-shadow:none;height:50px;padding:0 20px;float:left;outline:0!important;margin:0 10px 0 0;text-shadow:none;font-size:14px;text-transform:uppercase;font-weight:bold!important;text-align:left;line-height:20px;min-width:180px;}#jckqv #jckqv_summary .yith-wcwl-divide{display:none;}#jckqv .cart .yith-wcwl-add-to-wishlist{margin-left:0!important;min-height:50px;}#jckqv .slick-initialized .slick-slide{outline:0!important;}#base-promo,.sf-promo-bar {background-color:#e4e4e4;}#base-promo > p,#base-promo.footer-promo-text > a,#base-promo.footer-promo-arrow > a,.sf-promo-bar > p,.sf-promo-bar.promo-text > a,.sf-promo-bar.promo-arrow > a {color:#222;}#base-promo.footer-promo-arrow:hover,#base-promo.footer-promo-text:hover,.sf-promo-bar.promo-arrow:hover,.sf-promo-bar.promo-text:hover {background-color:#000000!important;color:#ffffff!important;}#base-promo.footer-promo-arrow:hover > *,#base-promo.footer-promo-text:hover > *,.sf-promo-bar.promo-arrow:hover > *,.sf-promo-bar.promo-text:hover > * {color:#ffffff!important;}html.no-js .sf-animation,.mobile-browser .sf-animation,.apple-mobile-browser .sf-animation,.sf-animation[data-animation=\"none\"]{opacity:1!important;left:auto!important;right:auto!important;bottom:auto!important;-webkit-transform:scale(1)!important;-o-transform:scale(1)!important;-moz-transform:scale(1)!important;transform:scale(1)!important;}html.no-js .sf-animation.image-banner-content,.mobile-browser .sf-animation.image-banner-content,.apple-mobile-browser .sf-animation.image-banner-content,.sf-animation[data-animation=\"none\"].image-banner-content{bottom:50%!important;}.mobile-browser .product-grid .product {opacity:1!important;}/** Sunday 28th of April 2019 02:41:52 AM **/</style>\n<style></style>\n\t<!--// CLOSE HEAD //-->\n\t</head>\n\n\t<!--// OPEN BODY //-->\n\t<body data-rsssl=1 class=\"home page-template-default page page-id-7 swift-framework-v2.5.53 uplift-child-theme-v1.0 minimal-design mobile-header-center-logo mhs-tablet-land mh-overlay responsive-fluid sticky-header-disabled page-shadow mobile-two-click standard product-shadows header-standard layout-fullwidth disable-mobile-animations \">\n\t\n\t\t<div id=\"site-loading\" class=\"circle\"><div class=\"sf-svg-loader\"><object data=\"https://kontikibar.ch/kontiki/wp-content/themes/uplift/images/loader-svgs/loader-32px-glyph_x-circle-08.svg\" type=\"image/svg+xml\"></object></div></div>\n\t\t<!--// OPEN #container //-->\n\t\t<div id=\"container\">\n\n\t\t\t<div id=\"mobile-menu-wrap\" class=\"menu-is-left\">\n<nav id=\"mobile-menu\" class=\"clearfix\">\n<div class=\"menu-mobile-container\"><ul id=\"menu-mobile\" class=\"menu\"><li  class=\"menu-item-356 menu-item menu-item-type-post_type menu-item-object-page   \"><a href=\"https://kontikibar.ch/coffeeshopbar/\"><span class=\"menu-item-text\">Coffeeshop &#038; Bar</span></a></li>\n<li  class=\"menu-item-149 menu-item menu-item-type-post_type menu-item-object-page   \"><a href=\"https://kontikibar.ch/kultur/\"><span class=\"menu-item-text\">Kultur</span></a></li>\n<li  class=\"menu-item-150 menu-item menu-item-type-post_type menu-item-object-page   \"><a href=\"https://kontikibar.ch/galerie/\"><span class=\"menu-item-text\">Galerie</span></a></li>\n<li  class=\"menu-item-151 menu-item menu-item-type-post_type menu-item-object-page   \"><a href=\"https://kontikibar.ch/kontakt/\"><span class=\"menu-item-text\">Kontakt</span></a></li>\n</ul></div><ul class=\"alt-mobile-menu\">\n</ul>\n</nav>\n<div class=\"mobile-menu-aux\">\n</div>\n</div>\n<header id=\"mobile-header\" class=\"mobile-center-logo clearfix\">\n<div class=\"mobile-header-opts opts-left\"><button class=\"hamburger mobile-menu-link hamburger--3dy\" type=\"button\">\n                    <span class=\"button-text\">Menu</span>\n\t\t\t\t  <span class=\"hamburger-box\">\n\t\t\t\t    <span class=\"hamburger-inner\"></span>\n\t\t\t\t  </span>\n\t\t\t\t</button>\n</div><div id=\"mobile-logo\" class=\"logo-center has-img clearfix\" data-anim=\"\">\n<a href=\"https://kontikibar.ch\">\n<img class=\"standard\" src=\"https://kontikibar.ch/kontiki/wp-content/uploads/2018/03/7fa230_9a3fefc432ff48df9df370f5eff3e0dcmv2.png\" alt=\"Kon-Tiki Coffeeshop &amp; Bar\" height=\"258\" width=\"193\" />\n<img class=\"retina\" src=\"https://kontikibar.ch/kontiki/wp-content/uploads/2018/03/7fa230_9a3fefc432ff48df9df370f5eff3e0dcmv2.png\" alt=\"Kon-Tiki Coffeeshop &amp; Bar\" height=\"129\" width=\"96.5\" />\n<div class=\"text-logo\"></div>\n</a>\n</div>\n<div class=\"mobile-header-opts opts-right\"></div></header>\n\t\t\t\n\t\t\t<!--// HEADER //-->\n\t\t\t<div class=\"header-wrap  full-header-stick page-header-standard\" data-style=\"default\" data-default-style=\"default\">\n\n\t\t\t\t<div id=\"header-section\" class=\"header-1 \">\n\t\t\t\t\t\n<header id=\"header\" class=\"sticky-header clearfix\">\n\t\t<div class=\"header-left\">\n\t\t\t</div>\n\t<div class=\"container\">\n\t\t<div class=\"row\">\n\t\t\t<div class=\"split-menu menu-left col-sm-5\">\n\t\t\t\t<nav class=\"std-menu clearfix\">\n<div class=\"menu-menu-left-container\"><ul id=\"menu-menu-left\" class=\"menu\"><li  class=\"menu-item-215 menu-item menu-item-type-post_type menu-item-object-page sf-std-menu         \" ><a href=\"https://kontikibar.ch/coffeeshopbar/\"><span class=\"menu-item-text\">Coffeeshop &#038; Bar</span></a></li>\n<li  class=\"menu-item-35 menu-item menu-item-type-post_type menu-item-object-page sf-std-menu         \" ><a href=\"https://kontikibar.ch/kultur/\"><span class=\"menu-item-text\">Kultur</span></a></li>\n</ul></div></nav>\n\t\t\t</div>\n\t\t\t\n\t\t\t<div id=\"logo\" class=\"col-sm-2 logo-center has-img clearfix\" data-anim=\"\">\n<a href=\"https://kontikibar.ch\">\n<img class=\"standard\" src=\"https://kontikibar.ch/kontiki/wp-content/uploads/2018/03/7fa230_9a3fefc432ff48df9df370f5eff3e0dcmv2.png\" alt=\"Kon-Tiki Coffeeshop &amp; Bar\" height=\"258\" width=\"193\" />\n<img class=\"retina\" src=\"https://kontikibar.ch/kontiki/wp-content/uploads/2018/03/7fa230_9a3fefc432ff48df9df370f5eff3e0dcmv2.png\" alt=\"Kon-Tiki Coffeeshop &amp; Bar\" height=\"129\" width=\"96.5\" />\n<div class=\"text-logo\"></div>\n</a>\n</div>\n\t\t\t\n\t\t\t<div class=\"split-menu menu-right col-sm-5\">\n\t\t\t\t<nav class=\"std-menu clearfix\">\n<div class=\"menu-menu-right-container\"><ul id=\"menu-menu-right\" class=\"menu\"><li  class=\"menu-item-37 menu-item menu-item-type-post_type menu-item-object-page sf-std-menu         \" ><a href=\"https://kontikibar.ch/galerie/\"><span class=\"menu-item-text\">Galerie</span></a></li>\n<li  class=\"menu-item-38 menu-item menu-item-type-post_type menu-item-object-page sf-std-menu         \" ><a href=\"https://kontikibar.ch/kontakt/\"><span class=\"menu-item-text\">Kontakt</span></a></li>\n<li  class=\"menu-item-110 merdaccia menu-item menu-item-type-custom menu-item-object-custom sf-std-menu         \" ><a href=\"https://www.facebook.com/kontikibarzh/\"><span class=\"menu-item-text\">.</span></a></li>\n<li  class=\"menu-item-111 merdaccia menu-item menu-item-type-custom menu-item-object-custom sf-std-menu         \" ><a href=\"https://www.instagram.com/explore/locations/1034031673/kon-tiki-coffeeshop-bar/\"><span class=\"menu-item-text\">.</span></a></li>\n</ul></div></nav>\n\t\t\t</div>\n\t\t</div> <!-- CLOSE .row -->\n\t</div> <!-- CLOSE .container -->\n\t<div class=\"header-right\">\n\t\t\t</div>\n\t</header><div class=\"sticky-wrapper\"></div>\t\t\t\t</div>\n\n\n\t\t\t\t\n\t\t\t\t\n\t\t\t\t\n\t\t\t</div>\n\n\t\t<div id=\"sf-mobile-slideout-backdrop\"></div>\n            \n\t\t\t<!--// OPEN #main-container //-->\n\t\t\t<div id=\"main-container\" class=\"clearfix\">\n\n\t\t\t\t                \n                                            <div class=\"page-heading page-heading-hidden page-heading-breadcrumbs clearfix\" >\n                                        <div class=\"container\">\n                    \t\n                    \t                    \t\n                        <div class=\"heading-text\">\n\n                            \n                                <h1 class=\"entry-title\" >Home</h1>\n\n                            \n                        </div>\n\n                        \n                        \n\t\t\t\t\t\t\n                        \n                    </div>\n                </div>\n                \t\t\t\t\n\t\t\t\t<div class=\"inner-container-wrap\">\t\n<div class=\"container\">\n\n\t\n        \t\t\t\t\t<div class=\"content-divider-wrap container\"><div class=\"content-divider sf-elem-bb\"></div></div>\n\t\t\t\t\n        \n        <div class=\"inner-page-wrap has-no-sidebar clearfix\">\n\n            <!-- OPEN page -->\n                        <div class=\"clearfix\">\n        \n            \n                <div class=\"page-content hfeed clearfix\">\n\n                    \n\n    \n    <div class=\"clearfix post-7 page type-page status-publish hentry\" id=\"7\">\n\n        \n        <section data-header-style=\"\" class=\"row fw-row  dynamic-header-change\">\r\n            <div class=\"spb-row  \" data-row-type=\"\" data-wrap=\"full-width-contained\" data-image-movement=\"fixed\" data-content-stretch=\"false\" data-row-height=\"content-height\" data-col-v-pos=\"default\" data-legacy=\"true\" style=\"margin-top:0px;margin-bottom:0px;\">\r\n\r\n                \r\n                \r\n                \r\n                <div class=\"spb_content_element clearfix\" style=\"\">\r\n                     <section  class=\"row \">\n\t<div class=\"spb-column-container col-sm-8   hidden-xs\"   style=\"z-index: 0; \">\n\t\t<div class=\"spb-column-inner row clearfix\" style=\"margin-top: 0px;margin-bottom: 0px;\">\n\t\t <section  class=\"row \"><div class=\"divider-wrap col-sm-12\"><div class=\"spb_divider standard spb_content_element \" style=\"margin-top: 0px; margin-bottom: 30px;\"></div>\n</div></section>\n <section  class=\"row \">\n\t<div class=\"spb_content_element col-sm-12 spb_text_column\">\n\t\t<div class=\"spb-asset-content\" style=\"margin-top: 0px;margin-bottom: 0px;\">\n\t\t\t\n<h2>Das Kon-Tiki macht die Leinen los, um in seiner über 60jährigen Geschichte in ein neues Abenteuer zu schippern: Seit dem 9. Dezember sind wir nicht mehr nur Bar, sondern auch Coffeeshop und damit schon ab 11 Uhr geöffnet.</h2>\n\n\t\t</div>\n\t</div> </section>\n <section  class=\"row \">\n\t<div class=\"spb_content_element col-sm-12 spb_text_column\">\n\t\t<div class=\"spb-asset-content\" style=\"margin-top: 0px;margin-bottom: 0px;\">\n\t\t\t\n<h2>Unser neues Sortiment umfasst feinstes CBD Cannabis. Passend dazu geniessen unsere Gäste besten Kaffee, frische Fruchtsäfte und viele weitere liebevoll zubereitete Getränke und Leckereien.</h2>\n\n\t\t</div>\n\t</div> </section>\n \n\t\t</div>\n\t</div>  \n\t<div class=\"spb-column-container col-sm-4   \"   style=\" \">\n\t\t<div class=\"spb-column-inner row clearfix\" style=\"padding-left:0px; padding-right:0px;\">\n\t\t <section  class=\"row \"><div class=\"divider-wrap col-sm-12\"><div class=\"spb_divider standard spb_content_element \" style=\"margin-top: 0px; margin-bottom: 30px;\"></div>\n</div></section>\n <section  class=\"row \">\n\t<div class=\"spb_content_element col-sm-12 spb_text_column\">\n\t\t<div class=\"spb-asset-content\" style=\"margin-top: 0px;margin-bottom: 0px;\">\n\t\t\t\n<h3>Öffnungszeiten</h3>\n\n\t\t</div>\n\t</div> </section>\n <section  class=\"row \">\n\t<div class=\"spb_content_element col-sm-12 spb_text_column\">\n\t\t<div class=\"spb-asset-content\" style=\"margin-top: 0px;margin-bottom: 0px;\">\n\t\t\t\n<p>Montag – Donnerstag: 11 bis 24 Uhr<br />\nFreitag – Samstag: 11 bis 02 Uhr<br />\nSonntag: 11 bis 24 Uhr</p>\n\n\t\t</div>\n\t</div> </section>\n <section  class=\"row \">\n\t<div class=\"spb_content_element col-sm-12 spb_text_column\">\n\t\t<div class=\"spb-asset-content\" style=\"margin-top: 0px;margin-bottom: 0px;\">\n\t\t\t\n<h3>Adresse</h3>\n\n\t\t</div>\n\t</div> </section>\n <section  class=\"row \">\n\t<div class=\"spb_content_element col-sm-12 spb_text_column\">\n\t\t<div class=\"spb-asset-content\" style=\"margin-top: 0px;margin-bottom: 0px;\">\n\t\t\t\n<p>KON-TIKI<br />\nNiederdorfstrasse 24<br />\n8001 Zürich<br />\nTel: 044 251 35 77<br />\ninfo@kontikibar.ch</p>\n\n\t\t</div>\n\t</div> </section>\n \n\t\t</div>\n\t</div> </section>\n                 </div>\r\n                \r\n                \r\n            </div><!-- .spb-row -->\r\n\r\n            </section>\n\r\n            <div class=\"spb-row-sizer\"></div>\r\n\r\n         <section id=\"events\" data-rowname=\"\" data-header-style=\"\" class=\"row fw-row row-has-id dynamic-header-change\">\r\n            <div class=\"spb-row  \" data-row-type=\"color\" data-wrap=\"standard-width\" data-image-movement=\"fixed\" data-content-stretch=\"false\" data-row-height=\"content-height\" data-col-spacing=\"0\" data-col-v-pos=\"default\" style=\"margin-top: 0px;margin-bottom: 0px;\">\r\n\r\n                \r\n                \r\n                \r\n                <div class=\"spb_content_element clearfix\" style=\"\">\r\n                     <section  class=\"row \"><div class=\"blank_spacer col-sm-12  \" style=\"height:80px;\"></div>\n</section>\n <section  class=\"row \">\n\t<div class=\"spb-column-container col-sm-12   \"   style=\" \">\n\t\t<div class=\"spb-column-inner row clearfix\" style=\"padding-left:0px; padding-right:0px;\">\n\t\t <section  class=\"row \">\n\t<div class=\"spb_content_element col-sm-12 spb_text_column\">\n\t\t<div class=\"spb-asset-content\" style=\"margin-top: 0px;margin-bottom: 0px;\">\n\t\t\t\n<h1>Aktuelle Veranstaltungen</h1>\n\n\t\t</div>\n\t</div> </section>\n <section  class=\"row \"><div class=\"divider-wrap col-sm-12\"><div class=\"spb_divider standard spb_content_element \" style=\"margin-top: 0px; margin-bottom: 30px;\"></div>\n</div></section>\n \n\t\t</div>\n\t</div> </section>\n <section  class=\"row \">\n\t<div class=\"spb-column-container col-sm-12   \"   style=\" \">\n\t\t<div class=\"spb-column-inner row clearfix\" style=\"padding-left:0px; padding-right:0px;\">\n\t\t <section  class=\"row \">\n\t<div class=\"spb_content_element col-sm-12 spb_text_column\">\n\t\t<div class=\"spb-asset-content\" style=\"margin-top: 0px;margin-bottom: 0px;\">\n\t\t\t\n<div class=\"cff-wrapper\"><div id=\"cff\" class=\"cff cff-masonry cff-thumb-layout cff-width-resp cff-pag cff-all-reviews  cff-lb\" style=\"width:100%; \" data-fb-text=\"View on Facebook\" data-offset=\"\" data-own-token=\"true\" data-grid-pag=\"cursor\" data-lb-comments=\"false\" data-pag-num=\"6\" data-cff-shortcode=\"\"><div class=\"cff-posts-wrap\"><div class=\"cff-item cff-event author-kontikibarzh cff-box cff-new\" data-cff-timestamp=\"1541617200\" id=\"cff_468008510389188\" style=\"background-color: #000000; -webkit-border-radius: 5px; -moz-border-radius: 5px; border-radius: 5px; \"><div class=\"cff-media-wrap\"><a class=\"cff-photo nofancybox\" href=\"https://facebook.com/events/468008510389188\" target=\"_blank\" rel=\"nofollow\"><img src=\"https://scontent.xx.fbcdn.net/v/t1.0-9/s720x720/45719584_2137904886459736_8021996639654772736_n.jpg?_nc_cat=108&_nc_ht=scontent.xx&oh=99c318f5edf71395c8625d5934e6cea0&oe=5D34AF25\" alt=\"Jam Session &lpar;Season 18&sol;19&rpar; at Kon-Tiki Bar\" data-querystring=\"_nc_cat=108&_nc_ht=scontent.xx&oh=99c318f5edf71395c8625d5934e6cea0&oe=5D34AF25\" /></a></div><div class=\"cff-details\"><h3 class=\"cff-event-title\" style=\"font-weight:bold; \">Jam Session (Season 18/19) at Kon-Tiki Bar</h3><p class=\"cff-date\"><span class=\"cff-start-date\" ><k>May 1, </k>8:00pm</span><span class=\"cff-end-date\" > - <k>May 1, </k>11:00pm</span><a href=\"javascript:void(0);\" class=\"cff-more-dates\">+4</a><span class=\"cff-multiple-dates\"><span class=\"cff-multiple-date\" id=\"cff_468008540389185\"><span class=\"cff-start-date\"><k>May 8, </k>8:00pm</span><span class=\"cff-end-date\"> - <k>May 8, </k>11:00pm</span></span><span class=\"cff-multiple-date\" id=\"cff_468008537055852\"><span class=\"cff-start-date\"><k>May 15, </k>8:00pm</span><span class=\"cff-end-date\"> - <k>May 15, </k>11:00pm</span></span><span class=\"cff-multiple-date\" id=\"cff_468008533722519\"><span class=\"cff-start-date\"><k>May 22, </k>8:00pm</span><span class=\"cff-end-date\"> - <k>May 22, </k>11:00pm</span></span><span class=\"cff-multiple-date\" id=\"cff_468008527055853\"><span class=\"cff-start-date\"><k>May 29, </k>8:00pm</span><span class=\"cff-end-date\"> - <k>May 29, </k>11:00pm</span></span></span></p><p class=\"cff-location\" style=\"font-weight:normal; \"><a href=\"https://facebook.com/1680553852194844\" target=\"_blank\" rel=\"nofollow\" style=\"color:#;\"><b>Kon-Tiki Coffeeshop &amp; Bar</b></a><br />Niederdorfstrasse 24<br />Z&uuml;rich,  &nbsp;8001 <a href=\"https://maps.google.com/maps?q=47.37385,+8.54381\" target=\"_blank\" rel=\"nofollow\" style=\"color:#;\">Map</a></p><p class=\"cff-desc\" style=\"font-weight:normal; \"><span class=\"cff-desc-text\">Jam Session every Wednesday at Kont-Tiki Bar Z&uuml;rich&comma; for all musicians from all around the World&period;&NewLine;Bring your friends and let&apos;s Jam together&period;&period;&period;</span></p><div class=\"cff-event-meta\">131 interested</div></div><div class=\"cff-meta-wrap\"><div class=\"cff-post-links\"><a class=\"cff-viewpost\" href=\"https://facebook.com/events/468008510389188\" target=\"_blank\" rel=\"nofollow\" >View on Facebook</a><div class=\"cff-share-container\"><span class=\"cff-dot\" >&middot;</span><a class=\"cff-share-link\" href=\"javascript:void(0);\" title=\"Share\" >Share</a><p class='cff-share-tooltip'><a href='https://www.facebook.com/sharer/sharer.php?u=https%3A%2F%2Ffacebook.com%2Fevents%2F468008510389188' target='_blank' class='cff-facebook-icon'><i class='fa fab fa-facebook-square' aria-hidden='true'></i><span class='cff-screenreader'>Share on Facebook</span></a><a href='https://twitter.com/intent/tweet?text=https%3A%2F%2Ffacebook.com%2Fevents%2F468008510389188' target='_blank' class='cff-twitter-icon'><i class='fa fab fa-twitter' aria-hidden='true'></i><span class='cff-screenreader'>Share on Twitter</span></a><a href='https://plus.google.com/share?url=https%3A%2F%2Ffacebook.com%2Fevents%2F468008510389188' target='_blank' class='cff-google-icon'><i class='fa fab fa-google-plus' aria-hidden='true'></i><span class='cff-screenreader'>Share on Google Plus</span></a><a href='https://www.linkedin.com/shareArticle?mini=true&amp;url=https%3A%2F%2Ffacebook.com%2Fevents%2F468008510389188&amp;title=Jam%20Session%20%28Season%2018%2F19%29%20at%20Kon-Tiki%20Bar%20-%20May%201%2C%208%3A00pm%20-%20May%201%2C%2011%3A00pm%2B4May%208%2C%208%3A00pm%20-%20May%208%2C%2011%3A00pmMay%2015%2C%208%3A00pm%20-%20May%2015%2C%2011%3A00pmMay%2022%2C%208%3A00pm%20-%20May%2022%2C%2011%3A00pmMay%2029%2C%208%3A00pm%20-%20May%2029%2C%2011%3A00pm' target='_blank' class='cff-linkedin-icon'><i class='fa fab fa-linkedin' aria-hidden='true'></i><span class='cff-screenreader'>Share on Linked In</span></a><a href='mailto:?subject=Facebook&amp;body=https%3A%2F%2Ffacebook.com%2Fevents%2F468008510389188%20-%20Jam%20Session%20%28Season%2018%2F19%29%20at%20Kon-Tiki%20Bar%20-%20May%201%2C%208%3A00pm%20-%20May%201%2C%2011%3A00pm%2B4May%208%2C%208%3A00pm%20-%20May%208%2C%2011%3A00pmMay%2015%2C%208%3A00pm%20-%20May%2015%2C%2011%3A00pmMay%2022%2C%208%3A00pm%20-%20May%2022%2C%2011%3A00pmMay%2029%2C%208%3A00pm%20-%20May%2029%2C%2011%3A00pm' target='_blank' class='cff-email-icon'><i class='fa fa-envelope' aria-hidden='true'></i><span class='cff-screenreader'>Share by Email</span></a><i class='fa fa-play fa-rotate-90' aria-hidden='true'></i></p></div></div></div></div><div class=\"cff-item cff-event author-kontikibarzh cff-box cff-new\" data-cff-timestamp=\"1557250200\" id=\"cff_316078155695970\" style=\"background-color: #000000; -webkit-border-radius: 5px; -moz-border-radius: 5px; border-radius: 5px; \"><div class=\"cff-media-wrap\"><a class=\"cff-photo nofancybox\" href=\"https://facebook.com/events/316078155695970\" target=\"_blank\" rel=\"nofollow\"><img src=\"https://scontent.xx.fbcdn.net/v/t1.0-9/s720x720/55939890_2531316653762019_8294070813422780416_o.jpg?_nc_cat=101&_nc_ht=scontent.xx&oh=64f6de9680aef2b406c32d8dca8bccf8&oe=5D29C233\" alt=\"Comedy Nights Open Mic at Kon-Tiki\" data-querystring=\"_nc_cat=101&_nc_ht=scontent.xx&oh=64f6de9680aef2b406c32d8dca8bccf8&oe=5D29C233\" /></a></div><div class=\"cff-details\"><h3 class=\"cff-event-title\" style=\"font-weight:bold; \">Comedy Nights Open Mic at Kon-Tiki</h3><p class=\"cff-date\"><span class=\"cff-start-date\" ><k>May 7, </k>7:30pm</span><span class=\"cff-end-date\" > - <k>May 7, </k>9:30pm</span></p><p class=\"cff-location\" style=\"font-weight:normal; \"><a href=\"https://facebook.com/1680553852194844\" target=\"_blank\" rel=\"nofollow\" style=\"color:#;\"><b>Kon-Tiki Coffeeshop &amp; Bar</b></a><br />Niederdorfstrasse 24<br />Z&uuml;rich,  &nbsp;8001 <a href=\"https://maps.google.com/maps?q=47.37385,+8.54381\" target=\"_blank\" rel=\"nofollow\" style=\"color:#;\">Map</a></p><p class=\"cff-desc\" style=\"font-weight:normal; \"><span class=\"cff-desc-text\">Comedy Nights Open Mic &commat; KON-TIKI&excl;&excl;&excl; &NewLine;Every Tuesday&excl;&NewLine;Doors open at 18&colon;30 pm&NewLine;Show starts at 19&colon;30pm&excl;&excl;&NewLine;&NewLine;Hosted by regulars&comma; featuring newcomers&comma; first timers&comma; veterans &amp; other mentally stable people&period; Laughs&comma; drinks &amp; socialising&excl; Finest FREE english open mic stand up comedy Zurich has to offer&excl; &NewLine;&NewLine;Would YOU like to give English Standup Comedy a try&quest; Here&apos;s your chance &semi;&rpar; Please sign up to perform by writing&colon; SPOT in the event discussion &amp; we will confirm you&period;&period;</span></p><div class=\"cff-event-meta\">48 interested &nbsp;&middot;&nbsp; 10 going</div></div><div class=\"cff-meta-wrap\"><div class=\"cff-post-links\"><a class=\"cff-viewpost\" href=\"https://facebook.com/events/316078155695970\" target=\"_blank\" rel=\"nofollow\" >View on Facebook</a><div class=\"cff-share-container\"><span class=\"cff-dot\" >&middot;</span><a class=\"cff-share-link\" href=\"javascript:void(0);\" title=\"Share\" >Share</a><p class='cff-share-tooltip'><a href='https://www.facebook.com/sharer/sharer.php?u=https%3A%2F%2Ffacebook.com%2Fevents%2F316078155695970' target='_blank' class='cff-facebook-icon'><i class='fa fab fa-facebook-square' aria-hidden='true'></i><span class='cff-screenreader'>Share on Facebook</span></a><a href='https://twitter.com/intent/tweet?text=https%3A%2F%2Ffacebook.com%2Fevents%2F316078155695970' target='_blank' class='cff-twitter-icon'><i class='fa fab fa-twitter' aria-hidden='true'></i><span class='cff-screenreader'>Share on Twitter</span></a><a href='https://plus.google.com/share?url=https%3A%2F%2Ffacebook.com%2Fevents%2F316078155695970' target='_blank' class='cff-google-icon'><i class='fa fab fa-google-plus' aria-hidden='true'></i><span class='cff-screenreader'>Share on Google Plus</span></a><a href='https://www.linkedin.com/shareArticle?mini=true&amp;url=https%3A%2F%2Ffacebook.com%2Fevents%2F316078155695970&amp;title=Comedy%20Nights%20Open%20Mic%20at%20Kon-Tiki%20-%20May%207%2C%207%3A30pm%20-%20May%207%2C%209%3A30pm' target='_blank' class='cff-linkedin-icon'><i class='fa fab fa-linkedin' aria-hidden='true'></i><span class='cff-screenreader'>Share on Linked In</span></a><a href='mailto:?subject=Facebook&amp;body=https%3A%2F%2Ffacebook.com%2Fevents%2F316078155695970%20-%20Comedy%20Nights%20Open%20Mic%20at%20Kon-Tiki%20-%20May%207%2C%207%3A30pm%20-%20May%207%2C%209%3A30pm' target='_blank' class='cff-email-icon'><i class='fa fa-envelope' aria-hidden='true'></i><span class='cff-screenreader'>Share by Email</span></a><i class='fa fa-play fa-rotate-90' aria-hidden='true'></i></p></div></div></div></div><div class=\"cff-item cff-event author-kontikibarzh cff-box cff-new\" data-cff-timestamp=\"1557428400\" id=\"cff_373167453287762\" style=\"background-color: #000000; -webkit-border-radius: 5px; -moz-border-radius: 5px; border-radius: 5px; \"><div class=\"cff-media-wrap\"><a class=\"cff-photo nofancybox\" href=\"https://facebook.com/events/373167453287762\" target=\"_blank\" rel=\"nofollow\"><img src=\"https://scontent.xx.fbcdn.net/v/t1.0-9/s720x720/58383936_745469405848028_8901833764120821760_o.jpg?_nc_cat=109&_nc_ht=scontent.xx&oh=63512ad590274bb63af1b6cf4aab7c50&oe=5D73FB3D\" alt=\"Style Bakery feat&period; Greis &amp; Big Zis\" data-querystring=\"_nc_cat=109&_nc_ht=scontent.xx&oh=63512ad590274bb63af1b6cf4aab7c50&oe=5D73FB3D\" /></a></div><div class=\"cff-details\"><h3 class=\"cff-event-title\" style=\"font-weight:bold; \">Style Bakery feat. Greis & Big Zis</h3><p class=\"cff-date\"><span class=\"cff-start-date\" ><k>May 9, </k>9:00pm</span></p><p class=\"cff-location\" style=\"font-weight:normal; \"><a href=\"https://facebook.com/1680553852194844\" target=\"_blank\" rel=\"nofollow\" style=\"color:#;\"><b>Kon-Tiki Coffeeshop &amp; Bar</b></a><br />Niederdorfstrasse 24<br />Z&uuml;rich,  &nbsp;8001 <a href=\"https://maps.google.com/maps?q=47.37385,+8.54381\" target=\"_blank\" rel=\"nofollow\" style=\"color:#;\">Map</a></p><p class=\"cff-desc\" style=\"font-weight:normal; \"><span class=\"cff-desc-text\">Style Bakery Freestyle Show feat&period;&NewLine;&NewLine;Big Zis &amp; Greis Mics&NewLine;Florian Reichle Drums&NewLine;Toni Schiavano Bass&NewLine;Andi Achermann Keys&NewLine;&NewLine;Open Mic - Hosted by Baqabond</span></p><div class=\"cff-event-meta\">38 interested &nbsp;&middot;&nbsp; 4 going</div></div><div class=\"cff-meta-wrap\"><div class=\"cff-post-links\"><a class=\"cff-viewpost\" href=\"https://facebook.com/events/373167453287762\" target=\"_blank\" rel=\"nofollow\" >View on Facebook</a><div class=\"cff-share-container\"><span class=\"cff-dot\" >&middot;</span><a class=\"cff-share-link\" href=\"javascript:void(0);\" title=\"Share\" >Share</a><p class='cff-share-tooltip'><a href='https://www.facebook.com/sharer/sharer.php?u=https%3A%2F%2Ffacebook.com%2Fevents%2F373167453287762' target='_blank' class='cff-facebook-icon'><i class='fa fab fa-facebook-square' aria-hidden='true'></i><span class='cff-screenreader'>Share on Facebook</span></a><a href='https://twitter.com/intent/tweet?text=https%3A%2F%2Ffacebook.com%2Fevents%2F373167453287762' target='_blank' class='cff-twitter-icon'><i class='fa fab fa-twitter' aria-hidden='true'></i><span class='cff-screenreader'>Share on Twitter</span></a><a href='https://plus.google.com/share?url=https%3A%2F%2Ffacebook.com%2Fevents%2F373167453287762' target='_blank' class='cff-google-icon'><i class='fa fab fa-google-plus' aria-hidden='true'></i><span class='cff-screenreader'>Share on Google Plus</span></a><a href='https://www.linkedin.com/shareArticle?mini=true&amp;url=https%3A%2F%2Ffacebook.com%2Fevents%2F373167453287762&amp;title=Style%20Bakery%20feat.%20Greis%20%26%20Big%20Zis%20-%20May%209%2C%209%3A00pm' target='_blank' class='cff-linkedin-icon'><i class='fa fab fa-linkedin' aria-hidden='true'></i><span class='cff-screenreader'>Share on Linked In</span></a><a href='mailto:?subject=Facebook&amp;body=https%3A%2F%2Ffacebook.com%2Fevents%2F373167453287762%20-%20Style%20Bakery%20feat.%20Greis%20%26%20Big%20Zis%20-%20May%209%2C%209%3A00pm' target='_blank' class='cff-email-icon'><i class='fa fa-envelope' aria-hidden='true'></i><span class='cff-screenreader'>Share by Email</span></a><i class='fa fa-play fa-rotate-90' aria-hidden='true'></i></p></div></div></div></div></div><input type=\"hidden\" class=\"cff-pag-url\" data-cff-pag-url=\"{}\" data-cff-prev-url=\"{&quot;kontikibarzh&quot;: &quot;https://graph.facebook.com/v2.9/kontikibarzh/events/?fields=id,name,attending_count,cover,start_time,end_time,event_times,timezone,place,description,ticket_uri,interested_count&time_filter=upcoming&limit=200&access_token=x_cff_hide_token_x&format=json-strings&return_ssl_resources=true&quot;}\" val=\"\"><a href=\"javascript:void(0);\" id=\"cff-load-more\" class=\"cff-load-more\"  data-cff-bg=\"\" data-cff-hover=\"\" data-no-more=\"Keine weiteren Posts\"><span>Mehr laden</span></a></div><div class=\"cff-clear\"></div></div>\n\n\t\t</div>\n\t</div> </section>\n \n\t\t</div>\n\t</div> </section>\n                 </div>\r\n                \r\n                \r\n            </div><!-- .spb-row -->\r\n\r\n            </section>\n\r\n            <div class=\"spb-row-sizer\"></div>\r\n\r\n        \n\n        <div class=\"link-pages\"></div>\n\n        \n    </div>\n\n    \n\n                </div>\n\n            \n            <!-- CLOSE page -->\n            </div>\n\n            \n            </div>\n\n            \n        \t\n</div>\n\n\t\t\t\t</div>\n\n\t\t\t\t\n\t\t\t<!--// CLOSE #main-container //-->\n\t\t\t</div>\n\n\t\t\t<div id=\"footer-wrap\">\n\t\t\t\t                <!--// OPEN #footer //-->\n                <footer id=\"footer\" class=\"footer-divider\">\n                    <div class=\"container\">\n                        <div id=\"footer-widgets\" class=\"row clearfix\">\n                                                            <div class=\"col-sm-3\">\n                                                                                                                                                </div>\n                                <div class=\"col-sm-3\">\n                                                                                                                                                </div>\n                                <div class=\"col-sm-3\">\n                                                                                                                                                </div>\n                                <div class=\"col-sm-3\">\n                                                                                                                                                </div>\n\n                            \n                        </div>\n                    </div>\n\n                    \n                    <!--// CLOSE #footer //-->\n                </footer>\n            \n                <!--// OPEN #copyright //-->\n                <footer id=\"copyright\" class=\"copyright-divider\">\n                    <div class=\"container\">\n                        <div\n                            class=\"text-left\">©2019, <a href=\"http://www.studioeusebio.com\" target=\"_blank\" rel=\"noopener\">Design und Programmierung: Studio Eusebio</a></div>\n                                                    <div\n                                class=\"text-right\"><ul class=\"social-icons standard \">\n<li class=\"facebook\"><a href=\"https://www.facebook.com/laps.hanfkultur\" target=\"_blank\"><i class=\"fab fa-facebook\"></i><i class=\"fab fa-facebook\"></i></a></li>\n<li class=\"instagram\"><a href=\"http://instagram.com/#\" target=\"_blank\"><i class=\"fab fa-instagram\"></i><i class=\"fab fa-instagram\"></i></a></li>\n</ul>\n</div>\n                                            </div>\n                    <!--// CLOSE #copyright //-->\n                </footer>\n\n            \t\t\t</div>\n\n\t\t\t\n\t\t<!--// CLOSE #container //-->\n\t\t</div>\n\n\t\t                <!--// BACK TO TOP //-->\n                <div id=\"back-to-top\" class=\"animate-top\"><i class=\"sf-icon-up-chevron\"></i></div>\n                        <!--// FULL WIDTH VIDEO //-->\n            <div class=\"fw-video-area\">\n                <div class=\"fw-video-close\"><i class=\"sf-icon-remove\"></i></div>\n                <div class=\"fw-video-wrap\"></div>\n            </div>\n            <div class=\"fw-video-spacer\"></div>\n                    <!--// INFINITE SCROLL PARAMS //-->\n            <div id=\"inf-scroll-params\"\n                 data-loadingimage=\"https://kontikibar.ch/kontiki/wp-content/themes/uplift/images/loader.gif\"\n                 data-msgtext=\"Loading...\" data-finishedmsg=\"All items loaded\"></div>\n                    <!--// FRAMEWORK INCLUDES //-->\n            <div id=\"sf-included\" class=\"\"></div>\n                    <div id=\"sf-option-params\" data-slider-slidespeed=\"7000\"\n                 data-slider-animspeed=\"600\"\n                 data-slider-autoplay=\"0\"\n                 data-slider-loop=\"\"\n                 data-carousel-pagespeed=\"800\"\n                 data-carousel-slidespeed=\"200\"\n                 data-carousel-autoplay=\"0\"\n                 data-carousel-pagination=\"0\"\n                 data-lightbox-nav=\"arrows\"\n\t             data-lightbox-thumbs=\"0\"\n                 data-lightbox-skin=\"dark\"\n                 data-lightbox-sharing=\"0\"\n                 data-product-zoom-type=\"inner\"\n                 data-product-slider-thumbs-pos=\"bottom\"\n                 data-product-slider-vert-height=\"700\"\n                 data-quickview-text=\"Quickview\"\n\t             data-cart-notification=\"tada\"\n\t             data-username-placeholder=\"Username\"\n\t             data-email-placeholder=\"Email\"\n\t             data-password-placeholder=\"Password\"\n\t             data-username-or-email-placeholder=\"Username or email address\"\n\t             data-order-id-placeholder=\"Order ID\"\n\t             data-billing-email-placeholder=\"Billing Email\"></div>\n\n        <div class=\"sf-svg-loader\"><object data=\"https://kontikibar.ch/kontiki/wp-content/themes/uplift/images/loader-svgs/loader-32px-glyph_x-circle-08.svg\" type=\"image/svg+xml\"></object></div>            <div id=\"loveit-locale\" data-ajaxurl=\"https://kontikibar.ch/kontiki/wp-admin/admin-ajax.php\" data-nonce=\"3f12266cbc\"\n                 data-alreadyloved=\"You have already loved this item.\" data-error=\"Sorry, there was a problem processing your request.\"\n                 data-loggedin=\"false\"></div>\n        \n\t\t            <div id=\"countdown-locale\" data-label_year=\"Year\"\n                 data-label_years=\"Years\"\n                 data-label_month=\"Month\"\n                 data-label_months=\"Months\"\n                 data-label_weeks=\"Weeks\"\n                 data-label_week=\"Week\"\n                 data-label_days=\"Days\"\n                 data-label_day=\"Day\"\n                 data-label_hours=\"Hours\"\n                 data-label_hour=\"Hour\"\n                 data-label_mins=\"Mins\"\n                 data-label_min=\"Min\"\n                 data-label_secs=\"Secs\"\n                 data-label_sec=\"Sec\"></div>\n        \n\t\t\t<div class=\"sf-container-overlay\">\n\t\t\t\t<div class=\"sf-loader\">\n\t\t\t\t\t<div class=\"sf-svg-loader\"><object data=\"https://kontikibar.ch/kontiki/wp-content/themes/uplift/images/loader-svgs/loader-32px-glyph_x-circle-08.svg\" type=\"image/svg+xml\"></object></div>\t\t\t\t</div>\n\t\t\t</div>\n\n\t\t<script type='text/javascript'>\n/* <![CDATA[ */\nvar wpcf7 = {\"apiSettings\":{\"root\":\"https:\\/\\/kontikibar.ch\\/wp-json\\/contact-form-7\\/v1\",\"namespace\":\"contact-form-7\\/v1\"}};\n/* ]]> */\n</script>\n<script type='text/javascript' src='https://kontikibar.ch/kontiki/wp-content/plugins/contact-form-7/includes/js/scripts.js?ver=5.1.1'></script>\n<script type='text/javascript' src='https://kontikibar.ch/kontiki/wp-content/plugins/custom-facebook-feed-pro/js/cff-scripts.js?ver=3.6.1'></script>\n<script type='text/javascript' src='https://kontikibar.ch/kontiki/wp-content/plugins/swift-framework/includes/page-builder/frontend-assets/js/lib/modernizr-custom.js'></script>\n<script type='text/javascript' src='https://kontikibar.ch/kontiki/wp-content/plugins/swift-framework/includes/page-builder/frontend-assets/js/spb-functions.min.js'></script>\n<script type='text/javascript' src='https://kontikibar.ch/kontiki/wp-content/plugins/swift-framework/public/js/lib/imagesloaded.pkgd.min.js'></script>\n<script type='text/javascript' src='https://kontikibar.ch/kontiki/wp-content/themes/uplift/js/lib/js.cookie-2.1.4.min.js'></script>\n<script type='text/javascript' src='https://kontikibar.ch/kontiki/wp-content/themes/uplift/js/lib/bootstrap.min.js'></script>\n<script type='text/javascript' src='https://kontikibar.ch/kontiki/wp-content/themes/uplift/js/lib/theme-scripts.min.js'></script>\n<script type='text/javascript' src='https://kontikibar.ch/kontiki/wp-content/themes/uplift/js/lib/ilightbox.min.js'></script>\n<script type='text/javascript' src='https://kontikibar.ch/kontiki/wp-content/themes/uplift/js/lib/jquery.infinitescroll.min.js'></script>\n<script type='text/javascript' src='https://kontikibar.ch/kontiki/wp-content/themes/uplift/js/lib/jquery.panzoom.min.js'></script>\n<script type='text/javascript' src='https://kontikibar.ch/kontiki/wp-content/themes/uplift/js/functions.js'></script>\n<script type='text/javascript' src='https://kontikibar.ch/kontiki/wp-includes/js/wp-embed.min.js?ver=4.9.10'></script>\n<script type='text/javascript' src='https://kontikibar.ch/kontiki/wp-content/plugins/cff-masonry/js/masonry.js?ver=1.1.3'></script>\n<script type='text/javascript' src='https://kontikibar.ch/kontiki/wp-content/themes/uplift/js/lib/owl.carousel.min.js'></script>\n\n\t<!--// CLOSE BODY //-->\n\t</body>\n\n\n<!--// CLOSE HTML //-->\n</html>",
        "rawHeaders": [
            "server",
            "nginx",
            "date",
            "sun, 28 apr 2019 11:46:08 gmt",
            "content-type",
            "text/html; charset=utf-8",
            "connection",
            "close",
            "vary",
            "accept-encoding",
            "link",
            "<https://kontikibar.ch/wp-json/>; rel=\"https://api.w.org/\", <https://kontikibar.ch/>; rel=shortlink",
            "x-powered-by",
            "plesklin"
        ]
    }
]