// Jest Snapshot v1, https://goo.gl/fbAQLP

exports[`Dynamo dynamo-2020-01-24 1`] = `
Array [
  EventData {
    "description": "The Birthday Girls. Nullmeridian Minifestival",
    "genres": Array [],
    "links": Array [
      Object {
        "label": "Dynamo",
        "url": "https://www.dynamo.ch/event/birthday-girls",
      },
    ],
    "sourceUrl": "https://www.dynamo.ch/event/birthday-girls",
    "time": 2020-01-25 19:00 - 2020-01-26 04:00 (Europe/Zurich),
    "venueName": "Dynamo",
  },
  EventData {
    "description": "The Menzingers",
    "genres": Array [],
    "links": Array [
      Object {
        "label": "Dynamo",
        "url": "https://www.dynamo.ch/event/menzingers-0",
      },
    ],
    "sourceUrl": "https://www.dynamo.ch/event/menzingers-0",
    "time": 2020-01-29 19:30 - 2020-01-29 23:00 (Europe/Zurich),
    "venueName": "Dynamo",
  },
  EventData {
    "description": "Millencolin & Pkew Pkew Pkew",
    "genres": Array [],
    "links": Array [
      Object {
        "label": "Dynamo",
        "url": "https://www.dynamo.ch/event/millencolin-pkew-pkew-pkew",
      },
    ],
    "sourceUrl": "https://www.dynamo.ch/event/millencolin-pkew-pkew-pkew",
    "time": 2020-01-31 19:00 - 2020-01-31 23:00 (Europe/Zurich),
    "venueName": "Dynamo",
  },
  EventData {
    "description": "Double Trouble! Plattentaufen von Outlaw Radio & Done(4)",
    "genres": Array [],
    "links": Array [
      Object {
        "label": "Dynamo",
        "url": "https://www.dynamo.ch/event/double-trouble",
      },
    ],
    "sourceUrl": "https://www.dynamo.ch/event/double-trouble",
    "time": 2020-02-01 19:00 - 2020-02-01 23:30 (Europe/Zurich),
    "venueName": "Dynamo",
  },
  EventData {
    "description": "Dave Hause & Northcote",
    "genres": Array [],
    "links": Array [
      Object {
        "label": "Dynamo",
        "url": "https://www.dynamo.ch/event/dave-hause-northcote",
      },
    ],
    "sourceUrl": "https://www.dynamo.ch/event/dave-hause-northcote",
    "time": 2020-02-03 19:30 - 2020-02-03 22:45 (Europe/Zurich),
    "venueName": "Dynamo",
  },
  EventData {
    "description": "Ssio - New Venue!",
    "genres": Array [],
    "links": Array [
      Object {
        "label": "Dynamo",
        "url": "https://www.dynamo.ch/event/ssio-new-venue",
      },
    ],
    "sourceUrl": "https://www.dynamo.ch/event/ssio-new-venue",
    "time": 2020-02-07 19:00 - 2020-02-07 22:30 (Europe/Zurich),
    "venueName": "Dynamo",
  },
  EventData {
    "description": "Blackout Problems",
    "genres": Array [],
    "links": Array [
      Object {
        "label": "Dynamo",
        "url": "https://www.dynamo.ch/event/blackout-problems-0",
      },
    ],
    "sourceUrl": "https://www.dynamo.ch/event/blackout-problems-0",
    "time": 2020-02-08 20:00 (Europe/Zurich),
    "venueName": "Dynamo",
  },
  EventData {
    "description": "Hip Hop & Reggae JamSession. Presented by Hypokrat & JabaJam!",
    "genres": Array [],
    "links": Array [
      Object {
        "label": "Dynamo",
        "url": "https://www.dynamo.ch/event/hip-hop-reggae-jamsession-0",
      },
    ],
    "sourceUrl": "https://www.dynamo.ch/event/hip-hop-reggae-jamsession-0",
    "time": 2020-02-09 17:00 - 2020-02-09 22:30 (Europe/Zurich),
    "venueName": "Dynamo",
  },
  EventData {
    "description": "Monster Magnet",
    "genres": Array [],
    "links": Array [
      Object {
        "label": "Dynamo",
        "url": "https://www.dynamo.ch/event/monster-magnet-1",
      },
    ],
    "sourceUrl": "https://www.dynamo.ch/event/monster-magnet-1",
    "time": 2020-02-17 20:00 - 2020-02-17 23:00 (Europe/Zurich),
    "venueName": "Dynamo",
  },
  EventData {
    "description": "Current Swell",
    "genres": Array [],
    "links": Array [
      Object {
        "label": "Dynamo",
        "url": "https://www.dynamo.ch/event/current-swell",
      },
    ],
    "sourceUrl": "https://www.dynamo.ch/event/current-swell",
    "time": 2020-02-19 19:30 - 2020-02-19 22:30 (Europe/Zurich),
    "venueName": "Dynamo",
  },
  EventData {
    "description": "Überyou & The Run Up",
    "genres": Array [],
    "links": Array [
      Object {
        "label": "Dynamo",
        "url": "https://www.dynamo.ch/event/%C3%BCberyou-run",
      },
    ],
    "sourceUrl": "https://www.dynamo.ch/event/%C3%BCberyou-run",
    "time": 2020-02-20 19:30 - 2020-02-20 23:45 (Europe/Zurich),
    "venueName": "Dynamo",
  },
  EventData {
    "description": "Mister Misery",
    "genres": Array [],
    "links": Array [
      Object {
        "label": "Dynamo",
        "url": "https://www.dynamo.ch/event/mister-misery",
      },
    ],
    "sourceUrl": "https://www.dynamo.ch/event/mister-misery",
    "time": 2020-02-24 19:30 - 2020-02-24 23:00 (Europe/Zurich),
    "venueName": "Dynamo",
  },
  EventData {
    "description": "Broken Back (F)",
    "genres": Array [],
    "links": Array [
      Object {
        "label": "Dynamo",
        "url": "https://www.dynamo.ch/event/broken-back-f",
      },
    ],
    "sourceUrl": "https://www.dynamo.ch/event/broken-back-f",
    "time": 2020-02-27 19:00 - 2020-02-27 22:15 (Europe/Zurich),
    "venueName": "Dynamo",
  },
  EventData {
    "description": "3TEETH",
    "genres": Array [],
    "links": Array [
      Object {
        "label": "Dynamo",
        "url": "https://www.dynamo.ch/event/3teeth",
      },
    ],
    "sourceUrl": "https://www.dynamo.ch/event/3teeth",
    "time": 2020-02-27 20:00 (Europe/Zurich),
    "venueName": "Dynamo",
  },
  EventData {
    "description": "Karate Andi",
    "genres": Array [],
    "links": Array [
      Object {
        "label": "Dynamo",
        "url": "https://www.dynamo.ch/event/karate-andi-0",
      },
    ],
    "sourceUrl": "https://www.dynamo.ch/event/karate-andi-0",
    "time": 2020-02-29 19:00 - 2020-02-29 22:45 (Europe/Zurich),
    "venueName": "Dynamo",
  },
  EventData {
    "description": "Jar – Love Rocket Plattentaufe. Mit Judge Dread Memorial & Ambaroots",
    "genres": Array [],
    "links": Array [
      Object {
        "label": "Dynamo",
        "url": "https://www.dynamo.ch/event/jar-%E2%80%93-love-rocket-plattentaufe",
      },
    ],
    "sourceUrl": "https://www.dynamo.ch/event/jar-%E2%80%93-love-rocket-plattentaufe",
    "time": 2020-02-29 20:00 (Europe/Zurich),
    "venueName": "Dynamo",
  },
  EventData {
    "description": "Princess Nokia & Tkay Maidza",
    "genres": Array [],
    "links": Array [
      Object {
        "label": "Dynamo",
        "url": "https://www.dynamo.ch/event/princess-nokia-tkay-maidza",
      },
    ],
    "sourceUrl": "https://www.dynamo.ch/event/princess-nokia-tkay-maidza",
    "time": 2020-03-01 19:00 - 2020-03-01 22:30 (Europe/Zurich),
    "venueName": "Dynamo",
  },
  EventData {
    "description": "Thees Uhlmann & Band",
    "genres": Array [],
    "links": Array [
      Object {
        "label": "Dynamo",
        "url": "https://www.dynamo.ch/event/thees-uhlmann-band",
      },
    ],
    "sourceUrl": "https://www.dynamo.ch/event/thees-uhlmann-band",
    "time": 2020-03-02 19:00 - 2020-03-02 23:00 (Europe/Zurich),
    "venueName": "Dynamo",
  },
  EventData {
    "description": "Starset (US)",
    "genres": Array [],
    "links": Array [
      Object {
        "label": "Dynamo",
        "url": "https://www.dynamo.ch/event/starset-us",
      },
    ],
    "sourceUrl": "https://www.dynamo.ch/event/starset-us",
    "time": 2020-03-03 19:00 - 2020-03-03 22:30 (Europe/Zurich),
    "venueName": "Dynamo",
  },
  EventData {
    "description": "Radio Havanna. Support: Vizediktator",
    "genres": Array [],
    "links": Array [
      Object {
        "label": "Dynamo",
        "url": "https://www.dynamo.ch/event/radio-havanna",
      },
    ],
    "sourceUrl": "https://www.dynamo.ch/event/radio-havanna",
    "time": 2020-03-06 19:00 - 2020-03-06 23:30 (Europe/Zurich),
    "venueName": "Dynamo",
  },
  EventData {
    "description": "Züri Gmätzlets Vol. I",
    "genres": Array [],
    "links": Array [
      Object {
        "label": "Dynamo",
        "url": "https://www.dynamo.ch/event/z%C3%BCri-gm%C3%A4tzlets-vol-i",
      },
    ],
    "sourceUrl": "https://www.dynamo.ch/event/z%C3%BCri-gm%C3%A4tzlets-vol-i",
    "time": 2020-03-07 15:00 - 2020-03-08 01:00 (Europe/Zurich),
    "venueName": "Dynamo",
  },
  EventData {
    "description": "Bad Cop/Bad Cop & MakeWar",
    "genres": Array [],
    "links": Array [
      Object {
        "label": "Dynamo",
        "url": "https://www.dynamo.ch/event/bad-copbad-cop-makewar",
      },
    ],
    "sourceUrl": "https://www.dynamo.ch/event/bad-copbad-cop-makewar",
    "time": 2020-03-11 20:00 - 2020-03-11 23:30 (Europe/Zurich),
    "venueName": "Dynamo",
  },
  EventData {
    "description": "The Rumjacks & The Cloverhearts",
    "genres": Array [],
    "links": Array [
      Object {
        "label": "Dynamo",
        "url": "https://www.dynamo.ch/event/rumjacks-cloverhearts",
      },
    ],
    "sourceUrl": "https://www.dynamo.ch/event/rumjacks-cloverhearts",
    "time": 2020-03-12 19:00 - 2020-03-12 23:00 (Europe/Zurich),
    "venueName": "Dynamo",
  },
  EventData {
    "description": "Icon For Hire & Halflives",
    "genres": Array [],
    "links": Array [
      Object {
        "label": "Dynamo",
        "url": "https://www.dynamo.ch/event/icon-hire-halflives",
      },
    ],
    "sourceUrl": "https://www.dynamo.ch/event/icon-hire-halflives",
    "time": 2020-03-12 19:30 - 2020-03-12 22:30 (Europe/Zurich),
    "venueName": "Dynamo",
  },
  EventData {
    "description": "Kytes @Dynamo Zürich. Indie Pop",
    "genres": Array [],
    "links": Array [
      Object {
        "label": "Dynamo",
        "url": "https://www.dynamo.ch/event/kytes-dynamo-z%C3%BCrich",
      },
    ],
    "sourceUrl": "https://www.dynamo.ch/event/kytes-dynamo-z%C3%BCrich",
    "time": 2020-03-14 19:30 (Europe/Zurich),
    "venueName": "Dynamo",
  },
  EventData {
    "description": "Götz Widmann",
    "genres": Array [],
    "links": Array [
      Object {
        "label": "Dynamo",
        "url": "https://www.dynamo.ch/event/g%C3%B6tz-widmann-0",
      },
    ],
    "sourceUrl": "https://www.dynamo.ch/event/g%C3%B6tz-widmann-0",
    "time": 2020-03-17 19:30 - 2020-03-17 23:30 (Europe/Zurich),
    "venueName": "Dynamo",
  },
  EventData {
    "description": "Car Bomb",
    "genres": Array [],
    "links": Array [
      Object {
        "label": "Dynamo",
        "url": "https://www.dynamo.ch/event/car-bomb",
      },
    ],
    "sourceUrl": "https://www.dynamo.ch/event/car-bomb",
    "time": 2020-03-19 19:30 - 2020-03-19 22:45 (Europe/Zurich),
    "venueName": "Dynamo",
  },
  EventData {
    "description": "Finch Asozial. Finchi's Love Tape Tour",
    "genres": Array [],
    "links": Array [
      Object {
        "label": "Dynamo",
        "url": "https://www.dynamo.ch/event/finch-asozial",
      },
    ],
    "sourceUrl": "https://www.dynamo.ch/event/finch-asozial",
    "time": 2020-03-20 19:00 - 2020-03-20 22:45 (Europe/Zurich),
    "venueName": "Dynamo",
  },
  EventData {
    "description": "Hatari (IS)",
    "genres": Array [],
    "links": Array [
      Object {
        "label": "Dynamo",
        "url": "https://www.dynamo.ch/event/hatari",
      },
    ],
    "sourceUrl": "https://www.dynamo.ch/event/hatari",
    "time": 2020-03-23 19:00 - 2020-03-23 22:15 (Europe/Zurich),
    "venueName": "Dynamo",
  },
  EventData {
    "description": "The Mission",
    "genres": Array [],
    "links": Array [
      Object {
        "label": "Dynamo",
        "url": "https://www.dynamo.ch/event/mission",
      },
    ],
    "sourceUrl": "https://www.dynamo.ch/event/mission",
    "time": 2020-03-24 20:00 - 2020-03-25 20:00 (Europe/Zurich),
    "venueName": "Dynamo",
  },
  EventData {
    "description": "Iamddb",
    "genres": Array [],
    "links": Array [
      Object {
        "label": "Dynamo",
        "url": "https://www.dynamo.ch/event/iamddb",
      },
    ],
    "sourceUrl": "https://www.dynamo.ch/event/iamddb",
    "time": 2020-03-26 19:00 - 2020-03-26 22:30 (Europe/Zurich),
    "venueName": "Dynamo",
  },
  EventData {
    "description": "Holy Moly & The Crackers",
    "genres": Array [],
    "links": Array [
      Object {
        "label": "Dynamo",
        "url": "https://www.dynamo.ch/event/holy-moly-crackers",
      },
    ],
    "sourceUrl": "https://www.dynamo.ch/event/holy-moly-crackers",
    "time": 2020-03-26 19:30 - 2020-03-26 23:00 (Europe/Zurich),
    "venueName": "Dynamo",
  },
  EventData {
    "description": "Dub FX. Feat. Woodnote",
    "genres": Array [],
    "links": Array [
      Object {
        "label": "Dynamo",
        "url": "https://www.dynamo.ch/event/dub-fx",
      },
    ],
    "sourceUrl": "https://www.dynamo.ch/event/dub-fx",
    "time": 2020-04-02 19:00 - 2020-04-02 22:30 (Europe/Zurich),
    "venueName": "Dynamo",
  },
  EventData {
    "description": "Nova Twins",
    "genres": Array [],
    "links": Array [
      Object {
        "label": "Dynamo",
        "url": "https://www.dynamo.ch/event/nova-twins",
      },
    ],
    "sourceUrl": "https://www.dynamo.ch/event/nova-twins",
    "time": 2020-04-03 19:30 - 2020-04-03 22:45 (Europe/Zurich),
    "venueName": "Dynamo",
  },
  EventData {
    "description": "Igorrr - Spirituality & Distortion Tour 2020",
    "genres": Array [],
    "links": Array [
      Object {
        "label": "Dynamo",
        "url": "https://www.dynamo.ch/event/igorrr-spirituality-distortion-tour-2020",
      },
    ],
    "sourceUrl": "https://www.dynamo.ch/event/igorrr-spirituality-distortion-tour-2020",
    "time": 2020-04-05 19:00 (Europe/Zurich),
    "venueName": "Dynamo",
  },
  EventData {
    "description": "Mila Mar. Noxiris präsentiert",
    "genres": Array [],
    "links": Array [
      Object {
        "label": "Dynamo",
        "url": "https://www.dynamo.ch/event/mila-mar",
      },
    ],
    "sourceUrl": "https://www.dynamo.ch/event/mila-mar",
    "time": 2020-04-05 20:15 - 2020-04-05 23:45 (Europe/Zurich),
    "venueName": "Dynamo",
  },
  EventData {
    "description": "Wonk Unit",
    "genres": Array [],
    "links": Array [
      Object {
        "label": "Dynamo",
        "url": "https://www.dynamo.ch/event/wonk-unit",
      },
    ],
    "sourceUrl": "https://www.dynamo.ch/event/wonk-unit",
    "time": 2020-04-06 19:30 - 2020-04-06 23:00 (Europe/Zurich),
    "venueName": "Dynamo",
  },
  EventData {
    "description": "The Present Is Female. C'est Karma, Meimuna, Anna Erhard",
    "genres": Array [],
    "links": Array [
      Object {
        "label": "Dynamo",
        "url": "https://www.dynamo.ch/event/present-female",
      },
    ],
    "sourceUrl": "https://www.dynamo.ch/event/present-female",
    "time": 2020-04-07 19:00 - 2020-05-05 23:00 (Europe/Zurich),
    "venueName": "Dynamo",
  },
  EventData {
    "description": "Nada Surf",
    "genres": Array [],
    "links": Array [
      Object {
        "label": "Dynamo",
        "url": "https://www.dynamo.ch/event/nada-surf",
      },
    ],
    "sourceUrl": "https://www.dynamo.ch/event/nada-surf",
    "time": 2020-04-08 19:00 - 2020-04-08 23:00 (Europe/Zurich),
    "venueName": "Dynamo",
  },
  EventData {
    "description": "Beatenberg Cancelled! Abgesagt!",
    "genres": Array [],
    "links": Array [
      Object {
        "label": "Dynamo",
        "url": "https://www.dynamo.ch/event/beatenberg-cancelled-abgesagt",
      },
    ],
    "sourceUrl": "https://www.dynamo.ch/event/beatenberg-cancelled-abgesagt",
    "time": 2020-04-10 19:30 - 2020-04-10 22:30 (Europe/Zurich),
    "venueName": "Dynamo",
  },
  EventData {
    "description": "Moscow Death Brigade",
    "genres": Array [],
    "links": Array [
      Object {
        "label": "Dynamo",
        "url": "https://www.dynamo.ch/event/moscow-death-brigade",
      },
    ],
    "sourceUrl": "https://www.dynamo.ch/event/moscow-death-brigade",
    "time": 2020-04-23 19:30 - 2020-04-23 23:30 (Europe/Zurich),
    "venueName": "Dynamo",
  },
  EventData {
    "description": "Itchy & Pabst. JA Als OB -Tour",
    "genres": Array [],
    "links": Array [
      Object {
        "label": "Dynamo",
        "url": "https://www.dynamo.ch/event/itchy-pabst",
      },
    ],
    "sourceUrl": "https://www.dynamo.ch/event/itchy-pabst",
    "time": 2020-04-24 19:00 - 2020-04-24 22:45 (Europe/Zurich),
    "venueName": "Dynamo",
  },
  EventData {
    "description": "Eros AT Arms 2020",
    "genres": Array [],
    "links": Array [
      Object {
        "label": "Dynamo",
        "url": "https://www.dynamo.ch/event/eros-arms-2020",
      },
    ],
    "sourceUrl": "https://www.dynamo.ch/event/eros-arms-2020",
    "time": 2020-04-25 15:00 - 2020-04-26 02:00 (Europe/Zurich),
    "venueName": "Dynamo",
  },
  EventData {
    "description": "Hyukoh",
    "genres": Array [],
    "links": Array [
      Object {
        "label": "Dynamo",
        "url": "https://www.dynamo.ch/event/hyukoh",
      },
    ],
    "sourceUrl": "https://www.dynamo.ch/event/hyukoh",
    "time": 2020-04-30 19:00 - 2020-04-30 22:30 (Europe/Zurich),
    "venueName": "Dynamo",
  },
  EventData {
    "description": "Animal House (UK)",
    "genres": Array [],
    "links": Array [
      Object {
        "label": "Dynamo",
        "url": "https://www.dynamo.ch/event/animal-house-uk",
      },
    ],
    "sourceUrl": "https://www.dynamo.ch/event/animal-house-uk",
    "time": 2020-05-05 19:00 - 2020-05-05 23:00 (Europe/Zurich),
    "venueName": "Dynamo",
  },
  EventData {
    "description": "Beans On Toast & William Crighton. Only Swiss Show",
    "genres": Array [],
    "links": Array [
      Object {
        "label": "Dynamo",
        "url": "https://www.dynamo.ch/event/beans-toast-william-crighton",
      },
    ],
    "sourceUrl": "https://www.dynamo.ch/event/beans-toast-william-crighton",
    "time": 2020-05-13 20:00 - 2020-05-13 23:30 (Europe/Zurich),
    "venueName": "Dynamo",
  },
  EventData {
    "description": "Hockey Dad",
    "genres": Array [],
    "links": Array [
      Object {
        "label": "Dynamo",
        "url": "https://www.dynamo.ch/event/hockey-dad",
      },
    ],
    "sourceUrl": "https://www.dynamo.ch/event/hockey-dad",
    "time": 2020-05-14 19:30 - 2020-05-14 22:45 (Europe/Zurich),
    "venueName": "Dynamo",
  },
  EventData {
    "description": "Biff Byford",
    "genres": Array [],
    "links": Array [
      Object {
        "label": "Dynamo",
        "url": "https://www.dynamo.ch/event/biff-byford",
      },
    ],
    "sourceUrl": "https://www.dynamo.ch/event/biff-byford",
    "time": 2020-05-14 20:00 (Europe/Zurich),
    "venueName": "Dynamo",
  },
  EventData {
    "description": "Conception",
    "genres": Array [],
    "links": Array [
      Object {
        "label": "Dynamo",
        "url": "https://www.dynamo.ch/event/conception-0",
      },
    ],
    "sourceUrl": "https://www.dynamo.ch/event/conception-0",
    "time": 2020-05-17 19:00 (Europe/Zurich),
    "venueName": "Dynamo",
  },
  EventData {
    "description": "Larkin Poe",
    "genres": Array [],
    "links": Array [
      Object {
        "label": "Dynamo",
        "url": "https://www.dynamo.ch/event/larkin-poe",
      },
    ],
    "sourceUrl": "https://www.dynamo.ch/event/larkin-poe",
    "time": 2020-05-20 19:00 - 2020-05-20 22:45 (Europe/Zurich),
    "venueName": "Dynamo",
  },
  EventData {
    "description": "Meadows",
    "genres": Array [],
    "links": Array [
      Object {
        "label": "Dynamo",
        "url": "https://www.dynamo.ch/event/meadows-0",
      },
    ],
    "sourceUrl": "https://www.dynamo.ch/event/meadows-0",
    "time": 2020-05-27 19:30 - 2020-05-27 23:00 (Europe/Zurich),
    "venueName": "Dynamo",
  },
  EventData {
    "description": "DJ Erebos' Dirty Thirty. Nicht nur 30 Lebensjahre, sondern auch gleich 10 Jahre DJ Erebos",
    "genres": Array [],
    "links": Array [
      Object {
        "label": "Dynamo",
        "url": "https://www.dynamo.ch/event/dj-erebos-dirty-thirty",
      },
    ],
    "sourceUrl": "https://www.dynamo.ch/event/dj-erebos-dirty-thirty",
    "time": 2020-06-06 19:00 - 2020-06-07 04:00 (Europe/Zurich),
    "venueName": "Dynamo",
  },
  EventData {
    "description": "Black eleven presents: Beborn Beton / Rroyce / System Noire. Anschliessend Schwarze Tanznacht mit DJ LoR / DJ Doug (Bunker Dresden)",
    "genres": Array [],
    "links": Array [
      Object {
        "label": "Dynamo",
        "url": "https://www.dynamo.ch/event/black-eleven-presents-beborn-beton-rroyce-system-noire",
      },
    ],
    "sourceUrl": "https://www.dynamo.ch/event/black-eleven-presents-beborn-beton-rroyce-system-noire",
    "time": 2020-06-20 20:00 - 2020-06-21 04:00 (Europe/Zurich),
    "venueName": "Dynamo",
  },
  EventData {
    "description": "Get Dead",
    "genres": Array [],
    "links": Array [
      Object {
        "label": "Dynamo",
        "url": "https://www.dynamo.ch/event/get-dead",
      },
    ],
    "sourceUrl": "https://www.dynamo.ch/event/get-dead",
    "time": 2020-07-28 20:00 - 2020-07-28 23:30 (Europe/Zurich),
    "venueName": "Dynamo",
  },
  EventData {
    "description": "Soman in Konzert. + Seelenmassakerparty",
    "genres": Array [],
    "links": Array [
      Object {
        "label": "Dynamo",
        "url": "https://www.dynamo.ch/event/soman-konzert",
      },
    ],
    "sourceUrl": "https://www.dynamo.ch/event/soman-konzert",
    "time": 2020-08-29 22:00 - 2020-08-30 04:00 (Europe/Zurich),
    "venueName": "Dynamo",
  },
  EventData {
    "description": "Richie Kotzen",
    "genres": Array [],
    "links": Array [
      Object {
        "label": "Dynamo",
        "url": "https://www.dynamo.ch/event/richie-kotzen-1",
      },
    ],
    "sourceUrl": "https://www.dynamo.ch/event/richie-kotzen-1",
    "time": 2020-09-22 20:00 (Europe/Zurich),
    "venueName": "Dynamo",
  },
  EventData {
    "description": "Noah Levi. Jung und auf grosser Tour 2020",
    "genres": Array [],
    "links": Array [
      Object {
        "label": "Dynamo",
        "url": "https://www.dynamo.ch/event/noah-levi",
      },
    ],
    "sourceUrl": "https://www.dynamo.ch/event/noah-levi",
    "time": 2020-10-01 19:00 - 2020-10-01 22:00 (Europe/Zurich),
    "venueName": "Dynamo",
  },
  EventData {
    "description": "Vega",
    "genres": Array [],
    "links": Array [
      Object {
        "label": "Dynamo",
        "url": "https://www.dynamo.ch/event/vega",
      },
    ],
    "sourceUrl": "https://www.dynamo.ch/event/vega",
    "time": 2020-10-02 19:30 - 2020-10-02 22:45 (Europe/Zurich),
    "venueName": "Dynamo",
  },
  EventData {
    "description": "Bhz",
    "genres": Array [],
    "links": Array [
      Object {
        "label": "Dynamo",
        "url": "https://www.dynamo.ch/event/bhz",
      },
    ],
    "sourceUrl": "https://www.dynamo.ch/event/bhz",
    "time": 2020-11-13 19:00 - 2020-11-13 22:45 (Europe/Zurich),
    "venueName": "Dynamo",
  },
  EventData {
    "description": "Dritte Wahl - 3D Tournee 2020",
    "genres": Array [],
    "links": Array [
      Object {
        "label": "Dynamo",
        "url": "https://www.dynamo.ch/event/dritte-wahl-3d-tournee-2020",
      },
    ],
    "sourceUrl": "https://www.dynamo.ch/event/dritte-wahl-3d-tournee-2020",
    "time": 2020-11-27 20:00 (Europe/Zurich),
    "venueName": "Dynamo",
  },
  EventData {
    "description": "Lugatti & 9Ine",
    "genres": Array [],
    "links": Array [
      Object {
        "label": "Dynamo",
        "url": "https://www.dynamo.ch/event/lugatti-9ine",
      },
    ],
    "sourceUrl": "https://www.dynamo.ch/event/lugatti-9ine",
    "time": 2020-11-29 19:30 - 2020-11-29 22:45 (Europe/Zurich),
    "venueName": "Dynamo",
  },
  EventData {
    "description": "Drum and Dance Session 9. Live Music Drumcircle Dance Bar Love Jam",
    "genres": Array [],
    "links": Array [
      Object {
        "label": "Dynamo",
        "url": "https://www.dynamo.ch/event/drum-and-dance-session-9",
      },
    ],
    "sourceUrl": "https://www.dynamo.ch/event/drum-and-dance-session-9",
    "time": 2020-01-26 17:00 - 2020-01-26 22:30 (Europe/Zurich),
    "venueName": "Dynamo",
  },
  EventData {
    "description": "King Kong. Lgbt* and Friends Party",
    "genres": Array [],
    "links": Array [
      Object {
        "label": "Dynamo",
        "url": "https://www.dynamo.ch/event/king-kong",
      },
    ],
    "sourceUrl": "https://www.dynamo.ch/event/king-kong",
    "time": 2020-02-01 22:00 (Europe/Zurich),
    "venueName": "Dynamo",
  },
  EventData {
    "description": "Drum and Dance Session 10!! Jubiläumsparty! Drum Circle Dance Celebration",
    "genres": Array [],
    "links": Array [
      Object {
        "label": "Dynamo",
        "url": "https://www.dynamo.ch/event/drum-and-dance-session-10",
      },
    ],
    "sourceUrl": "https://www.dynamo.ch/event/drum-and-dance-session-10",
    "time": 2020-02-23 17:00 - 2020-02-23 22:30 (Europe/Zurich),
    "venueName": "Dynamo",
  },
  EventData {
    "description": "Meh Suff! 90s Party",
    "genres": Array [],
    "links": Array [
      Object {
        "label": "Dynamo",
        "url": "https://www.dynamo.ch/event/meh-suff-90s-party-0",
      },
    ],
    "sourceUrl": "https://www.dynamo.ch/event/meh-suff-90s-party-0",
    "time": 2020-03-07 23:45 - 2020-03-08 06:00 (Europe/Zurich),
    "venueName": "Dynamo",
  },
  EventData {
    "description": "Seelenmassakerparty",
    "genres": Array [],
    "links": Array [
      Object {
        "label": "Dynamo",
        "url": "https://www.dynamo.ch/event/seelenmassakerparty-12",
      },
    ],
    "sourceUrl": "https://www.dynamo.ch/event/seelenmassakerparty-12",
    "time": 2020-05-16 22:00 - 2020-05-17 04:00 (Europe/Zurich),
    "venueName": "Dynamo",
  },
  EventData {
    "description": "Seelenmassakerparty",
    "genres": Array [],
    "links": Array [
      Object {
        "label": "Dynamo",
        "url": "https://www.dynamo.ch/event/seelenmassakerparty-13",
      },
    ],
    "sourceUrl": "https://www.dynamo.ch/event/seelenmassakerparty-13",
    "time": 2020-10-10 22:00 - 2020-10-11 04:00 (Europe/Zurich),
    "venueName": "Dynamo",
  },
]
`;
