// Jest Snapshot v1, https://goo.gl/fbAQLP

exports[`Plaza plaza-2020-01-24 1`] = `
Array [
  EventData {
    "description": "The Open Mic Show",
    "genres": Array [],
    "links": Array [],
    "sourceUrl": "https://www.plaza-zurich.ch/nu/events/event_list_type/2",
    "time": 2020-01-29 19:30 (Europe/Zurich),
    "venueName": "Plaza",
  },
  EventData {
    "description": "Ohh! La La! Chérie! Burlesque Striptease Show",
    "genres": Array [],
    "links": Array [],
    "sourceUrl": "https://www.plaza-zurich.ch/nu/events/event_list_type/2",
    "time": 2020-02-01 19:00 (Europe/Zurich),
    "venueName": "Plaza",
  },
  EventData {
    "description": "Pouya (Usa)",
    "genres": Array [],
    "links": Array [],
    "sourceUrl": "https://www.plaza-zurich.ch/nu/events/event_list_type/2",
    "time": 2020-02-14 19:00 (Europe/Zurich),
    "venueName": "Plaza",
  },
  EventData {
    "description": "Tarek K.I.Z (DE)",
    "genres": Array [],
    "links": Array [],
    "sourceUrl": "https://www.plaza-zurich.ch/nu/events/event_list_type/2",
    "time": 2020-02-16 18:30 (Europe/Zurich),
    "venueName": "Plaza",
  },
  EventData {
    "description": "Mabel (UK)",
    "genres": Array [],
    "links": Array [],
    "sourceUrl": "https://www.plaza-zurich.ch/nu/events/event_list_type/2",
    "time": 2020-02-25 19:00 (Europe/Zurich),
    "venueName": "Plaza",
  },
  EventData {
    "description": "The Open Mic Show",
    "genres": Array [],
    "links": Array [],
    "sourceUrl": "https://www.plaza-zurich.ch/nu/events/event_list_type/2",
    "time": 2020-02-26 19:30 (Europe/Zurich),
    "venueName": "Plaza",
  },
  EventData {
    "description": "Story + Party",
    "genres": Array [],
    "links": Array [],
    "sourceUrl": "https://www.plaza-zurich.ch/nu/events/event_list_type/2",
    "time": 2020-02-28 19:00 (Europe/Zurich),
    "venueName": "Plaza",
  },
  EventData {
    "description": "Story + Party",
    "genres": Array [],
    "links": Array [],
    "sourceUrl": "https://www.plaza-zurich.ch/nu/events/event_list_type/2",
    "time": 2020-02-29 19:00 (Europe/Zurich),
    "venueName": "Plaza",
  },
  EventData {
    "description": "Seafret (UK)",
    "genres": Array [],
    "links": Array [],
    "sourceUrl": "https://www.plaza-zurich.ch/nu/events/event_list_type/2",
    "time": 2020-03-03 19:00 (Europe/Zurich),
    "venueName": "Plaza",
  },
  EventData {
    "description": "Ausverkauft / Kafi am Freitag",
    "genres": Array [],
    "links": Array [],
    "sourceUrl": "https://www.plaza-zurich.ch/nu/events/event_list_type/2",
    "time": 2020-03-04 19:30 (Europe/Zurich),
    "venueName": "Plaza",
  },
  EventData {
    "description": "Ohh! La La! Chérie! Burlesque Striptease Show",
    "genres": Array [],
    "links": Array [],
    "sourceUrl": "https://www.plaza-zurich.ch/nu/events/event_list_type/2",
    "time": 2020-03-07 19:00 (Europe/Zurich),
    "venueName": "Plaza",
  },
  EventData {
    "description": "Abgesagt / Jade Bird (UK)",
    "genres": Array [],
    "links": Array [],
    "sourceUrl": "https://www.plaza-zurich.ch/nu/events/event_list_type/2",
    "time": 2020-03-13 19:00 (Europe/Zurich),
    "venueName": "Plaza",
  },
  EventData {
    "description": "Palaye Royale (Can)",
    "genres": Array [],
    "links": Array [],
    "sourceUrl": "https://www.plaza-zurich.ch/nu/events/event_list_type/2",
    "time": 2020-03-17 19:00 (Europe/Zurich),
    "venueName": "Plaza",
  },
  EventData {
    "description": "Max Mutzke (DE) & monoPunk",
    "genres": Array [],
    "links": Array [],
    "sourceUrl": "https://www.plaza-zurich.ch/nu/events/event_list_type/2",
    "time": 2020-03-20 19:00 (Europe/Zurich),
    "venueName": "Plaza",
  },
  EventData {
    "description": "The Open Mic Show",
    "genres": Array [],
    "links": Array [],
    "sourceUrl": "https://www.plaza-zurich.ch/nu/events/event_list_type/2",
    "time": 2020-03-25 19:30 (Europe/Zurich),
    "venueName": "Plaza",
  },
  EventData {
    "description": "Poppy (Usa)",
    "genres": Array [],
    "links": Array [],
    "sourceUrl": "https://www.plaza-zurich.ch/nu/events/event_list_type/2",
    "time": 2020-03-27 19:00 (Europe/Zurich),
    "venueName": "Plaza",
  },
  EventData {
    "description": "Ohh! La La! Chérie! Burlesque Striptease Show",
    "genres": Array [],
    "links": Array [],
    "sourceUrl": "https://www.plaza-zurich.ch/nu/events/event_list_type/2",
    "time": 2020-04-04 19:00 (Europe/Zurich),
    "venueName": "Plaza",
  },
  EventData {
    "description": "Destroyer (Can)",
    "genres": Array [],
    "links": Array [],
    "sourceUrl": "https://www.plaza-zurich.ch/nu/events/event_list_type/2",
    "time": 2020-04-19 19:00 (Europe/Zurich),
    "venueName": "Plaza",
  },
  EventData {
    "description": "The Open Mic Show",
    "genres": Array [],
    "links": Array [],
    "sourceUrl": "https://www.plaza-zurich.ch/nu/events/event_list_type/2",
    "time": 2020-04-29 19:30 (Europe/Zurich),
    "venueName": "Plaza",
  },
  EventData {
    "description": "Deathstars (Swe)",
    "genres": Array [],
    "links": Array [],
    "sourceUrl": "https://www.plaza-zurich.ch/nu/events/event_list_type/2",
    "time": 2020-05-11 19:00 (Europe/Zurich),
    "venueName": "Plaza",
  },
  EventData {
    "description": "The Open Mic Show",
    "genres": Array [],
    "links": Array [],
    "sourceUrl": "https://www.plaza-zurich.ch/nu/events/event_list_type/2",
    "time": 2020-05-27 19:30 (Europe/Zurich),
    "venueName": "Plaza",
  },
]
`;

exports[`Plaza plaza-2020-02-11 1`] = `
Array [
  EventData {
    "description": "Pouya (Usa)",
    "genres": Array [],
    "links": Array [],
    "sourceUrl": "https://www.plaza-zurich.ch/nu/events/event_list_type/2",
    "time": 2020-02-14 19:00 (Europe/Zurich),
    "venueName": "Plaza",
  },
  EventData {
    "description": "Tarek K.I.Z (DE)",
    "genres": Array [],
    "links": Array [],
    "sourceUrl": "https://www.plaza-zurich.ch/nu/events/event_list_type/2",
    "time": 2020-02-16 18:30 (Europe/Zurich),
    "venueName": "Plaza",
  },
  EventData {
    "description": "Mabel (UK) Sold Out",
    "genres": Array [],
    "links": Array [],
    "sourceUrl": "https://www.plaza-zurich.ch/nu/events/event_list_type/2",
    "time": 2020-02-25 19:00 (Europe/Zurich),
    "venueName": "Plaza",
  },
  EventData {
    "description": "The Open Mic Show",
    "genres": Array [],
    "links": Array [],
    "sourceUrl": "https://www.plaza-zurich.ch/nu/events/event_list_type/2",
    "time": 2020-02-26 19:30 (Europe/Zurich),
    "venueName": "Plaza",
  },
  EventData {
    "description": "Story + Party",
    "genres": Array [],
    "links": Array [],
    "sourceUrl": "https://www.plaza-zurich.ch/nu/events/event_list_type/2",
    "time": 2020-02-28 19:00 (Europe/Zurich),
    "venueName": "Plaza",
  },
  EventData {
    "description": "Story + Party",
    "genres": Array [],
    "links": Array [],
    "sourceUrl": "https://www.plaza-zurich.ch/nu/events/event_list_type/2",
    "time": 2020-02-29 19:00 (Europe/Zurich),
    "venueName": "Plaza",
  },
  EventData {
    "description": "Seafret (UK)",
    "genres": Array [],
    "links": Array [],
    "sourceUrl": "https://www.plaza-zurich.ch/nu/events/event_list_type/2",
    "time": 2020-03-03 19:00 (Europe/Zurich),
    "venueName": "Plaza",
  },
  EventData {
    "description": "Ausverkauft / Kafi am Freitag",
    "genres": Array [],
    "links": Array [],
    "sourceUrl": "https://www.plaza-zurich.ch/nu/events/event_list_type/2",
    "time": 2020-03-04 19:30 (Europe/Zurich),
    "venueName": "Plaza",
  },
  EventData {
    "description": "Ohh! La La! Chérie! Burlesque Striptease Show",
    "genres": Array [],
    "links": Array [],
    "sourceUrl": "https://www.plaza-zurich.ch/nu/events/event_list_type/2",
    "time": 2020-03-07 19:00 (Europe/Zurich),
    "venueName": "Plaza",
  },
  EventData {
    "description": "Katya (Usa)",
    "genres": Array [],
    "links": Array [],
    "sourceUrl": "https://www.plaza-zurich.ch/nu/events/event_list_type/2",
    "time": 2020-03-08 19:00 (Europe/Zurich),
    "venueName": "Plaza",
  },
  EventData {
    "description": "Abgesagt / Jade Bird (UK)",
    "genres": Array [],
    "links": Array [],
    "sourceUrl": "https://www.plaza-zurich.ch/nu/events/event_list_type/2",
    "time": 2020-03-13 19:00 (Europe/Zurich),
    "venueName": "Plaza",
  },
  EventData {
    "description": "Palaye Royale (Can)",
    "genres": Array [],
    "links": Array [],
    "sourceUrl": "https://www.plaza-zurich.ch/nu/events/event_list_type/2",
    "time": 2020-03-17 19:00 (Europe/Zurich),
    "venueName": "Plaza",
  },
  EventData {
    "description": "Max Mutzke (DE) & monoPunk",
    "genres": Array [],
    "links": Array [],
    "sourceUrl": "https://www.plaza-zurich.ch/nu/events/event_list_type/2",
    "time": 2020-03-20 19:00 (Europe/Zurich),
    "venueName": "Plaza",
  },
  EventData {
    "description": "The Open Mic Show",
    "genres": Array [],
    "links": Array [],
    "sourceUrl": "https://www.plaza-zurich.ch/nu/events/event_list_type/2",
    "time": 2020-03-25 19:30 (Europe/Zurich),
    "venueName": "Plaza",
  },
  EventData {
    "description": "Poppy (Usa)",
    "genres": Array [],
    "links": Array [],
    "sourceUrl": "https://www.plaza-zurich.ch/nu/events/event_list_type/2",
    "time": 2020-03-27 19:00 (Europe/Zurich),
    "venueName": "Plaza",
  },
  EventData {
    "description": "Ohh! La La! Chérie! Burlesque Striptease Show",
    "genres": Array [],
    "links": Array [],
    "sourceUrl": "https://www.plaza-zurich.ch/nu/events/event_list_type/2",
    "time": 2020-04-04 19:00 (Europe/Zurich),
    "venueName": "Plaza",
  },
  EventData {
    "description": "Destroyer (Can)",
    "genres": Array [],
    "links": Array [],
    "sourceUrl": "https://www.plaza-zurich.ch/nu/events/event_list_type/2",
    "time": 2020-04-19 19:00 (Europe/Zurich),
    "venueName": "Plaza",
  },
  EventData {
    "description": "The Open Mic Show",
    "genres": Array [],
    "links": Array [],
    "sourceUrl": "https://www.plaza-zurich.ch/nu/events/event_list_type/2",
    "time": 2020-04-29 19:30 (Europe/Zurich),
    "venueName": "Plaza",
  },
  EventData {
    "description": "Like A Storm & Devilskin (NZ)",
    "genres": Array [],
    "links": Array [],
    "sourceUrl": "https://www.plaza-zurich.ch/nu/events/event_list_type/2",
    "time": 2020-05-01 18:30 (Europe/Zurich),
    "venueName": "Plaza",
  },
  EventData {
    "description": "God Is An Astronaut (Irl)",
    "genres": Array [],
    "links": Array [],
    "sourceUrl": "https://www.plaza-zurich.ch/nu/events/event_list_type/2",
    "time": 2020-05-04 19:00 (Europe/Zurich),
    "venueName": "Plaza",
  },
  EventData {
    "description": "Kafi am Freitag",
    "genres": Array [],
    "links": Array [],
    "sourceUrl": "https://www.plaza-zurich.ch/nu/events/event_list_type/2",
    "time": 2020-05-06 19:30 (Europe/Zurich),
    "venueName": "Plaza",
  },
  EventData {
    "description": "Deathstars (Swe)",
    "genres": Array [],
    "links": Array [],
    "sourceUrl": "https://www.plaza-zurich.ch/nu/events/event_list_type/2",
    "time": 2020-05-11 19:00 (Europe/Zurich),
    "venueName": "Plaza",
  },
  EventData {
    "description": "The Open Mic Show",
    "genres": Array [],
    "links": Array [],
    "sourceUrl": "https://www.plaza-zurich.ch/nu/events/event_list_type/2",
    "time": 2020-05-27 19:30 (Europe/Zurich),
    "venueName": "Plaza",
  },
]
`;

exports[`Plaza plaza-2022-11-17 1`] = `
Array [
  EventData {
    "description": "Plaza Club meets Stand Up! Comedy",
    "genres": Array [],
    "links": Array [],
    "sourceUrl": "https://www.plaza-zurich.ch/nu/events/event_list_type/2",
    "time": 2022-11-17 18:30 (Europe/Zurich),
    "venueName": "Plaza",
  },
  EventData {
    "description": "JP Cooper (UK)",
    "genres": Array [],
    "links": Array [],
    "sourceUrl": "https://www.plaza-zurich.ch/nu/events/event_list_type/2",
    "time": 2022-11-19 19:00 (Europe/Zurich),
    "venueName": "Plaza",
  },
  EventData {
    "description": "Abgesagt / Kyary Pamyu Pamyu (JP)",
    "genres": Array [],
    "links": Array [],
    "sourceUrl": "https://www.plaza-zurich.ch/nu/events/event_list_type/2",
    "time": 2022-11-20 19:00 (Europe/Zurich),
    "venueName": "Plaza",
  },
  EventData {
    "description": "Zurich Pride Podcast ON Tour",
    "genres": Array [],
    "links": Array [],
    "sourceUrl": "https://www.plaza-zurich.ch/nu/events/event_list_type/2",
    "time": 2022-11-23 19:00 (Europe/Zurich),
    "venueName": "Plaza",
  },
  EventData {
    "description": "Julia Jacklin (Aus)",
    "genres": Array [],
    "links": Array [],
    "sourceUrl": "https://www.plaza-zurich.ch/nu/events/event_list_type/2",
    "time": 2022-11-26 19:00 (Europe/Zurich),
    "venueName": "Plaza",
  },
  EventData {
    "description": "Oscar and the Wolf (B)",
    "genres": Array [],
    "links": Array [],
    "sourceUrl": "https://www.plaza-zurich.ch/nu/events/event_list_type/2",
    "time": 2022-11-29 19:00 (Europe/Zurich),
    "venueName": "Plaza",
  },
  EventData {
    "description": "The Open Mic Show",
    "genres": Array [],
    "links": Array [],
    "sourceUrl": "https://www.plaza-zurich.ch/nu/events/event_list_type/2",
    "time": 2022-11-30 19:30 (Europe/Zurich),
    "venueName": "Plaza",
  },
  EventData {
    "description": "Plaza Club meets Stand Up! Comedy",
    "genres": Array [],
    "links": Array [],
    "sourceUrl": "https://www.plaza-zurich.ch/nu/events/event_list_type/2",
    "time": 2022-12-01 18:30 (Europe/Zurich),
    "venueName": "Plaza",
  },
  EventData {
    "description": "Sold out / Ohh! La La! Chérie! Burlesque Striptease Show",
    "genres": Array [],
    "links": Array [],
    "sourceUrl": "https://www.plaza-zurich.ch/nu/events/event_list_type/2",
    "time": 2022-12-03 19:00 (Europe/Zurich),
    "venueName": "Plaza",
  },
  EventData {
    "description": "Badflower (Usa)",
    "genres": Array [],
    "links": Array [],
    "sourceUrl": "https://www.plaza-zurich.ch/nu/events/event_list_type/2",
    "time": 2022-12-14 19:00 (Europe/Zurich),
    "venueName": "Plaza",
  },
  EventData {
    "description": "The Open Mic Show",
    "genres": Array [],
    "links": Array [],
    "sourceUrl": "https://www.plaza-zurich.ch/nu/events/event_list_type/2",
    "time": 2022-12-21 19:30 (Europe/Zurich),
    "venueName": "Plaza",
  },
  EventData {
    "description": "Ohh! La La! Chérie! Burlesque Striptease Show",
    "genres": Array [],
    "links": Array [],
    "sourceUrl": "https://www.plaza-zurich.ch/nu/events/event_list_type/2",
    "time": 2023-01-07 19:00 (Europe/Zurich),
    "venueName": "Plaza",
  },
  EventData {
    "description": "Abgesagt / Deathstars (Swe)",
    "genres": Array [],
    "links": Array [],
    "sourceUrl": "https://www.plaza-zurich.ch/nu/events/event_list_type/2",
    "time": 2023-01-29 19:00 (Europe/Zurich),
    "venueName": "Plaza",
  },
  EventData {
    "description": "Plaza Club meets Stand Up! Comedy",
    "genres": Array [],
    "links": Array [],
    "sourceUrl": "https://www.plaza-zurich.ch/nu/events/event_list_type/2",
    "time": 2023-02-02 18:30 (Europe/Zurich),
    "venueName": "Plaza",
  },
  EventData {
    "description": "Sam Himself (CH)",
    "genres": Array [],
    "links": Array [],
    "sourceUrl": "https://www.plaza-zurich.ch/nu/events/event_list_type/2",
    "time": 2023-02-15 19:00 (Europe/Zurich),
    "venueName": "Plaza",
  },
  EventData {
    "description": "Bad Omens (Usa)",
    "genres": Array [],
    "links": Array [],
    "sourceUrl": "https://www.plaza-zurich.ch/nu/events/event_list_type/2",
    "time": 2023-02-17 19:00 (Europe/Zurich),
    "venueName": "Plaza",
  },
  EventData {
    "description": "MoTrip (DE)",
    "genres": Array [],
    "links": Array [],
    "sourceUrl": "https://www.plaza-zurich.ch/nu/events/event_list_type/2",
    "time": 2023-02-21 19:00 (Europe/Zurich),
    "venueName": "Plaza",
  },
  EventData {
    "description": "The Backseat Lovers (Usa)",
    "genres": Array [],
    "links": Array [],
    "sourceUrl": "https://www.plaza-zurich.ch/nu/events/event_list_type/2",
    "time": 2023-02-28 19:00 (Europe/Zurich),
    "venueName": "Plaza",
  },
  EventData {
    "description": "Kerala Dust (CH/UK)",
    "genres": Array [],
    "links": Array [],
    "sourceUrl": "https://www.plaza-zurich.ch/nu/events/event_list_type/2",
    "time": 2023-03-12 19:00 (Europe/Zurich),
    "venueName": "Plaza",
  },
  EventData {
    "description": "Mimi Webb (UK)",
    "genres": Array [],
    "links": Array [],
    "sourceUrl": "https://www.plaza-zurich.ch/nu/events/event_list_type/2",
    "time": 2023-03-14 19:00 (Europe/Zurich),
    "venueName": "Plaza",
  },
  EventData {
    "description": "Shame (UK)",
    "genres": Array [],
    "links": Array [],
    "sourceUrl": "https://www.plaza-zurich.ch/nu/events/event_list_type/2",
    "time": 2023-03-24 19:00 (Europe/Zurich),
    "venueName": "Plaza",
  },
  EventData {
    "description": "The Answer (Irl)",
    "genres": Array [],
    "links": Array [],
    "sourceUrl": "https://www.plaza-zurich.ch/nu/events/event_list_type/2",
    "time": 2023-04-02 19:00 (Europe/Zurich),
    "venueName": "Plaza",
  },
  EventData {
    "description": "Welshly Arms (Usa)",
    "genres": Array [],
    "links": Array [],
    "sourceUrl": "https://www.plaza-zurich.ch/nu/events/event_list_type/2",
    "time": 2023-04-15 19:00 (Europe/Zurich),
    "venueName": "Plaza",
  },
  EventData {
    "description": "Elif (DE)",
    "genres": Array [],
    "links": Array [],
    "sourceUrl": "https://www.plaza-zurich.ch/nu/events/event_list_type/2",
    "time": 2023-04-21 19:00 (Europe/Zurich),
    "venueName": "Plaza",
  },
  EventData {
    "description": "Zak Abel (UK)",
    "genres": Array [],
    "links": Array [],
    "sourceUrl": "https://www.plaza-zurich.ch/nu/events/event_list_type/2",
    "time": 2023-05-14 19:00 (Europe/Zurich),
    "venueName": "Plaza",
  },
  EventData {
    "description": "Uncle Acid & the Deadbeats (UK)",
    "genres": Array [],
    "links": Array [],
    "sourceUrl": "https://www.plaza-zurich.ch/nu/events/event_list_type/2",
    "time": 2023-05-15 19:00 (Europe/Zurich),
    "venueName": "Plaza",
  },
]
`;
