// Jest Snapshot v1, https://goo.gl/fbAQLP

exports[`squatradar squatradar-2020-06-06 1`] = `
Array [
  EventData {
    "description": "Pause",
    "genres": Array [],
    "links": Array [],
    "sourceUrl": "https://radar.squat.net/en/node/363983",
    "time": 2020-04-30 23:55 (Europe/Zurich),
    "venueName": "Koch Areal",
  },
  EventData {
    "description": "Boschbar",
    "genres": Array [],
    "links": Array [],
    "sourceUrl": "https://radar.squat.net/en/node/343975",
    "time": 2020-06-08 22:00 (Europe/Zurich),
    "venueName": "Provitreff",
  },
  EventData {
    "description": "Boschbar",
    "genres": Array [],
    "links": Array [],
    "sourceUrl": "https://radar.squat.net/en/node/343976",
    "time": 2020-06-15 22:00 (Europe/Zurich),
    "venueName": "Provitreff",
  },
  EventData {
    "description": "Boschbar",
    "genres": Array [],
    "links": Array [],
    "sourceUrl": "https://radar.squat.net/en/node/343977",
    "time": 2020-06-22 22:00 (Europe/Zurich),
    "venueName": "Provitreff",
  },
  EventData {
    "description": "Boschbar",
    "genres": Array [],
    "links": Array [],
    "sourceUrl": "https://radar.squat.net/en/node/343978",
    "time": 2020-06-29 22:00 (Europe/Zurich),
    "venueName": "Provitreff",
  },
  EventData {
    "description": "Boschbar",
    "genres": Array [],
    "links": Array [],
    "sourceUrl": "https://radar.squat.net/en/node/343979",
    "time": 2020-07-06 22:00 (Europe/Zurich),
    "venueName": "Provitreff",
  },
  EventData {
    "description": "Boschbar: Las Manos de Filippi & Anarkia Tropikal & DJ Old Monk",
    "genres": Array [],
    "links": Array [],
    "sourceUrl": "https://radar.squat.net/en/node/343980",
    "time": 2020-07-13 22:00 (Europe/Zurich),
    "venueName": "Provitreff",
  },
  EventData {
    "description": "Boschbar",
    "genres": Array [],
    "links": Array [],
    "sourceUrl": "https://radar.squat.net/en/node/343981",
    "time": 2020-07-20 22:00 (Europe/Zurich),
    "venueName": "Provitreff",
  },
  EventData {
    "description": "Boschbar",
    "genres": Array [],
    "links": Array [],
    "sourceUrl": "https://radar.squat.net/en/node/343982",
    "time": 2020-07-27 22:00 (Europe/Zurich),
    "venueName": "Provitreff",
  },
]
`;
