[
    {
        "scope": "https://www.renee.ch:443",
        "method": "GET",
        "path": "/",
        "body": "",
        "status": 200,
        "response": "<!doctype html>\n<html lang=\"en\">\n  <head>\n    <title>RENÉE</title>\n    <meta name=\"description\" content=\"All night long. Second best place after Agora Bar. Live music, bar and food. Open till late.\">\n    <meta name=\"keywords\" content=\"renee, live music, drinks, food, jazz, blues, rock&#39;n&#39;roll, klybeck, manhattan, brooklyn, drappier, moutard\">\n    <meta name=\"viewport\" content=\"width=device-width, initial-scale=1\">\n    <link rel=\"stylesheet\" href=\"/main.4d2a7583.css\">\n    <script>(function (i, s, o, g, r, a, m) {\n  i['GoogleAnalyticsObject'] = r;\n  i[r] = i[r] || function () {\n    (i[r].q = i[r].q || []).push(arguments);\n  }, i[r].l = 1 * new Date();\n  a = s.createElement(o), m = s.getElementsByTagName(o)[0];\n  a.async = 1;\n  a.src = g;\n  m.parentNode.insertBefore(a, m);\n})(window, document, 'script', 'https://www.google-analytics.com/analytics.js', 'ga');\n\nga('create', 'UA-77077711-1', 'auto');\nga('send', 'pageview');</script>\n  <meta name=\"msapplication-config\" content=\"/browserconfig.xml\"><meta name=\"theme-color\" content=\"#000000\"><link rel=\"icon\" sizes=\"32x32\" href=\"/favicon-32x32.b712b2e0.png\"><link rel=\"icon\" sizes=\"16x16\" href=\"/favicon-16x16.febfc15f.png\"><link rel=\"apple-touch-icon\" sizes=\"180x180\" href=\"/apple-touch-icon.567a1feb.png\"><link rel=\"manifest\" href=\"/manifest.webmanifest\"></head>\n  <body>\n    \n  <header id=\"header\" class=\"slide\">\n    <nav id=\"renee-menu\">\n  <a href=\"https://www.renee.ch/\" class=\"renee-menu--entry active\">RENÉE</a>\n  <a href=\"https://www.reneeathome.ch/\" class=\"renee-menu--entry\">RENÉE@home</a>\n  <a href=\"https://www.renee.fm/\" class=\"renee-menu--entry\">RENÉE.fm</a>\n  <a href=\"https://www.reneeculture.club/\" class=\"renee-menu--entry\">RENÉE Culture Club</a>\n</nav>\n\n\n    <div class=\"logo\">\n      <img src=\"/logo.7de1d4f3.jpg\" alt=\"RENÉE\">\n    </div>\n\n    <div class=\"info\">\n      <div class=\"title\"><p>Sun, Mon, Tue, Wed: 4pm - 2am<br>Thr, Fri, Sat: 4pm - 3am</p>\n<p><br><a href=\"mailto:info@renee.ch\">Info</a><br><a href=\"http://eepurl.com/dlpmqj\" target=\"_blank\" rel=\"noopener\">Newsletter</a><br><span dir=\"ltr\" role=\"presentation\"><a href=\"mailto:booking@renee.ch\">Booking Artist &amp; Bands</a></span></p>\n<p>Stellenangebote: <a title=\"Stellenausschreibung Bar_Service\" href=\"https://directus.media/dcMNC32IEZ5CbOSB/9587dbff-171b-4810-85ad-243111da93d2.pdf\" target=\"_blank\" rel=\"noopener\">Bar/Service</a> <a title=\"Stellenausschreibung Tür\" href=\"https://directus.media/dcMNC32IEZ5CbOSB/0b549211-8cc3-4c05-b441-b82e312fb257.pdf\">T&uuml;r</a></p></div>\n\n      <div class=\"more\">\n        <a class=\"skip-link no-indication\" href=\"#main\"><img src=\"/arrow-down.fd653d3e.svg\" class=\"arrow-down\" alt=\"Scroll down\"></a>\n      </div>\n    </div>\n  </header>\n\n  <div id=\"main\" class=\"main slide\">\n    <div id=\"intro\" class=\"rich-text\">\n      <div class=\"description rich-text\">\n        <p>\n          Bar and Live Venue<br>\n          <a href=\"https://www.google.com/maps/?q=Klingental%2018,%20Basel,%20Switzerland\" target=\"_blank\" rel=\"noopener noreferrer\" class=\"link-indication\">Klingental 18, Basel</a>\n        </p>\n      </div>\n\n      <div class=\"menu\"><p><span dir=\"ltr\" role=\"presentation\"><a href=\"https://directus.media/dcMNC32IEZ5CbOSB/03a73fc8-bd51-41d7-aa97-6ba423e84a1e.pdf\" target=\"_blank\" rel=\"noopener\">Menu</a><br></span><span dir=\"ltr\" role=\"presentation\"><a href=\"https://directus.media/dcMNC32IEZ5CbOSB/a8181884-09ab-4fe2-9245-c09b22099e6d.pdf\" target=\"_blank\" rel=\"noopener\">Seasonal Menu</a></span></p></div>\n<!--        <div class=\"contact\">-->\n<!--          <p>info@renee.ch</p>-->\n<!--          <p>booking@renee.ch</p>-->\n<!--          <p><a href=\"https://eepurl.com/dlpmqj\" class=\"link-indication\">Newsletter</a></p>-->\n<!--          <p><a href=\"http://www.reneeculture.club/\" class=\"link-indication\">Renée Culture Club</a></p>-->\n<!--        </div>-->\n    </div>\n\n\n      <section id=\"agenda\">\n        \n        <ul class=\"eventList\">\n          \n          <li class=\"event\" itemscope=\"\" itemtype=\"https://schema.org/MusicEvent\">\n            <div class=\"date\" itemprop=\"startDate\" content=\"2022-11-24T23:00:00.000+01:00\">Th, 24 Nov 23:00</div>\n            <div class=\"description rich-text\" itemprop=\"name\" content=\"The Sugar Shake\nDJ: Vincent Vega &amp; Buddy Webster\nGarage, Beat, Rock’n’Roll &amp; Rhythm&#39;n&#39;Blues\"><p><span dir=\"ltr\" role=\"presentation\">The Sugar Shake<br></span><span dir=\"ltr\" role=\"presentation\">DJ: Vincent Vega &amp; Buddy Webster</span><span dir=\"ltr\" role=\"presentation\"><br></span><span dir=\"ltr\" role=\"presentation\">Garage, Beat, Rock&rsquo;n&rsquo;Roll &amp; Rhythm'n'Blues</span></p></div>\n\n            <meta itemprop=\"endDate\" content=\"2022-11-25T02:00:00.000+01:00\">\n            <div itemprop=\"location\" itemscope=\"\" itemtype=\"https://schema.org/MusicVenue\">\n              <meta itemprop=\"name\" content=\"RENÉE\">\n              <div itemprop=\"address\" itemscope=\"\" itemtype=\"https://schema.org/PostalAddress\">\n                <meta itemprop=\"streetAddress\" content=\"Klingental 18\">\n                <meta itemprop=\"addressLocality\" content=\"Basel\">\n                <meta itemprop=\"postalCode\" content=\"4058\">\n                <meta itemprop=\"addressCountry\" content=\"CH\">\n              </div>\n            </div>\n            <meta itemprop=\"eventAttendanceMode\" content=\"https://schema.org/OfflineEventAttendanceMode\">\n            <meta itemprop=\"eventStatus\" content=\"https://schema.org/EventScheduled\">\n            \n\n          </li>\n          \n          <li class=\"event\" itemscope=\"\" itemtype=\"https://schema.org/MusicEvent\">\n            <div class=\"date\" itemprop=\"startDate\" content=\"2022-11-25T23:00:00.000+01:00\">Fr, 25 Nov 23:00</div>\n            <div class=\"description rich-text\" itemprop=\"name\" content=\"Fast\nKonzert: Charley Rose | Fabio Gouvea | Kuba Dvorak | Florian Haas\nDJ: Neevo &amp; Dersu\nJazz, Uptempo\"><p><span dir=\"ltr\" role=\"presentation\">Fast<br>Konzert: Charley Rose | Fabio Gouvea | Kuba Dvorak | Florian Haas<br>DJ: Neevo &amp; Dersu<br>Jazz, Uptemp</span>o</p></div>\n\n            <meta itemprop=\"endDate\" content=\"2022-11-26T02:00:00.000+01:00\">\n            <div itemprop=\"location\" itemscope=\"\" itemtype=\"https://schema.org/MusicVenue\">\n              <meta itemprop=\"name\" content=\"RENÉE\">\n              <div itemprop=\"address\" itemscope=\"\" itemtype=\"https://schema.org/PostalAddress\">\n                <meta itemprop=\"streetAddress\" content=\"Klingental 18\">\n                <meta itemprop=\"addressLocality\" content=\"Basel\">\n                <meta itemprop=\"postalCode\" content=\"4058\">\n                <meta itemprop=\"addressCountry\" content=\"CH\">\n              </div>\n            </div>\n            <meta itemprop=\"eventAttendanceMode\" content=\"https://schema.org/OfflineEventAttendanceMode\">\n            <meta itemprop=\"eventStatus\" content=\"https://schema.org/EventScheduled\">\n            \n\n          </li>\n          \n          <li class=\"event\" itemscope=\"\" itemtype=\"https://schema.org/MusicEvent\">\n            <div class=\"date\" itemprop=\"startDate\" content=\"2022-11-26T23:00:00.000+01:00\">Sa, 26 Nov 23:00</div>\n            <div class=\"description rich-text\" itemprop=\"name\" content=\"Renée Culture Club\nDJ: Féline &amp; Elias 308\nElectronic House, Electro, Global, Cosmic\"><p><span dir=\"ltr\" role=\"presentation\">Ren&eacute;e Culture Club<br>DJ: F&eacute;line &amp; Elias 308</span><span dir=\"ltr\" role=\"presentation\"><br></span><span dir=\"ltr\" role=\"presentation\">Electronic House, Electro, Global, Cosmic</span></p></div>\n\n            <meta itemprop=\"endDate\" content=\"2022-11-27T02:00:00.000+01:00\">\n            <div itemprop=\"location\" itemscope=\"\" itemtype=\"https://schema.org/MusicVenue\">\n              <meta itemprop=\"name\" content=\"RENÉE\">\n              <div itemprop=\"address\" itemscope=\"\" itemtype=\"https://schema.org/PostalAddress\">\n                <meta itemprop=\"streetAddress\" content=\"Klingental 18\">\n                <meta itemprop=\"addressLocality\" content=\"Basel\">\n                <meta itemprop=\"postalCode\" content=\"4058\">\n                <meta itemprop=\"addressCountry\" content=\"CH\">\n              </div>\n            </div>\n            <meta itemprop=\"eventAttendanceMode\" content=\"https://schema.org/OfflineEventAttendanceMode\">\n            <meta itemprop=\"eventStatus\" content=\"https://schema.org/EventScheduled\">\n            \n\n          </li>\n          \n          <li class=\"event\" itemscope=\"\" itemtype=\"https://schema.org/MusicEvent\">\n            <div class=\"date\" itemprop=\"startDate\" content=\"2022-11-27T22:00:00.000+01:00\">Su, 27 Nov 22:00</div>\n            <div class=\"description rich-text\" itemprop=\"name\" content=\"Live\nCinematic Zone Trip: lotto_brb_cybebe\nAmbient, Experimental, Live\"><p><span dir=\"ltr\" role=\"presentation\">Live</span><span dir=\"ltr\" role=\"presentation\"><br></span><span dir=\"ltr\" role=\"presentation\">Cinematic Zone Trip: lotto_brb_cybebe</span><span dir=\"ltr\" role=\"presentation\"><br></span><span dir=\"ltr\" role=\"presentation\">Ambient, Experimental, Live</span></p></div>\n\n            <meta itemprop=\"endDate\" content=\"2022-11-28T02:00:00.000+01:00\">\n            <div itemprop=\"location\" itemscope=\"\" itemtype=\"https://schema.org/MusicVenue\">\n              <meta itemprop=\"name\" content=\"RENÉE\">\n              <div itemprop=\"address\" itemscope=\"\" itemtype=\"https://schema.org/PostalAddress\">\n                <meta itemprop=\"streetAddress\" content=\"Klingental 18\">\n                <meta itemprop=\"addressLocality\" content=\"Basel\">\n                <meta itemprop=\"postalCode\" content=\"4058\">\n                <meta itemprop=\"addressCountry\" content=\"CH\">\n              </div>\n            </div>\n            <meta itemprop=\"eventAttendanceMode\" content=\"https://schema.org/OfflineEventAttendanceMode\">\n            <meta itemprop=\"eventStatus\" content=\"https://schema.org/EventScheduled\">\n            \n\n          </li>\n          \n        </ul>\n        \n      </section>\n\n    <footer id=\"footer\">\n  <div class=\"footer-left\">\n    <a href=\"/imprint.html\" target=\"_blank\">Impressum</a>\n  </div>\n  <div class=\"footer-center\">\n    <ul class=\"connections\">\n      <li><a class=\"connect-link facebook no-indication\" href=\"https://www.facebook.com/reneebarbasel\" aria-label=\"Facebook\"></a></li>\n      <li><a class=\"connect-link instagram no-indication\" href=\"https://www.instagram.com/renee_bar\" aria-label=\"Instagram\"></a></li>\n    </ul>\n  </div>\n  <div class=\"footer-right\"></div>\n</footer>\n\n  </div>\n\n  </body>\n</html>\n",
        "rawHeaders": [
            "access-control-allow-origin",
            "*",
            "age",
            "8944",
            "cache-control",
            "public, max-age=0, must-revalidate",
            "content-disposition",
            "inline",
            "content-type",
            "text/html; charset=utf-8",
            "date",
            "wed, 23 nov 2022 08:43:27 gmt",
            "etag",
            "w/\"f5ff1b0122c98b0897c3c219b9dc7986\"",
            "server",
            "vercel",
            "strict-transport-security",
            "max-age=63072000",
            "x-vercel-cache",
            "hit",
            "x-vercel-id",
            "fra1:fra1::kl8wt-1669193007211-161c92fa2b72",
            "connection",
            "close",
            "transfer-encoding",
            "chunked"
        ]
    }
]