[
    {
        "scope": "https://www.goldenes-fass.ch:443",
        "method": "GET",
        "path": "/saali/",
        "body": "",
        "status": 200,
        "response": "<!DOCTYPE html>\n<html lang=\"de-CH\" class=\"no-js\">\n<head>\n\t<meta charset=\"UTF-8\">\n\t<meta name=\"viewport\" content=\"width=device-width\">\n\t<link rel=\"profile\" href=\"http://gmpg.org/xfn/11\">\n\t<link rel=\"pingback\" href=\"https://www.goldenes-fass.ch/xmlrpc.php\">\n\t<!--[if lt IE 9]>\n\t<script src=\"https://www.goldenes-fass.ch/wp-content/themes/twentyfifteen/js/html5.js\"></script>\n\t<![endif]-->\n\t<script>(function(html){html.className = html.className.replace(/\\bno-js\\b/,'js')})(document.documentElement);</script>\n<title>___Sääli &#8211; zum goldenen fass</title>\n<meta name='robots' content='noindex,follow' />\n<link rel='dns-prefetch' href='//fonts.googleapis.com' />\n<link rel='dns-prefetch' href='//s.w.org' />\n<link href='https://fonts.gstatic.com' crossorigin rel='preconnect' />\n<link rel=\"alternate\" type=\"application/rss+xml\" title=\"zum goldenen fass &raquo; Feed\" href=\"https://www.goldenes-fass.ch/feed/\" />\n<link rel=\"alternate\" type=\"application/rss+xml\" title=\"zum goldenen fass &raquo; Kommentar-Feed\" href=\"https://www.goldenes-fass.ch/comments/feed/\" />\n\t\t<script type=\"text/javascript\">\n\t\t\twindow._wpemojiSettings = {\"baseUrl\":\"https:\\/\\/s.w.org\\/images\\/core\\/emoji\\/11.2.0\\/72x72\\/\",\"ext\":\".png\",\"svgUrl\":\"https:\\/\\/s.w.org\\/images\\/core\\/emoji\\/11.2.0\\/svg\\/\",\"svgExt\":\".svg\",\"source\":{\"concatemoji\":\"https:\\/\\/www.goldenes-fass.ch\\/wp-includes\\/js\\/wp-emoji-release.min.js?ver=5.1.3\"}};\n\t\t\t!function(a,b,c){function d(a,b){var c=String.fromCharCode;l.clearRect(0,0,k.width,k.height),l.fillText(c.apply(this,a),0,0);var d=k.toDataURL();l.clearRect(0,0,k.width,k.height),l.fillText(c.apply(this,b),0,0);var e=k.toDataURL();return d===e}function e(a){var b;if(!l||!l.fillText)return!1;switch(l.textBaseline=\"top\",l.font=\"600 32px Arial\",a){case\"flag\":return!(b=d([55356,56826,55356,56819],[55356,56826,8203,55356,56819]))&&(b=d([55356,57332,56128,56423,56128,56418,56128,56421,56128,56430,56128,56423,56128,56447],[55356,57332,8203,56128,56423,8203,56128,56418,8203,56128,56421,8203,56128,56430,8203,56128,56423,8203,56128,56447]),!b);case\"emoji\":return b=d([55358,56760,9792,65039],[55358,56760,8203,9792,65039]),!b}return!1}function f(a){var c=b.createElement(\"script\");c.src=a,c.defer=c.type=\"text/javascript\",b.getElementsByTagName(\"head\")[0].appendChild(c)}var g,h,i,j,k=b.createElement(\"canvas\"),l=k.getContext&&k.getContext(\"2d\");for(j=Array(\"flag\",\"emoji\"),c.supports={everything:!0,everythingExceptFlag:!0},i=0;i<j.length;i++)c.supports[j[i]]=e(j[i]),c.supports.everything=c.supports.everything&&c.supports[j[i]],\"flag\"!==j[i]&&(c.supports.everythingExceptFlag=c.supports.everythingExceptFlag&&c.supports[j[i]]);c.supports.everythingExceptFlag=c.supports.everythingExceptFlag&&!c.supports.flag,c.DOMReady=!1,c.readyCallback=function(){c.DOMReady=!0},c.supports.everything||(h=function(){c.readyCallback()},b.addEventListener?(b.addEventListener(\"DOMContentLoaded\",h,!1),a.addEventListener(\"load\",h,!1)):(a.attachEvent(\"onload\",h),b.attachEvent(\"onreadystatechange\",function(){\"complete\"===b.readyState&&c.readyCallback()})),g=c.source||{},g.concatemoji?f(g.concatemoji):g.wpemoji&&g.twemoji&&(f(g.twemoji),f(g.wpemoji)))}(window,document,window._wpemojiSettings);\n\t\t</script>\n\t\t<style type=\"text/css\">\nimg.wp-smiley,\nimg.emoji {\n\tdisplay: inline !important;\n\tborder: none !important;\n\tbox-shadow: none !important;\n\theight: 1em !important;\n\twidth: 1em !important;\n\tmargin: 0 .07em !important;\n\tvertical-align: -0.1em !important;\n\tbackground: none !important;\n\tpadding: 0 !important;\n}\n</style>\n\t<link rel='stylesheet' id='wp-block-library-css'  href='https://www.goldenes-fass.ch/wp-includes/css/dist/block-library/style.min.css?ver=5.1.3' type='text/css' media='all' />\n<link rel='stylesheet' id='wp-block-library-theme-css'  href='https://www.goldenes-fass.ch/wp-includes/css/dist/block-library/theme.min.css?ver=5.1.3' type='text/css' media='all' />\n<link rel='stylesheet' id='foobox-free-min-css'  href='https://www.goldenes-fass.ch/wp-content/plugins/foobox-image-lightbox/free/css/foobox.free.min.css?ver=2.7.5' type='text/css' media='all' />\n<link rel='stylesheet' id='parent-style-css'  href='https://www.goldenes-fass.ch/wp-content/themes/twentyfifteen/style.css?ver=5.1.3' type='text/css' media='all' />\n<link rel='stylesheet' id='twentyfifteen-fonts-css'  href='https://fonts.googleapis.com/css?family=Noto+Sans%3A400italic%2C700italic%2C400%2C700%7CNoto+Serif%3A400italic%2C700italic%2C400%2C700%7CInconsolata%3A400%2C700&#038;subset=latin%2Clatin-ext' type='text/css' media='all' />\n<link rel='stylesheet' id='genericons-css'  href='https://www.goldenes-fass.ch/wp-content/themes/twentyfifteen/genericons/genericons.css?ver=3.2' type='text/css' media='all' />\n<link rel='stylesheet' id='twentyfifteen-style-css'  href='https://www.goldenes-fass.ch/wp-content/themes/parole-2015/style.css?ver=5.1.3' type='text/css' media='all' />\n<style id='twentyfifteen-style-inline-css' type='text/css'>\n\n\t\t/* Custom Header Background Color */\n\t\tbody:before,\n\t\t.site-header {\n\t\t\tbackground-color: #000000;\n\t\t}\n\n\t\t@media screen and (min-width: 59.6875em) {\n\t\t\t.site-header,\n\t\t\t.secondary {\n\t\t\t\tbackground-color: transparent;\n\t\t\t}\n\n\t\t\t.widget button,\n\t\t\t.widget input[type=\"button\"],\n\t\t\t.widget input[type=\"reset\"],\n\t\t\t.widget input[type=\"submit\"],\n\t\t\t.widget_calendar tbody a,\n\t\t\t.widget_calendar tbody a:hover,\n\t\t\t.widget_calendar tbody a:focus {\n\t\t\t\tcolor: #000000;\n\t\t\t}\n\t\t}\n\t\n\n\t\t/* Custom Sidebar Text Color */\n\t\t.site-title a,\n\t\t.site-description,\n\t\t.secondary-toggle:before {\n\t\t\tcolor: #ffffff;\n\t\t}\n\n\t\t.site-title a:hover,\n\t\t.site-title a:focus {\n\t\t\tcolor: #ffffff; /* Fallback for IE7 and IE8 */\n\t\t\tcolor: rgba( 255, 255, 255, 0.7);\n\t\t}\n\n\t\t.secondary-toggle {\n\t\t\tborder-color: #ffffff; /* Fallback for IE7 and IE8 */\n\t\t\tborder-color: rgba( 255, 255, 255, 0.1);\n\t\t}\n\n\t\t.secondary-toggle:hover,\n\t\t.secondary-toggle:focus {\n\t\t\tborder-color: #ffffff; /* Fallback for IE7 and IE8 */\n\t\t\tborder-color: rgba( 255, 255, 255, 0.3);\n\t\t}\n\n\t\t.site-title a {\n\t\t\toutline-color: #ffffff; /* Fallback for IE7 and IE8 */\n\t\t\toutline-color: rgba( 255, 255, 255, 0.3);\n\t\t}\n\n\t\t@media screen and (min-width: 59.6875em) {\n\t\t\t.secondary a,\n\t\t\t.dropdown-toggle:after,\n\t\t\t.widget-title,\n\t\t\t.widget blockquote cite,\n\t\t\t.widget blockquote small {\n\t\t\t\tcolor: #ffffff;\n\t\t\t}\n\n\t\t\t.widget button,\n\t\t\t.widget input[type=\"button\"],\n\t\t\t.widget input[type=\"reset\"],\n\t\t\t.widget input[type=\"submit\"],\n\t\t\t.widget_calendar tbody a {\n\t\t\t\tbackground-color: #ffffff;\n\t\t\t}\n\n\t\t\t.textwidget a {\n\t\t\t\tborder-color: #ffffff;\n\t\t\t}\n\n\t\t\t.secondary a:hover,\n\t\t\t.secondary a:focus,\n\t\t\t.main-navigation .menu-item-description,\n\t\t\t.widget,\n\t\t\t.widget blockquote,\n\t\t\t.widget .wp-caption-text,\n\t\t\t.widget .gallery-caption {\n\t\t\t\tcolor: rgba( 255, 255, 255, 0.7);\n\t\t\t}\n\n\t\t\t.widget button:hover,\n\t\t\t.widget button:focus,\n\t\t\t.widget input[type=\"button\"]:hover,\n\t\t\t.widget input[type=\"button\"]:focus,\n\t\t\t.widget input[type=\"reset\"]:hover,\n\t\t\t.widget input[type=\"reset\"]:focus,\n\t\t\t.widget input[type=\"submit\"]:hover,\n\t\t\t.widget input[type=\"submit\"]:focus,\n\t\t\t.widget_calendar tbody a:hover,\n\t\t\t.widget_calendar tbody a:focus {\n\t\t\t\tbackground-color: rgba( 255, 255, 255, 0.7);\n\t\t\t}\n\n\t\t\t.widget blockquote {\n\t\t\t\tborder-color: rgba( 255, 255, 255, 0.7);\n\t\t\t}\n\n\t\t\t.main-navigation ul,\n\t\t\t.main-navigation li,\n\t\t\t.secondary-toggle,\n\t\t\t.widget input,\n\t\t\t.widget textarea,\n\t\t\t.widget table,\n\t\t\t.widget th,\n\t\t\t.widget td,\n\t\t\t.widget pre,\n\t\t\t.widget li,\n\t\t\t.widget_categories .children,\n\t\t\t.widget_nav_menu .sub-menu,\n\t\t\t.widget_pages .children,\n\t\t\t.widget abbr[title] {\n\t\t\t\tborder-color: rgba( 255, 255, 255, 0.1);\n\t\t\t}\n\n\t\t\t.dropdown-toggle:hover,\n\t\t\t.dropdown-toggle:focus,\n\t\t\t.widget hr {\n\t\t\t\tbackground-color: rgba( 255, 255, 255, 0.1);\n\t\t\t}\n\n\t\t\t.widget input:focus,\n\t\t\t.widget textarea:focus {\n\t\t\t\tborder-color: rgba( 255, 255, 255, 0.3);\n\t\t\t}\n\n\t\t\t.sidebar a:focus,\n\t\t\t.dropdown-toggle:focus {\n\t\t\t\toutline-color: rgba( 255, 255, 255, 0.3);\n\t\t\t}\n\t\t}\n\t\n</style>\n<link rel='stylesheet' id='twentyfifteen-block-style-css'  href='https://www.goldenes-fass.ch/wp-content/themes/twentyfifteen/css/blocks.css?ver=20181230' type='text/css' media='all' />\n<!--[if lt IE 9]>\n<link rel='stylesheet' id='twentyfifteen-ie-css'  href='https://www.goldenes-fass.ch/wp-content/themes/twentyfifteen/css/ie.css?ver=20141010' type='text/css' media='all' />\n<![endif]-->\n<!--[if lt IE 8]>\n<link rel='stylesheet' id='twentyfifteen-ie7-css'  href='https://www.goldenes-fass.ch/wp-content/themes/twentyfifteen/css/ie7.css?ver=20141010' type='text/css' media='all' />\n<![endif]-->\n<script type='text/javascript' src='https://www.goldenes-fass.ch/wp-includes/js/jquery/jquery.js?ver=1.12.4'></script>\n<script type='text/javascript' src='https://www.goldenes-fass.ch/wp-includes/js/jquery/jquery-migrate.min.js?ver=1.4.1'></script>\n<script type='text/javascript'>\n/* Run FooBox FREE (v2.7.5) */\r\nvar FOOBOX = window.FOOBOX = {\r\n\tready: true,\r\n\tpreloadFont: true,\r\n\tdisableOthers: false,\r\n\to: {wordpress: { enabled: true }, excludes:'.fbx-link,.nofoobox,.nolightbox,a[href*=\"pinterest.com/pin/create/button/\"]', affiliate : { enabled: false }, error: \"Could not load the item\"},\r\n\tselectors: [\r\n\t\t\".foogallery-container.foogallery-lightbox-foobox\", \".foogallery-container.foogallery-lightbox-foobox-free\", \".gallery\", \".wp-block-gallery\", \".wp-caption\", \".wp-block-image\", \"a:has(img[class*=wp-image-])\", \".foobox\"\r\n\t],\r\n\tpre: function( $ ){\r\n\t\t// Custom JavaScript (Pre)\r\n\t\t\r\n\t},\r\n\tpost: function( $ ){\r\n\t\t// Custom JavaScript (Post)\r\n\t\t\r\n\t\t// Custom Captions Code\r\n\t\t\r\n\t},\r\n\tcustom: function( $ ){\r\n\t\t// Custom Extra JS\r\n\t\t\r\n\t}\r\n};\n</script>\n<script type='text/javascript' src='https://www.goldenes-fass.ch/wp-content/plugins/foobox-image-lightbox/free/js/foobox.free.min.js?ver=2.7.5'></script>\n<link rel='https://api.w.org/' href='https://www.goldenes-fass.ch/wp-json/' />\n<link rel=\"EditURI\" type=\"application/rsd+xml\" title=\"RSD\" href=\"https://www.goldenes-fass.ch/xmlrpc.php?rsd\" />\n<link rel=\"wlwmanifest\" type=\"application/wlwmanifest+xml\" href=\"https://www.goldenes-fass.ch/wp-includes/wlwmanifest.xml\" /> \n<meta name=\"generator\" content=\"WordPress 5.1.3\" />\n<link rel=\"canonical\" href=\"https://www.goldenes-fass.ch/saali/\" />\n<link rel='shortlink' href='https://www.goldenes-fass.ch/?p=214' />\n<link rel=\"alternate\" type=\"application/json+oembed\" href=\"https://www.goldenes-fass.ch/wp-json/oembed/1.0/embed?url=https%3A%2F%2Fwww.goldenes-fass.ch%2Fsaali%2F\" />\n<link rel=\"alternate\" type=\"text/xml+oembed\" href=\"https://www.goldenes-fass.ch/wp-json/oembed/1.0/embed?url=https%3A%2F%2Fwww.goldenes-fass.ch%2Fsaali%2F&#038;format=xml\" />\n        <style>\n            span[class*=\"simple-icon-\"] {\n            \twidth: 1.5rem;\n            \theight: 1.5rem;\n            \tdisplay: inline-block;\n\n            }\n            span[class*=\"simple-icon-\"] svg {\n            \tdisplay: inline-block;\n            \tvertical-align: middle;\n                height: inherit;\n                width: inherit;\n            }\n        </style>\n    \t\t<style type=\"text/css\" id=\"twentyfifteen-header-css\">\n\t\t\t\t.site-header {\n\t\t\tpadding-top: 14px;\n\t\t\tpadding-bottom: 14px;\n\t\t}\n\n\t\t.site-branding {\n\t\t\tmin-height: 42px;\n\t\t}\n\n\t\t@media screen and (min-width: 46.25em) {\n\t\t\t.site-header {\n\t\t\t\tpadding-top: 21px;\n\t\t\t\tpadding-bottom: 21px;\n\t\t\t}\n\t\t\t.site-branding {\n\t\t\t\tmin-height: 56px;\n\t\t\t}\n\t\t}\n\t\t@media screen and (min-width: 55em) {\n\t\t\t.site-header {\n\t\t\t\tpadding-top: 25px;\n\t\t\t\tpadding-bottom: 25px;\n\t\t\t}\n\t\t\t.site-branding {\n\t\t\t\tmin-height: 62px;\n\t\t\t}\n\t\t}\n\t\t@media screen and (min-width: 59.6875em) {\n\t\t\t.site-header {\n\t\t\t\tpadding-top: 0;\n\t\t\t\tpadding-bottom: 0;\n\t\t\t}\n\t\t\t.site-branding {\n\t\t\t\tmin-height: 0;\n\t\t\t}\n\t\t}\n\t\t\t\t\t.site-title,\n\t\t.site-description {\n\t\t\tclip: rect(1px, 1px, 1px, 1px);\n\t\t\tposition: absolute;\n\t\t}\n\t\t</style>\n\t\t<style type=\"text/css\" id=\"custom-background-css\">\nbody.custom-background { background-color: #000000; }\n</style>\n\t\t\t<style type=\"text/css\" id=\"wp-custom-css\">\n\t\t\t@font-face {\n  font-family: 'swift-reg';\n  src: url(\"https://www.goldenes-fass.ch/fonts/swift-reg.eot\");\n  src: url(\"https://www.goldenes-fass.ch/fonts/swift-reg.eot?#iefix\") format(\"embedded-opentype\"), url(\"https://www.goldenes-fass.ch/fonts/swift-reg.woff\") format(\"woff\"), url(\"https://www.goldenes-fass.ch/fonts/swift-reg.ttf\") format(\"truetype\"), url(\"https://www.goldenes-fass.ch/fonts/swift-reg.svg#swift-reg\") format(\"svg\");\n  font-weight: normal;\n  font-style: normal;\n}\n\n.menu a:active\n{\n\tcolor: #ffffff;\n}\n\n.menu a:visited\n{\n\tcolor: #ffffff;\n}\n\nbody\n{\n\tfont-family: \"swift-reg\";\n\tline-height: 1.1;\n}\n\n#masthead\n{\n\tdisplay: none;\n}\n\n#post-446 a\n{\n\tborder-bottom-style: none;\n}\n\n.shortInfo\n{\n\tcolor: #ffffff;\n\tfont-size: 20px;\n\tfont-weight: 400;\n\tline-height: 24px\n}\n\n.shortInfo p\n{\n\tmargin: 0;\n}\n\n.secondary\n{\n\tmargin: 0;\n\tpadding: 0;\n}\n\n.widget\n{\n\tpadding-left: 2%;\n\tpadding-right: 2%;\n\tmargin-bottom: 30px\n}\n\n.threeBars\n{\n\t\n\tletter-spacing: 0.2rem;\n}\n\n.menu-item\n{\n\tfont-size: 20px;\n\t/*letter-spacing: 0.2rem;*/\n\tcolor: #000000;\n\tborder-color: #000000 !important;\n\tpadding: 0 !important;\n\tline-height: 24px;\n}\n\n.site\n{\n\tmargin-left: 5%;\n\tmargin-right: 5%;\n\tmax-width: none;\n}\n\n.sidebar\n{\n\tposition: absolute !important;\n\tmax-width: 500px;\n\twidth: 500px;\n\tmin-width: 500px !important;\n\tmargin-right: 0;\n}\n\n.site-content\n{\n\tmargin-left: 500px;\n\tposition: absolute !important;\n\tfont-size: 20px !important;\n\tmax-width: 525px !important;\n}\n\n.site-footer\n{\n\tdisplay: none;\n}\n\n.site-info\n{\n\tcolor: #000000 !important;\n}\n\n.imprint\n{\n\tcolor: #000000 !important;\n}\n\n.site-footer\n{\n\tbackground-color: #000000;\n\tcolor: #ffffff !important;\n\tmargin-left: 600px;\n}\n\n.entry-header\n{\n\tcolor: #000000;\n\tmax-height: 0px;\n}\n\n.entry-content\n{\n\tpadding-left: 0;\n\tpadding-right: 0;\n\tmargin-top: 391.297px !important;\n}\n\n.page\n{\n\tbackground-color: #000000;\n\tcolor: #ffffff;\n\tmargin-left: 0;\n\tmargin-right: 0;\n\tpadding-top: 0;\n}\n\n.shortInfo a\n{\n\tborder-bottom: none;\n}\n\n\n.shortInfo a:hover\n{\n\tcolor: rgba(255, 255, 255, 1);\n}\n\n.entry-content a\n{\n\tborder-bottom-color: #ffffff;\n}\n\n.iconLink\n{\n\tborder-bottom: none !important;\n}\n\n.entry-content a:visited\n{\n\tcolor: #ffffff;\n\tborder-bottom-style: solid;\n\tborder-bottom-width: 1px;\n\tborder-bottom-color: #ffffff;\n}\n\n.entry-content a:hover\n{\n\tcolor: #ffffff;\n\tborder-bottom-style: solid;\n\tborder-bottom-width: 1px;\n\tborder-bottom-color: #ffffff;\n}\n\n.entry-title\n{\n\tline-height: 48px !important;\n\tfont-size: 10px;\n}\n\n.entry-content a:focus\n{\n\tcolor: rgba(255, 255, 255, 1);\n\tborder-bottom-style: solid;\n\tborder-bottom-width: 1px;\n\tborder-bottom-color: #ffffff;\n}\n\n.site-header\n{\n\tmargin: 0px;\n}\n\n.widget-area\n{\n\tmargin-top: 200px\n}\n\n@media screen and (max-width: 1100px)\n{\n.site-header\n{\n\tdisplay: none;\n\tmargin-top: 0;\n}\n\t\n#logo\n{\n\twidth: 290px;\t\t\n}\n\t\n.foogallery\n\t{\n\t\tpadding-left: 0px !important;\n\t}\n\t\n.sidebar\n{\n\tposition: relative !important;\n\tfloat: left;\n\twidth: 90vw !important;\n\tmin-width: 300px !important;\n}\n\t\n.site-content\n{\n\tmargin-left: 0px;\n\tfloat: left;\n\tposition: relative !important;\n\tfont-size: 18px !important;\n\twidth: 90vw !important;\n\tbackground: transparent !important;\n}\n\t\n.entry-content\n{\n\tmargin-top: 0px !important;\n}\n\n.widget\n{\n\tpadding-left: 0px;\n}\n\t\n.menu-item\n{\n\tfont-size: 18px !important;\n\tline-height: 20px !important;\n}\n\t\n.shortInfo\n{\n\tfont-size: 18px !important;\n\tline-height: 20px !important;\n}\n\t\n.saaliLogo\n{\n\tmargin-top: 0;\n}\n\t\n.site-main\n{\n\tpadding: 0px !important;\n\tmargin: 0px;\n}\n\n.widget-area\n{\n\tmargin-top: 50px;\n}\n\t\n}\n\n@media screen and (max-width: 340px)\n{\n#logo\n{\n\twidth: 260px;\n}\n\t\n.site-content\n{\n\tfont-size: 16px !important;\n\t\n}\n\t\n.menu-item\n{\n\tfont-size: 16px !important;\n\tline-height: 18px !important;\n}\n\t\n.shortInfo\n{\n\tfont-size: 16px !important;\n\tline-height: 18px !important;\n}\n}\t\t</style>\n\t\t</head>\n\n<body class=\"page-template-default page page-id-214 custom-background wp-embed-responsive\">\n<div id=\"page\" class=\"hfeed site\">\n\t<a class=\"skip-link screen-reader-text\" href=\"#content\">Springe zum Inhalt</a>\n\n\t<div id=\"sidebar\" class=\"sidebar\">\n\t\t<header id=\"masthead\" class=\"site-header\" role=\"banner\">\n\t\t\t<div class=\"site-branding\">\n\t\t\t\t\t\t\t\t\t\t<p class=\"site-title\"><a href=\"https://www.goldenes-fass.ch/\" rel=\"home\">zum goldenen fass</a></p>\n\t\t\t\t\t\t\t\t\t\t<button class=\"secondary-toggle\">Menü und Widgets</button>\n\t\t\t</div><!-- .site-branding -->\n\t\t</header><!-- .site-header -->\n\n\t\t\t<div id=\"secondary\" class=\"secondary\">\n\n\t\t\n\t\t\n\t\t\t\t\t<div id=\"widget-area\" class=\"widget-area\" role=\"complementary\">\n\t\t\t\t<aside id=\"custom_html-3\" class=\"widget_text widget widget_custom_html\"><div class=\"textwidget custom-html-widget\"><div class=\"logo\">\r\n<a href=\"https://wp.goldenes-fass.ch\">\r\n<img src=\"https://wp.goldenes-fass.ch/wp-content/uploads/2019/04/titel_logo.png\" alt=\"Logo zum goldenen fass\" width=\"340\" id=\"logo\"> \r\n</a>\r\n</div>\r\n\r\n<div class=\"shortInfo\" id=\"shortInfo\">\r\n<p id=\"venueType\">Restaurant</p>\r\n<p id=\"openingHours\">Dienstag – Samstag ab 18.30</p>\r\n<br>\r\n<a href=\"https://www.google.ch/maps/place/Hammerstrasse+108,+4057+Basel/@47.5656718,7.5956753,17z/data=!3m1!4b1!4m2!3m1!1s0x4791b9bb6c0cb0b9:0x9b27485f574c7721?hl=en\" target=\"_blank\">\r\n<p id=\"address\">Hammerstrasse 108<span class=\"threeBars\">___</span>4057 Basel</p></a>\r\n<p id=\"contact\">061 693 34 00<span class=\"threeBars\">___</span><a href=\"mailto:info@goldenes-fass.ch\">info@goldenes-fass.ch</a></p>\r\n</div>\r\n\r\n<script>\r\nvar logoElem = document.getElementById(\"logo\");\r\nvar widgetElem = document.getElementById(\"widget-area\");\r\nvar x = document.URL;\r\nsubstring = \"saali\";\r\nif (x.indexOf(substring) !== -1)\r\n{\r\n\tlogoElem.src = \"https://wp.goldenes-fass.ch/wp-content/uploads/2019/04/saali_logo.png\";\r\n\tlogoElem.alt = \"Logo Sääli\";\r\n\tlogoElem.width = \"170\";\r\ndocument.getElementById(\"masthead\").setAttribute( 'class', 'site-header saaliLogo' );\r\ndocument.getElementById(\"venueType\").innerHTML = \"Sääli\";\r\ndocument.getElementById(\"openingHours\").innerHTML = \"Mittwoch – Samstag ab 20.00\";\r\nwidgetElem.style.marginTop = \"139.297px\";\r\n}\r\n</script></div></aside><aside id=\"nav_menu-3\" class=\"widget widget_nav_menu\"><div class=\"menu-hauptmenue-container\"><ul id=\"menu-hauptmenue\" class=\"menu\"><li id=\"menu-item-450\" class=\"menu-item menu-item-type-post_type menu-item-object-page menu-item-450\"><a href=\"https://www.goldenes-fass.ch/reservationen/\"><span class=\"threeBars\">___</span>Reservationen</a></li>\n<li id=\"menu-item-84\" class=\"menu-item menu-item-type-post_type menu-item-object-page menu-item-84\"><a href=\"https://www.goldenes-fass.ch/menu/\"><span class=\"threeBars\">___</span>Menu</a></li>\n<li id=\"menu-item-454\" class=\"menu-item menu-item-type-post_type menu-item-object-page menu-item-454\"><a href=\"https://www.goldenes-fass.ch/ueber-uns-team/\"><span class=\"threeBars\">___</span>Über uns</a></li>\n<li id=\"menu-item-261\" class=\"menu-item menu-item-type-post_type menu-item-object-page menu-item-261\"><a href=\"https://www.goldenes-fass.ch/fass-bar/\"><span class=\"threeBars\">___</span>Fass Bar</a></li>\n<li id=\"menu-item-216\" class=\"menu-item menu-item-type-post_type menu-item-object-page current-menu-item page_item page-item-214 current_page_item menu-item-216\"><a href=\"https://www.goldenes-fass.ch/saali/\" aria-current=\"page\"><span class=\"threeBars\">___</span>Sääli</a></li>\n<li id=\"menu-item-387\" class=\"menu-item menu-item-type-post_type menu-item-object-page menu-item-387\"><a href=\"https://www.goldenes-fass.ch/flora-buvette/\"><span class=\"threeBars\">___</span>Flora Buvette</a></li>\n<li id=\"menu-item-392\" class=\"menu-item menu-item-type-post_type menu-item-object-page menu-item-392\"><a href=\"https://www.goldenes-fass.ch/fotos/\"><span class=\"threeBars\">___</span>Fotos</a></li>\n</ul></div></aside>\t\t\t</div><!-- .widget-area -->\n\t\t\n\t</div><!-- .secondary -->\n\n\t</div><!-- .sidebar -->\n\n\t<div id=\"content\" class=\"site-content\">\n\n\t<div id=\"primary\" class=\"content-area\">\n\t\t<main id=\"main\" class=\"site-main\" role=\"main\">\n\n\t\t\n<article id=\"post-214\" class=\"post-214 page type-page status-publish hentry\">\n\t\n\t<header class=\"entry-header\">\n\t\t<h1 class=\"entry-title\"><span class=\"threeBars\">___</span>Sääli</h1>\t</header><!-- .entry-header -->\n\n\t<div class=\"entry-content\">\n\t\t<h3><strong><a>Sääli Oktober 19</a></strong></h3>\n<p><strong>Fr__04_10__22h____Smack–Bang</strong><br />\nDj B-Slapt<br />\nPop, Soul, HipHop, Latin</p>\n<p><strong>Sa__05_10__22h____Rauchy Rawhide Chicken</strong><br />\n10 DJs, 100&#8217;s of Vinyl Pearls<br />\nEarly Soul, Rock n Roll, Boogie, Roots</p>\n<p><strong>Do__10_10__22h____Deep Diving Thursday</strong><br />\nDJ Salz<br />\nAlternativ, Soul, Disco</p>\n<p><strong>Fr__11_10__22h____Short Circuit</strong><br />\nLowpan &amp; Guest<br />\nDisco</p>\n<p><strong>Sa__12_10__22h____Guest Night</strong><br />\nLa Banana Senza Senso und DJ Terrapi<br />\nWorld, Funk, Disco, Oldschool</p>\n<p><a href=\"https://www.rfv.ch/magazin/news/2019/und-hier-ist-der-sound-zur-ersten-soundclinic-des-rfv-basel.html\"><strong>Do__17_10__19h____Soundklinik</strong></a><br />\nDemotapes zum mithören</p>\n<p><a href=\"https://de-de.facebook.com/rumbaboxx\"><strong>Fr__18_10__22h____Rumba BoxX</strong></a><br />\nJalliman &amp; Rootsprov<br />\nCalypso, Rumba, Ska, Mento</p>\n<p><a href=\"https://www.villigercigars.com/de-ch/produkt/special-cigars/villiger-original-krumme/\"><strong>S</strong></a><strong>a__19_10__22h____Twister</strong><br />\nDJ Tom Best &amp; RPM<br />\nRock n Roll</p>\n<p><strong>Do__24_10__22h____Deep Diving Thursday</strong><br />\nMyrielle Mondieu<br />\nElektronica, Alternative</p>\n<p><strong>Fr__25_10__22h____Peaches &amp; Prunes</strong><br />\nLowpan, Neevo, Truedat, Zwirbel,<br />\nDisco, Stampf, Balearic</p>\n<p><strong>Sa__26_10__22h____Sonido Resistencia</strong><br />\nDJ Team Sonido &amp; Guest<br />\nWorld, Latin, Afro</p>\n<p><strong>Do__31_10__22h____Deep Diving Thursday</strong><br />\nHunkeler Hunziker<br />\nPop und so</p>\n<p>&nbsp;</p>\n<p><a class=\"iconLink\" href=\"https://de-de.facebook.com/SaelizumgoldenenFassBasel\" target=\"_blank\" rel=\"noopener noreferrer\"><span class=\"simple-icon-facebook\" style=\"fill:white; height:40px; width:40px;\"><svg role=\"img\" viewBox=\"0 0 24 24\" xmlns=\"http://www.w3.org/2000/svg\"><title>Facebook</title><path d=\"M23.9981 11.9991C23.9981 5.37216 18.626 0 11.9991 0C5.37216 0 0 5.37216 0 11.9991C0 17.9882 4.38789 22.9522 10.1242 23.8524V15.4676H7.07758V11.9991H10.1242V9.35553C10.1242 6.34826 11.9156 4.68714 14.6564 4.68714C15.9692 4.68714 17.3424 4.92149 17.3424 4.92149V7.87439H15.8294C14.3388 7.87439 13.8739 8.79933 13.8739 9.74824V11.9991H17.2018L16.6698 15.4676H13.8739V23.8524C19.6103 22.9522 23.9981 17.9882 23.9981 11.9991Z\"/></svg></span></a> <a class=\"iconLink\" href=\"https://www.instagram.com/explore/locations/293027751064050/saali-zum-goldenen-fass/\" target=\"_blank\" rel=\"noopener noreferrer\"><span class=\"simple-icon-instagram\" style=\"fill:white; height:40px; width:40px;\"><svg role=\"img\" viewBox=\"0 0 24 24\" xmlns=\"http://www.w3.org/2000/svg\"><title>Instagram</title><path d=\"M12 0C8.74 0 8.333.015 7.053.072 5.775.132 4.905.333 4.14.63c-.789.306-1.459.717-2.126 1.384S.935 3.35.63 4.14C.333 4.905.131 5.775.072 7.053.012 8.333 0 8.74 0 12s.015 3.667.072 4.947c.06 1.277.261 2.148.558 2.913.306.788.717 1.459 1.384 2.126.667.666 1.336 1.079 2.126 1.384.766.296 1.636.499 2.913.558C8.333 23.988 8.74 24 12 24s3.667-.015 4.947-.072c1.277-.06 2.148-.262 2.913-.558.788-.306 1.459-.718 2.126-1.384.666-.667 1.079-1.335 1.384-2.126.296-.765.499-1.636.558-2.913.06-1.28.072-1.687.072-4.947s-.015-3.667-.072-4.947c-.06-1.277-.262-2.149-.558-2.913-.306-.789-.718-1.459-1.384-2.126C21.319 1.347 20.651.935 19.86.63c-.765-.297-1.636-.499-2.913-.558C15.667.012 15.26 0 12 0zm0 2.16c3.203 0 3.585.016 4.85.071 1.17.055 1.805.249 2.227.415.562.217.96.477 1.382.896.419.42.679.819.896 1.381.164.422.36 1.057.413 2.227.057 1.266.07 1.646.07 4.85s-.015 3.585-.074 4.85c-.061 1.17-.256 1.805-.421 2.227-.224.562-.479.96-.899 1.382-.419.419-.824.679-1.38.896-.42.164-1.065.36-2.235.413-1.274.057-1.649.07-4.859.07-3.211 0-3.586-.015-4.859-.074-1.171-.061-1.816-.256-2.236-.421-.569-.224-.96-.479-1.379-.899-.421-.419-.69-.824-.9-1.38-.165-.42-.359-1.065-.42-2.235-.045-1.26-.061-1.649-.061-4.844 0-3.196.016-3.586.061-4.861.061-1.17.255-1.814.42-2.234.21-.57.479-.96.9-1.381.419-.419.81-.689 1.379-.898.42-.166 1.051-.361 2.221-.421 1.275-.045 1.65-.06 4.859-.06l.045.03zm0 3.678c-3.405 0-6.162 2.76-6.162 6.162 0 3.405 2.76 6.162 6.162 6.162 3.405 0 6.162-2.76 6.162-6.162 0-3.405-2.76-6.162-6.162-6.162zM12 16c-2.21 0-4-1.79-4-4s1.79-4 4-4 4 1.79 4 4-1.79 4-4 4zm7.846-10.405c0 .795-.646 1.44-1.44 1.44-.795 0-1.44-.646-1.44-1.44 0-.794.646-1.439 1.44-1.439.793-.001 1.44.645 1.44 1.439z\"/></svg></span></a></p>\n\t\t\t</div><!-- .entry-content -->\n\n\t\n</article><!-- #post-## -->\n\n\t\t</main><!-- .site-main -->\n\t</div><!-- .content-area -->\n\n\n\t</div><!-- .site-content -->\n\n\t<footer id=\"colophon\" class=\"site-footer\" role=\"contentinfo\">\n\t\t<div class=\"site-info\">\n\t\t\t\t\t\t<p></p>\t\t\t<p>&copy; 2019 zum goldenen fass. Alle Rechte vorbehalten.</p>\n\t\t\t<p>\n\t\t\t<a href=\"https://wpneon.com/parole-2015-wordpress-child-theme/\" class=\"imprint\">\n\t\t\t\tParole 2015 Theme.\t\t\t</a><span role=\"separator\" aria-hidden=\"true\"></span>\n\t\t\t<a href=\"https://de.wordpress.org/\" class=\"imprint\">\n\t\t\t\tPräsentiert von WordPress.\t\t\t</a></p>\n\t\t</div><!-- .site-info -->\n\t</footer><!-- .site-footer -->\n\n</div><!-- .site -->\n\n<script>\r\nvar locBut = document.getElementById(\"localina-button\");\r\nif (locBut != null)\r\n{\r\nlocBut.href = \"javascript:void(0);\";\r\nlocBut.addEventListener(\"click\", function(){  Localina.startBooking('0041616933400', '810220201808176f9bd5d4bacdbb67aec80ff49c7e1550', jQuery(this)) } );\r\n}\r\n</script>\n<script type='text/javascript' src='https://www.goldenes-fass.ch/wp-content/themes/twentyfifteen/js/skip-link-focus-fix.js?ver=20141010'></script>\n<script type='text/javascript'>\n/* <![CDATA[ */\nvar screenReaderText = {\"expand\":\"<span class=\\\"screen-reader-text\\\">Untermen\\u00fc anzeigen<\\/span>\",\"collapse\":\"<span class=\\\"screen-reader-text\\\">Untermen\\u00fc verbergen<\\/span>\"};\n/* ]]> */\n</script>\n<script type='text/javascript' src='https://www.goldenes-fass.ch/wp-content/themes/twentyfifteen/js/functions.js?ver=20150330'></script>\n<script type='text/javascript' src='https://www.goldenes-fass.ch/wp-includes/js/wp-embed.min.js?ver=5.1.3'></script>\n\n</body>\n</html>\n",
        "rawHeaders": [
            "Date",
            "Mon, 21 Oct 2019 13:29:21 GMT",
            "Server",
            "Apache",
            "Link",
            "<https://www.goldenes-fass.ch/wp-json/>; rel=\"https://api.w.org/\"",
            "Link",
            "<https://www.goldenes-fass.ch/?p=214>; rel=shortlink",
            "Upgrade",
            "h2,h2c",
            "Connection",
            "Upgrade, close",
            "Transfer-Encoding",
            "chunked",
            "Content-Type",
            "text/html; charset=UTF-8"
        ]
    }
]